<svg xmlns="http://www.w3.org/2000/svg" width="270.054" height="330.228" viewBox="0 0 270.054 330.228">
  <g id="Компонент_18_19" data-name="Компонент 18 – 19" transform="translate(270.05 330.228) rotate(180)">
    <path id="Контур_594" data-name="Контур 594" d="M3.646,22.9H265.834V267.287H136.05v40.226L98.011,329.992H37.293L3.646,310.22Z" transform="translate(-1.712 -0.103)" fill="#dbdbdb"/>
    <path id="Контур_342" data-name="Контур 342" d="M0,0H7.823V249.138H0Z" transform="translate(262.227 18.993)"/>
    <path id="Контур_347" data-name="Контур 347" d="M0,0H7.823V149.854H0Z" transform="translate(269.264 18.993) rotate(90)"/>
    <path id="Контур_348" data-name="Контур 348" d="M0,0H7.823V82.75H0Z" transform="translate(82.912 18.993) rotate(90)"/>
    <path id="Контур_345" data-name="Контур 345" d="M0,0H7.823V249.138H0Z" transform="translate(0.162 18.993)"/>
    <path id="Контур_343" data-name="Контур 343" d="M16738.8,3680v-4.18h2.855v-12.451h24.4v12.761h2.479V3680Z" transform="translate(-16499.313 -3411.871)"/>
    <path id="Контур_346" data-name="Контур 346" d="M16768.6,3680v-4.18h-2.857v-12.451h-24.4v12.761h-2.477V3680Z" transform="translate(-16738.684 -3411.871)"/>
    <path id="Контур_344" data-name="Контур 344" d="M16738.8,3680v-3.87h2.855v-12.761h46.244v12.761h2.475V3680Z" transform="translate(-16630.648 -3411.871)"/>
    <path id="Контур_349" data-name="Контур 349" d="M5.029,82.258H0V0H5.029Z" transform="translate(131.471 90.516)"/>
    <path id="Контур_350" data-name="Контур 350" d="M5.029,30.822H0V0H5.029Z" transform="translate(131.471 25.139)"/>
    <path id="Контур_351" data-name="Контур 351" d="M5.029,11.016H0V0H5.029Z" transform="translate(71.682 25.139)"/>
    <path id="Контур_352" data-name="Контур 352" d="M5.029,29.864H0V0H5.029Z" transform="translate(71.682 71.511)"/>
    <path id="Контур_373" data-name="Контур 373" d="M5.029,4.272H0V0H5.029Z" transform="translate(71.682 136.41)"/>
    <path id="Контур_355" data-name="Контур 355" d="M0,0H5.029V12.942H0Z" transform="translate(123.557 141.439) rotate(-90)"/>
    <path id="Контур_356" data-name="Контур 356" d="M0,0H5.029V17.2H0Z" transform="translate(71.682 143.196) rotate(-90)"/>
    <path id="Контур_354" data-name="Контур 354" d="M5.029,28.74H0V0H5.029Z" transform="translate(131.471 224.062)"/>
    <path id="Контур_353" data-name="Контур 353" d="M0,0H5.029V70.149H0Z" transform="translate(76.711 99.419) rotate(90)"/>
    <path id="Контур_362" data-name="Контур 362" d="M0,0H41.908V7.541H0Z" transform="translate(0.162 308.279) rotate(-90)"/>
    <path id="Контур_365" data-name="Контур 365" d="M16711.1,3679.25v-3.7h4.043v-12.188h87.395v12.188h3.5v3.7Z" transform="translate(-16558.148 -3411.495)" fill="none" stroke="#000" stroke-width="0.5"/>
    <path id="Контур_366" data-name="Контур 366" d="M16360.1,3670.23h92.994" transform="translate(-16205.232 -3406.089)" fill="none" stroke="#000" stroke-width="0.5"/>
    <path id="Контур_367" data-name="Контур 367" d="M16778.2,3679.6v-3.777h-2.855V3663.37h-61.738v12.453h-2.477v3.777Z" transform="translate(-16710.109 -3411.871)" fill="none" stroke="#000" stroke-width="0.5"/>
    <path id="Контур_368" data-name="Контур 368" d="M16408.4,3671.48h-48.234" transform="translate(-16340.932 -3407.523)" fill="none" stroke="#000" stroke-width="0.5"/>
    <path id="Контур_369" data-name="Контур 369" d="M0,0H5.029V61.465H0Z" transform="translate(69.168 143.196) rotate(90)"/>
    <path id="Контур_372" data-name="Контур 372" d="M0,0H5.029V67.608H0Z" transform="translate(71.682 163.87) rotate(90)"/>
    <path id="Контур_370" data-name="Контур 370" d="M0,0H5.029V20.675H0Z" transform="translate(66.652 143.196)"/>
    <path id="Контур_371" data-name="Контур 371" d="M16326.5,3943.44h53.4v-8.462l-1.67,6.765Z" transform="translate(-16316.292 -3783.973)"/>
    <path id="Контур_374" data-name="Контур 374" d="M0,34.644H1.676V0H0Z" transform="translate(83.082 25.682) rotate(-135)"/>
    <path id="Контур_375" data-name="Контур 375" d="M82.051,64.044a25.444,25.444,0,0,0,.431-4.711A25.736,25.736,0,0,0,70.428,37.569" transform="translate(36.369 -37.228)" fill="none" stroke="#000" stroke-width="0.5"/>
    <path id="Контур_376" data-name="Контур 376" d="M0,32.409H1.676V0H0Z" transform="matrix(0.857, 0.515, -0.515, 0.857, 123.557, 137.705)"/>
    <path id="Контур_377" data-name="Контур 377" d="M0,29.7A23.751,23.751,0,0,0,16.159,7.138,23.983,23.983,0,0,0,15.07,0" transform="matrix(-0.515, 0.857, -0.857, -0.515, 115.84, 152.889)" fill="none" stroke="#000" stroke-width="0.5"/>
    <path id="Контур_378" data-name="Контур 378" d="M0,34.644H1.676V0H0Z" transform="translate(72.816 35.152) rotate(-45)"/>
    <path id="Контур_380" data-name="Контур 380" d="M0,0H1.536V31.745H0Z" transform="translate(94.826 115.367) rotate(45)"/>
    <path id="Контур_379" data-name="Контур 379" d="M11.623,26.474a25.445,25.445,0,0,0,.431-4.711A25.736,25.736,0,0,0,0,0" transform="translate(98.156 58.866) rotate(90)" fill="none" stroke="#000" stroke-width="0.5"/>
    <path id="Контур_381" data-name="Контур 381" d="M10.651,0a23.315,23.315,0,0,1,.4,4.317A23.583,23.583,0,0,1,0,24.259" transform="translate(71.34 116.084) rotate(-90)" fill="none" stroke="#000" stroke-width="0.5"/>
    <path id="_17.0_м2" data-name="17.0 м2" d="M3.522-.882V-7.236L1.08-6.36V-7.3L4.446-8.5V-.88h2.2V0H1.17V-.882ZM13.68-7.674,9.882,0H8.8l3.762-7.524H7.98V-8.4h5.7Zm1.767,6.507a.72.72,0,0,1,.525-.225.72.72,0,0,1,.525.225.72.72,0,0,1,.225.525.729.729,0,0,1-.225.528.715.715,0,0,1-.525.228.715.715,0,0,1-.525-.228.729.729,0,0,1-.225-.528.72.72,0,0,1,.225-.525Zm5.709-7.341a2.771,2.771,0,0,1,1.212.267,2.916,2.916,0,0,1,.987.783A3.744,3.744,0,0,1,24.03-6.1a6.76,6.76,0,0,1,.246,1.9,7.414,7.414,0,0,1-.162,1.617,4.455,4.455,0,0,1-.444,1.221,3.008,3.008,0,0,1-.678.831,2.6,2.6,0,0,1-.855.486,3.083,3.083,0,0,1-.981.153,2.99,2.99,0,0,1-1.227-.249,2.851,2.851,0,0,1-1-.753,3.568,3.568,0,0,1-.687-1.35A6.946,6.946,0,0,1,17.994-4.2a6.946,6.946,0,0,1,.249-1.956,3.568,3.568,0,0,1,.687-1.35,2.851,2.851,0,0,1,1-.753,2.99,2.99,0,0,1,1.226-.249Zm0,.888a2.008,2.008,0,0,0-.693.117,1.813,1.813,0,0,0-.6.375,2.23,2.23,0,0,0-.48.651,3.8,3.8,0,0,0-.312.972,6.788,6.788,0,0,0-.114,1.3,6.788,6.788,0,0,0,.114,1.3,3.8,3.8,0,0,0,.312.972,2.23,2.23,0,0,0,.48.651,1.813,1.813,0,0,0,.6.375,2.009,2.009,0,0,0,.693.117A1.941,1.941,0,0,0,21.837-.9a1.766,1.766,0,0,0,.591-.375,2.245,2.245,0,0,0,.471-.651A3.814,3.814,0,0,0,23.2-2.9a6.966,6.966,0,0,0,.111-1.3,6.178,6.178,0,0,0-.171-1.53,3.148,3.148,0,0,0-.468-1.07A2.02,2.02,0,0,0,22-7.416a1.762,1.762,0,0,0-.844-.2Zm7.606,1.4H30.4l1.635,4.98,1.816-4.98h1.518V0H34.317V-5.01L32.477,0h-.943l-1.74-5.25V0H28.762Zm7.906-1.928a1.716,1.716,0,0,1,1.5-.812,1.534,1.534,0,0,1,1.146.425,1.489,1.489,0,0,1,.418,1.09,1.531,1.531,0,0,1-.18.742,3.024,3.024,0,0,1-.478.644L37.613-4.515H39.9V-4H36.812v-.424l1.852-1.953a1.564,1.564,0,0,0,.5-1.071,1,1,0,0,0-.27-.719.983.983,0,0,0-.746-.282,1.373,1.373,0,0,0-.369.047.965.965,0,0,0-.3.14,1.663,1.663,0,0,0-.227.191,2,2,0,0,0-.194.234Z" transform="translate(223.836 79.801) rotate(180)"/>
    <path id="_8.0_м2" data-name="8.0 м2" d="M2.136-8.244A3.88,3.88,0,0,1,3.6-8.508a3.88,3.88,0,0,1,1.464.264,2.419,2.419,0,0,1,1.053.8,2,2,0,0,1,.4,1.239,1.883,1.883,0,0,1-.4,1.227,2.425,2.425,0,0,1-1.062.741,2.81,2.81,0,0,1,1.206.75,1.786,1.786,0,0,1,.456,1.254A1.993,1.993,0,0,1,6.288-.966a2.584,2.584,0,0,1-1.125.81A4.308,4.308,0,0,1,3.6.114a4.308,4.308,0,0,1-1.563-.27A2.584,2.584,0,0,1,.912-.966,1.993,1.993,0,0,1,.486-2.238,1.786,1.786,0,0,1,.942-3.492a2.81,2.81,0,0,1,1.206-.75,2.425,2.425,0,0,1-1.062-.741,1.883,1.883,0,0,1-.4-1.227,2,2,0,0,1,.4-1.239,2.419,2.419,0,0,1,1.05-.8ZM3.6-3.828a2.7,2.7,0,0,0-1.53.4A1.286,1.286,0,0,0,1.464-2.3,1.291,1.291,0,0,0,2.07-1.155a2.7,2.7,0,0,0,1.53.4,2.686,2.686,0,0,0,1.524-.405A1.291,1.291,0,0,0,5.73-2.292a1.286,1.286,0,0,0-.606-1.131A2.686,2.686,0,0,0,3.6-3.828ZM4.986-7.251A2.33,2.33,0,0,0,3.6-7.644a2.33,2.33,0,0,0-1.386.393,1.263,1.263,0,0,0-.552,1.089,1.31,1.31,0,0,0,.549,1.125,2.3,2.3,0,0,0,1.389.4,2.3,2.3,0,0,0,1.389-.4,1.31,1.31,0,0,0,.549-1.125,1.263,1.263,0,0,0-.552-1.089ZM8.247-1.167a.72.72,0,0,1,.525-.225.72.72,0,0,1,.525.225.72.72,0,0,1,.225.525A.729.729,0,0,1,9.3-.114a.715.715,0,0,1-.525.228A.715.715,0,0,1,8.25-.114a.729.729,0,0,1-.225-.528A.72.72,0,0,1,8.247-1.167Zm5.709-7.341a2.771,2.771,0,0,1,1.212.267,2.917,2.917,0,0,1,.987.783A3.744,3.744,0,0,1,16.83-6.1,6.76,6.76,0,0,1,17.076-4.2a7.414,7.414,0,0,1-.162,1.617,4.455,4.455,0,0,1-.444,1.221,3.008,3.008,0,0,1-.678.831,2.6,2.6,0,0,1-.855.486,3.083,3.083,0,0,1-.981.153,2.99,2.99,0,0,1-1.227-.249,2.851,2.851,0,0,1-1-.753,3.568,3.568,0,0,1-.687-1.35A6.946,6.946,0,0,1,10.794-4.2a6.946,6.946,0,0,1,.249-1.956,3.568,3.568,0,0,1,.687-1.35,2.851,2.851,0,0,1,1-.753,2.99,2.99,0,0,1,1.226-.249Zm0,.888a2.008,2.008,0,0,0-.693.117,1.813,1.813,0,0,0-.6.375,2.23,2.23,0,0,0-.48.651,3.8,3.8,0,0,0-.312.972,6.788,6.788,0,0,0-.114,1.3,6.788,6.788,0,0,0,.114,1.3,3.8,3.8,0,0,0,.312.972,2.23,2.23,0,0,0,.48.651,1.813,1.813,0,0,0,.6.375,2.009,2.009,0,0,0,.693.117A1.941,1.941,0,0,0,14.637-.9a1.766,1.766,0,0,0,.591-.375,2.245,2.245,0,0,0,.471-.651A3.814,3.814,0,0,0,16-2.9a6.966,6.966,0,0,0,.111-1.3,6.178,6.178,0,0,0-.171-1.53,3.148,3.148,0,0,0-.468-1.07,2.02,2.02,0,0,0-.681-.612,1.762,1.762,0,0,0-.84-.208Zm7.606,1.4H23.2l1.635,4.98,1.816-4.98h1.518V0H27.117V-5.01L25.277,0h-.943l-1.74-5.25V0H21.562Zm7.906-1.928a1.716,1.716,0,0,1,1.5-.812,1.534,1.534,0,0,1,1.146.425,1.489,1.489,0,0,1,.418,1.09,1.531,1.531,0,0,1-.18.742,3.024,3.024,0,0,1-.478.644L30.413-4.515H32.7V-4H29.612v-.424l1.851-1.953a1.564,1.564,0,0,0,.5-1.071,1,1,0,0,0-.27-.719.983.983,0,0,0-.746-.282,1.373,1.373,0,0,0-.369.047.965.965,0,0,0-.3.14,1.663,1.663,0,0,0-.228.191,2,2,0,0,0-.194.234Z" transform="translate(91.268 205.931) rotate(180)"/>
    <path id="_3.5_м2" data-name="3.5 м2" d="M3.342-8.508a3.039,3.039,0,0,1,2.01.639A2.057,2.057,0,0,1,6.12-6.21,2.046,2.046,0,0,1,5.772-5a2.216,2.216,0,0,1-.966.756,2.37,2.37,0,0,1,1.1.759,1.929,1.929,0,0,1,.4,1.233,2.213,2.213,0,0,1-.24,1.041,2.024,2.024,0,0,1-.648.741A3.122,3.122,0,0,1,4.5-.039,3.881,3.881,0,0,1,3.42.108,3.45,3.45,0,0,1,.7-1l.594-.618a2.688,2.688,0,0,0,.942.636A3.076,3.076,0,0,0,3.4-.756a2.318,2.318,0,0,0,1.386-.4A1.317,1.317,0,0,0,5.338-2.3a1.294,1.294,0,0,0-.579-1.116A2.454,2.454,0,0,0,3.31-3.82H2.21v-.846h1.1a2.152,2.152,0,0,0,1.329-.39,1.306,1.306,0,0,0,.519-1.11A1.292,1.292,0,0,0,4.63-7.24a2.124,2.124,0,0,0-1.338-.408,2.172,2.172,0,0,0-1.074.267,2.339,2.339,0,0,0-.78.687L.768-7.26a2.728,2.728,0,0,1,1.041-.906,3.3,3.3,0,0,1,1.533-.342Zm4.9,7.341a.72.72,0,0,1,.525-.225.72.72,0,0,1,.525.225.72.72,0,0,1,.225.525A.729.729,0,0,1,9.3-.114a.715.715,0,0,1-.525.228A.715.715,0,0,1,8.25-.114a.729.729,0,0,1-.225-.528A.72.72,0,0,1,8.247-1.167Zm8.067-6.357H12.606L12.528-5.04h1.236a3.089,3.089,0,0,1,2.175.7A2.308,2.308,0,0,1,16.7-2.57a2.663,2.663,0,0,1-.39,1.452,2.441,2.441,0,0,1-1.035.924,3.339,3.339,0,0,1-1.449.306A3.5,3.5,0,0,1,10.98-1.194l.618-.6a2.827,2.827,0,0,0,1,.759,2.915,2.915,0,0,0,1.23.267,1.938,1.938,0,0,0,1.4-.492,1.639,1.639,0,0,0,.51-1.23,1.511,1.511,0,0,0-.546-1.21,2.616,2.616,0,0,0-1.71-.462h-1.83L11.76-8.4h4.554Zm5.248,1.3H23.2l1.635,4.98,1.816-4.98h1.518V0H27.117V-5.01L25.277,0h-.943l-1.74-5.25V0H21.562Zm7.906-1.928a1.716,1.716,0,0,1,1.5-.812,1.534,1.534,0,0,1,1.146.425,1.489,1.489,0,0,1,.418,1.09,1.531,1.531,0,0,1-.18.742,3.024,3.024,0,0,1-.478.644L30.413-4.515H32.7V-4H29.612v-.424l1.851-1.953a1.564,1.564,0,0,0,.5-1.071,1,1,0,0,0-.27-.719.983.983,0,0,0-.746-.282,1.373,1.373,0,0,0-.369.047.965.965,0,0,0-.3.14,1.663,1.663,0,0,0-.228.191,2,2,0,0,0-.194.234Z" transform="translate(124.182 78.071) rotate(180)"/>
    <path id="_1.4_м2" data-name="1.4 м2" d="M3.522-.882V-7.236L1.08-6.36V-7.3L4.446-8.5V-.88h2.2V0H1.17V-.882Zm4.725-.285a.72.72,0,0,1,.525-.225.72.72,0,0,1,.525.225.72.72,0,0,1,.225.525A.729.729,0,0,1,9.3-.114a.715.715,0,0,1-.525.228A.715.715,0,0,1,8.25-.114a.729.729,0,0,1-.225-.528A.72.72,0,0,1,8.247-1.167ZM15.678-2.64h1.434v.876H15.678V0h-.924V-1.764H10.83v-.714l3.138-5.916h1.05L11.94-2.64h2.814V-4.98h.924Zm5.884-3.583H23.2l1.635,4.98,1.816-4.98h1.518V0H27.117V-5.01L25.277,0h-.943l-1.74-5.25V0H21.562Zm7.906-1.928a1.716,1.716,0,0,1,1.5-.812,1.534,1.534,0,0,1,1.146.425,1.489,1.489,0,0,1,.418,1.09,1.531,1.531,0,0,1-.18.742,3.024,3.024,0,0,1-.478.644L30.413-4.515H32.7V-4H29.612v-.424l1.851-1.953a1.564,1.564,0,0,0,.5-1.071,1,1,0,0,0-.27-.719.983.983,0,0,0-.746-.282,1.373,1.373,0,0,0-.369.047.965.965,0,0,0-.3.14,1.663,1.663,0,0,0-.228.191,2,2,0,0,0-.194.234Z" transform="translate(55.814 116.084) rotate(180)"/>
    <path id="_2.8_м2" data-name="2.8 м2" d="M.816-7.116A2.942,2.942,0,0,1,3.39-8.508a2.63,2.63,0,0,1,1.965.729A2.553,2.553,0,0,1,6.072-5.91a2.625,2.625,0,0,1-.309,1.272,5.183,5.183,0,0,1-.819,1.1L2.436-.882H6.348V0H1.062V-.726L4.236-4.074A2.681,2.681,0,0,0,5.1-5.91a1.711,1.711,0,0,0-.462-1.233A1.685,1.685,0,0,0,3.36-7.626a2.354,2.354,0,0,0-.633.081,1.654,1.654,0,0,0-.516.24,2.851,2.851,0,0,0-.39.327,3.42,3.42,0,0,0-.333.4ZM8.247-1.167a.72.72,0,0,1,.525-.225.72.72,0,0,1,.525.225.72.72,0,0,1,.225.525A.729.729,0,0,1,9.3-.114a.715.715,0,0,1-.525.228A.715.715,0,0,1,8.25-.114a.729.729,0,0,1-.225-.528A.72.72,0,0,1,8.247-1.167Zm4.227-7.077a3.88,3.88,0,0,1,1.464-.264,3.88,3.88,0,0,1,1.464.264,2.419,2.419,0,0,1,1.053.8,2,2,0,0,1,.4,1.239,1.883,1.883,0,0,1-.4,1.227,2.425,2.425,0,0,1-1.062.741,2.81,2.81,0,0,1,1.206.75,1.786,1.786,0,0,1,.456,1.254,1.993,1.993,0,0,1-.426,1.272,2.584,2.584,0,0,1-1.125.81,4.308,4.308,0,0,1-1.563.27,4.308,4.308,0,0,1-1.563-.27,2.584,2.584,0,0,1-1.125-.81,1.993,1.993,0,0,1-.426-1.272,1.786,1.786,0,0,1,.456-1.254,2.81,2.81,0,0,1,1.206-.75,2.425,2.425,0,0,1-1.062-.741,1.883,1.883,0,0,1-.4-1.227,2,2,0,0,1,.4-1.239,2.419,2.419,0,0,1,1.047-.8Zm1.464,4.416a2.7,2.7,0,0,0-1.53.4A1.286,1.286,0,0,0,11.8-2.292a1.291,1.291,0,0,0,.606,1.137,2.7,2.7,0,0,0,1.53.4,2.686,2.686,0,0,0,1.524-.405,1.291,1.291,0,0,0,.606-1.137,1.286,1.286,0,0,0-.606-1.131,2.686,2.686,0,0,0-1.522-.405Zm1.386-3.423a2.33,2.33,0,0,0-1.386-.393,2.33,2.33,0,0,0-1.386.393A1.263,1.263,0,0,0,12-6.162a1.31,1.31,0,0,0,.549,1.125,2.3,2.3,0,0,0,1.389.4,2.3,2.3,0,0,0,1.389-.4,1.31,1.31,0,0,0,.549-1.125,1.263,1.263,0,0,0-.552-1.089Zm6.238,1.028H23.2l1.635,4.98,1.816-4.98h1.518V0H27.117V-5.01L25.277,0h-.943l-1.74-5.25V0H21.562Zm7.906-1.928a1.716,1.716,0,0,1,1.5-.812,1.534,1.534,0,0,1,1.146.425,1.489,1.489,0,0,1,.418,1.09,1.531,1.531,0,0,1-.18.742,3.024,3.024,0,0,1-.478.644L30.413-4.515H32.7V-4H29.612v-.424l1.851-1.953a1.564,1.564,0,0,0,.5-1.071,1,1,0,0,0-.27-.719.983.983,0,0,0-.746-.282,1.373,1.373,0,0,0-.369.047.965.965,0,0,0-.3.14,1.663,1.663,0,0,0-.228.191,2,2,0,0,0-.194.234Z" transform="translate(55.814 51.435) rotate(180)"/>
    <g id="lock-outlined-24px" transform="translate(111.044 106.693)" opacity="0">
      <g id="Сгруппировать_134" data-name="Сгруппировать 134">
        <path id="Контур_654" data-name="Контур 654" d="M0,0H45.172V49.9H0Z" fill="none"/>
        <path id="Контур_655" data-name="Контур 655" d="M0,0H45.172V49.9H0Z" fill="none" opacity="0.87"/>
      </g>
      <path id="Контур_656" data-name="Контур 656" d="M36.525,16.635H34.2V12.168A11.4,11.4,0,0,0,22.586,1,11.4,11.4,0,0,0,10.97,12.168v4.467H8.646A4.573,4.573,0,0,0,4,21.1V43.437A4.573,4.573,0,0,0,8.646,47.9H36.525a4.573,4.573,0,0,0,4.646-4.467V21.1a4.573,4.573,0,0,0-4.646-4.465ZM15.616,12.168a6.83,6.83,0,0,1,6.97-6.7,6.83,6.83,0,0,1,6.97,6.7v4.467H15.616Zm20.909,31.27H8.646V21.1H36.525Zm-13.939-6.7a4.471,4.471,0,1,0-4.646-4.467,4.573,4.573,0,0,0,4.646,4.466Z" fill="#fff"/>
    </g>
    <path id="Контур_1458" data-name="Контур 1458" d="M5,48.464H0V0H5Z" transform="translate(131.501 259.815)"/>
    <path id="Контур_1459" data-name="Контур 1459" d="M100.07,21.118H39.092L5.518.157,3,4.512,36.893,26.147H101.71L139.162,4.355,136.647,0Z" transform="translate(-3.004 304.081)"/>
    <path id="_4.0_м2" data-name="4.0 м2" d="M5.34-2.64H6.774v.876H5.34V0H4.416V-1.764H.492v-.714L3.63-8.394H4.68L1.6-2.64H4.416V-4.98H5.34ZM8.247-1.167a.72.72,0,0,1,.525-.225.72.72,0,0,1,.525.225.72.72,0,0,1,.225.525A.729.729,0,0,1,9.3-.114a.715.715,0,0,1-.525.228A.715.715,0,0,1,8.25-.114a.729.729,0,0,1-.225-.528A.72.72,0,0,1,8.247-1.167Zm5.709-7.341a2.771,2.771,0,0,1,1.212.267,2.917,2.917,0,0,1,.987.783A3.744,3.744,0,0,1,16.83-6.1,6.76,6.76,0,0,1,17.076-4.2a7.414,7.414,0,0,1-.162,1.617,4.455,4.455,0,0,1-.444,1.221,3.008,3.008,0,0,1-.678.831,2.6,2.6,0,0,1-.855.486,3.083,3.083,0,0,1-.981.153,2.99,2.99,0,0,1-1.227-.249,2.851,2.851,0,0,1-1-.753,3.568,3.568,0,0,1-.687-1.35A6.946,6.946,0,0,1,10.794-4.2a6.946,6.946,0,0,1,.249-1.956,3.568,3.568,0,0,1,.687-1.35,2.851,2.851,0,0,1,1-.753,2.99,2.99,0,0,1,1.226-.249Zm0,.888a2.008,2.008,0,0,0-.693.117,1.813,1.813,0,0,0-.6.375,2.23,2.23,0,0,0-.48.651,3.8,3.8,0,0,0-.312.972,6.788,6.788,0,0,0-.114,1.3,6.788,6.788,0,0,0,.114,1.3,3.8,3.8,0,0,0,.312.972,2.23,2.23,0,0,0,.48.651,1.813,1.813,0,0,0,.6.375,2.009,2.009,0,0,0,.693.117A1.941,1.941,0,0,0,14.637-.9a1.766,1.766,0,0,0,.591-.375,2.245,2.245,0,0,0,.471-.651A3.814,3.814,0,0,0,16-2.9a6.966,6.966,0,0,0,.111-1.3,6.178,6.178,0,0,0-.171-1.53,3.148,3.148,0,0,0-.468-1.07,2.02,2.02,0,0,0-.681-.612,1.762,1.762,0,0,0-.84-.208Zm7.606,1.4H23.2l1.635,4.98,1.816-4.98h1.518V0H27.117V-5.01L25.277,0h-.943l-1.74-5.25V0H21.562Zm7.906-1.928a1.716,1.716,0,0,1,1.5-.812,1.534,1.534,0,0,1,1.146.425,1.489,1.489,0,0,1,.418,1.09,1.531,1.531,0,0,1-.18.742,3.024,3.024,0,0,1-.478.644L30.413-4.515H32.7V-4H29.612v-.424l1.851-1.953a1.564,1.564,0,0,0,.5-1.071,1,1,0,0,0-.27-.719.983.983,0,0,0-.746-.282,1.373,1.373,0,0,0-.369.047.965.965,0,0,0-.3.14,1.663,1.663,0,0,0-.228.191,2,2,0,0,0-.194.234Z" transform="translate(91.703 290.326) rotate(180)"/>
    <path id="_35.7_м2" data-name="35.7 м2" d="M1.215-.492V-2.134A4.842,4.842,0,0,0,4.3-1.058a3.348,3.348,0,0,0,2.222-.7,2.319,2.319,0,0,0,.83-1.874q0-2.607-3.7-2.607h-1.1v-1.29H3.59q3.293,0,3.293-2.449,0-2.264-2.514-2.264a4.265,4.265,0,0,0-2.644.956v-1.484a5.811,5.811,0,0,1,3.024-.761,3.905,3.905,0,0,1,2.686.891,2.91,2.91,0,0,1,1.007,2.282A3.252,3.252,0,0,1,5.771-6.977v.037A3.559,3.559,0,0,1,8.057-5.933a2.973,2.973,0,0,1,.849,2.166A3.618,3.618,0,0,1,7.621-.877,5.036,5.036,0,0,1,4.23.223,5.563,5.563,0,0,1,1.215-.492Zm18.62-3.043H18.128V0h-1.5V-3.535H10.372v-.993L16.291-13.3h1.837v8.535h1.707Zm-3.21-1.234v-5.752q0-.612.037-1.373h-.037a9.47,9.47,0,0,1-.51,1.021l-4.091,6.1ZM22.553.2A.985.985,0,0,1,21.825-.1a1.008,1.008,0,0,1-.3-.733,1.023,1.023,0,0,1,.3-.738.978.978,0,0,1,.728-.311,1,1,0,0,1,.742.311,1.015,1.015,0,0,1,.306.738A1,1,0,0,1,23.3-.1,1.011,1.011,0,0,1,22.553.2Zm11.42-13.025L28.7,0H27.127l4.982-11.931H25.4V-13.3h8.572Zm7.515,2.969h3.229l2.449,6.865,2.468-6.865h3.219V0H50.636V-6.485L48.233,0H46.006L43.715-6.485V0H41.488ZM59.3-6H54.625v-.79l2.262-2.267A9.455,9.455,0,0,0,58.124-10.5a2.236,2.236,0,0,0,.371-1.231,1.371,1.371,0,0,0-.384-1.039,1.518,1.518,0,0,0-1.093-.368,2.9,2.9,0,0,0-1.991.888v-.931a3.343,3.343,0,0,1,2.116-.709,2.283,2.283,0,0,1,1.634.563,1.979,1.979,0,0,1,.6,1.51,2.881,2.881,0,0,1-.411,1.458,9.238,9.238,0,0,1-1.477,1.767l-1.791,1.77V-6.8H59.3Z" transform="translate(225.693 156.024) rotate(180)"/>
  </g>
</svg>
