<svg xmlns="http://www.w3.org/2000/svg" width="400.64" height="351.008" viewBox="0 0 400.64 351.008">
  <g id="Сгруппировать_632" data-name="Сгруппировать 632" transform="translate(-1528.384 -3133.746) rotate(180)">
    <g id="Компонент_20_10" data-name="Компонент 20 – 10" transform="translate(-1929.024 -3484.253)">
      <path id="Контур_596" data-name="Контур 596" d="M362.928,2.514l34.734,20.692V284.451H134.443V344.2H3.1L2.8,62.664H131.66L130.725,21.9,168.564-.456H233.1L267.348,20.7,300.114,2.51Z" transform="translate(0.206 0.456)" fill="#CFB821"/>
      <path id="Контур_310" data-name="Контур 310" d="M0,0H7.823V265.975H0Z" transform="translate(392.817 21.949)"/>
      <path id="Контур_309" data-name="Контур 309" d="M0,0H7.823V224.067H0Z" transform="translate(261.504 21.949)"/>
      <path id="Контур_308" data-name="Контур 308" d="M0,0H7.823V223.508H0Z" transform="translate(129.635 21.949)"/>
      <path id="Контур_307" data-name="Контур 307" d="M0,0H7.823V197.8H0Z" transform="translate(396.727 280.102) rotate(90)"/>
      <path id="Контур_306" data-name="Контур 306" d="M0,0H7.823V33.526H0Z" transform="translate(163.161 280.102) rotate(90)"/>
      <path id="Контур_305" data-name="Контур 305" d="M0,0H41.349V11.734H0Z" transform="translate(148.633 21.949) rotate(90)"/>
      <path id="Контур_304" data-name="Контур 304" d="M0,0H62.024V9.5H0Z" transform="translate(231.333 14.685) rotate(180)"/>
      <path id="Контур_303" data-name="Контур 303" d="M0,0H40.231V9.5H0Z" transform="translate(174.252 13.256) rotate(150)"/>
      <path id="Контур_302" data-name="Контур 302" d="M0,0H36.32V10.058H0Z" transform="translate(231.129 4.705) rotate(30)"/>
      <path id="Контур_301" data-name="Контур 301" d="M0,0H41.908V11.175H0Z" transform="translate(263.182 21.949) rotate(90)"/>
      <path id="Контур_300" data-name="Контур 300" d="M0,0H5.029V44.7H0Z" transform="translate(166.514 224.783) rotate(90)"/>
      <path id="Контур_299" data-name="Контур 299" d="M0,0H5.029V42.187H0Z" transform="translate(77.67 344.081) rotate(180)"/>
      <path id="Контур_298" data-name="Контур 298" d="M0,0H5.029V72.081H0Z" transform="translate(75.993 263.339) rotate(90)"/>
      <path id="Контур_297" data-name="Контур 297" d="M0,0H5.029V15.646H0Z" transform="translate(83.258 224.783) rotate(90)"/>
      <path id="Контур_296" data-name="Контур 296" d="M0,0H5.029V61.465H0Z" transform="translate(67.612 207.461) rotate(90)"/>
      <path id="Контур_295" data-name="Контур 295" d="M0,0H5.029V61.465H0Z" transform="translate(67.612 224.783) rotate(90)"/>
      <path id="Контур_294" data-name="Контур 294" d="M0,0H5.029V63.141H0Z" transform="translate(263.741 224.783) rotate(90)"/>
      <path id="Контур_293" data-name="Контур 293" d="M0,0H7.823V133.546H0Z" transform="translate(133.547 342.684) rotate(90)"/>
      <path id="Контур_292" data-name="Контур 292" d="M0,0H5.029V43.584H0Z" transform="translate(360.301 4.355) rotate(-60)"/>
      <path id="Контур_163" data-name="Контур 163" d="M100.07,5.03H39.092L2.514,26.148,0,21.793,36.893,0H101.71l37.451,21.792-2.514,4.355Z" transform="translate(131.206 -0.001)" fill="none" stroke="#000" stroke-width="1"/>
      <path id="Контур_291" data-name="Контур 291" d="M0,0H5.029V64.817H0Z" transform="translate(298.292 5.029) rotate(-90)"/>
      <path id="Контур_290" data-name="Контур 290" d="M0,0H5.029V43.584H0Z" transform="translate(263.915 26.148) rotate(-120)"/>
      <path id="Контур_159" data-name="Контур 159" d="M16738.844,3663.372v3.87h2.855V3680h46.244v-12.761h2.475v-3.87Z" transform="translate(-16499.217 -3600.983)"/>
      <path id="Контур_166" data-name="Контур 166" d="M16711.117,3663.372v3.784h2.855v12.477h61.734v-12.477h2.48v-3.784Z" transform="translate(-16520.592 -3600.983)" fill="none" stroke="#000" stroke-width="0.5"/>
      <path id="Контур_167" data-name="Контур 167" d="M16711.117,3663.372v3.777h2.855V3679.6h61.734v-12.454h2.48v-3.777Z" transform="translate(-16390.385 -3600.583)" fill="none" stroke="#000" stroke-width="0.5"/>
      <path id="Контур_161" data-name="Контур 161" d="M16738.844,3663.372v3.87h2.855V3680h46.244v-12.761h2.475v-3.87Z" transform="translate(-16629.969 -3600.983)"/>
      <path id="Контур_162" data-name="Контур 162" d="M16782.016,3662.98v4.088h2.857v12.761h22.117v-12.761h2.479v-4.088Z" transform="translate(-16781.443 -3600.811)"/>
      <path id="Контур_160" data-name="Контур 160" d="M16738.844,3663.372v4.385h2.855v13.065h40.055v-13.389h2.471v-4.061Z" transform="translate(-16384.199 -3600.983)"/>
      <path id="Контур_289" data-name="Контур 289" d="M0,0H7.823V66.494H0Z" transform="translate(137.458 350.507) rotate(180)"/>
      <path id="Контур_288" data-name="Контур 288" d="M0,0H7.823V284.414H0Z" transform="translate(7.823 346.595) rotate(180)"/>
      <path id="Контур_287" data-name="Контур 287" d="M0,0H5.029V11.175H0Z" transform="translate(77.67 235.959) rotate(180)"/>
      <path id="Контур_286" data-name="Контур 286" d="M0,0H5.029V11.175H0Z" transform="translate(77.67 274.514) rotate(180)"/>
      <path id="Контур_164" data-name="Контур 164" d="M16546.486,3575.982l36.852-21.579,63.207-.037,37.318,21.533-.871,1.673-36.957-21.515-62.385.036-36.27,21.5Z" transform="translate(-16414.346 -3552.887)"/>
      <path id="Контур_165" data-name="Контур 165" d="M0,0H99.461V15.646H0Z" transform="translate(17.323 62.74)" fill="none" stroke="#000" stroke-width="0.5"/>
      <path id="Контур_285" data-name="Контур 285" d="M0,0H1.676V32.409H0Z" transform="translate(294.176 264.456) rotate(60)"/>
      <path id="Контур_284" data-name="Контур 284" d="M0,0H1.676V34.644H0Z" transform="translate(182.188 197.296) rotate(30)"/>
      <path id="Контур_283" data-name="Контур 283" d="M0,0H1.676V34.644H0Z" transform="translate(187.092 306.609) rotate(135)"/>
      <path id="Контур_282" data-name="Контур 282" d="M0,0H1.676V34.644H0Z" transform="translate(124.751 226.993) rotate(137)"/>
      <path id="Контур_281" data-name="Контур 281" d="M0,0H1.676V23.945H0Z" transform="translate(92.434 252.117) rotate(135)"/>
      <path id="Контур_280" data-name="Контур 280" d="M0,0H1.676V24.029H0Z" transform="translate(75.502 302.667) rotate(-135)"/>
      <path id="Контур_168" data-name="Контур 168" d="M69.444,3.921A27.891,27.891,0,0,1,86.518,29.669a28.447,28.447,0,0,1-.63,5.926" transform="translate(113.522 193.997)" fill="none" stroke="#000" stroke-width="0.5"/>
      <path id="Контур_172" data-name="Контур 172" d="M0,0A17.018,17.018,0,0,1,10.418,15.71a17.356,17.356,0,0,1-.384,3.616" transform="translate(91.967 252.113) rotate(90)" fill="none" stroke="#000" stroke-width="0.5"/>
      <path id="Контур_169" data-name="Контур 169" d="M86.518,3.921A27.891,27.891,0,0,0,69.444,29.669c0,.715.027,1.424.1,2.307" transform="translate(14.588 198.293)" fill="none" stroke="#000" stroke-width="0.5"/>
      <path id="Контур_170" data-name="Контур 170" d="M0,0A23.764,23.764,0,0,1,18.967,23.305a23.983,23.983,0,0,1-1.089,7.138" transform="translate(263.772 248.249) rotate(-30)" fill="none" stroke="#000" stroke-width="0.5"/>
      <path id="Контур_171" data-name="Контур 171" d="M82.051,37.569a25.444,25.444,0,0,1,.431,4.711A25.736,25.736,0,0,1,70.428,64.044" transform="translate(115.881 243.409)" fill="none" stroke="#000" stroke-width="0.5"/>
      <path id="Контур_173" data-name="Контур 173" d="M0,19.326A17.018,17.018,0,0,0,10.418,3.616,17.355,17.355,0,0,0,10.034,0" transform="translate(72.641 285.739) rotate(-90)" fill="none" stroke="#000" stroke-width="0.5"/>
      <path id="Контур_279" data-name="Контур 279" d="M0,0H5.029V20.675H0Z" transform="translate(65.098 207.461)"/>
      <path id="Контур_174" data-name="Контур 174" d="M16326.519,3943.442h53.406v-8.462l-1.672,6.766Z" transform="translate(-16317.288 -3720.825)"/>
      <path id="_10.4_м2" data-name="10.4 м2" d="M3.522-.882V-7.236L1.08-6.36V-7.3L4.446-8.5v7.62h2.2V0H1.17V-.882Zm7.3-7.626a2.771,2.771,0,0,1,1.212.267,2.917,2.917,0,0,1,.987.783,3.744,3.744,0,0,1,.675,1.353A6.76,6.76,0,0,1,13.938-4.2a7.414,7.414,0,0,1-.162,1.617,4.455,4.455,0,0,1-.444,1.221,3.008,3.008,0,0,1-.678.831,2.6,2.6,0,0,1-.855.486,3.083,3.083,0,0,1-.981.153A2.99,2.99,0,0,1,9.591-.141a2.852,2.852,0,0,1-1-.753,3.568,3.568,0,0,1-.687-1.35A6.946,6.946,0,0,1,7.656-4.2a6.946,6.946,0,0,1,.249-1.956,3.568,3.568,0,0,1,.687-1.35,2.851,2.851,0,0,1,1-.753A2.99,2.99,0,0,1,10.818-8.508Zm0,.888a2.009,2.009,0,0,0-.693.117,1.813,1.813,0,0,0-.6.375,2.23,2.23,0,0,0-.48.651,3.8,3.8,0,0,0-.312.972,6.788,6.788,0,0,0-.114,1.3A6.788,6.788,0,0,0,8.73-2.895a3.8,3.8,0,0,0,.312.972,2.23,2.23,0,0,0,.48.651,1.813,1.813,0,0,0,.6.375,2.009,2.009,0,0,0,.693.117A1.941,1.941,0,0,0,11.5-.9a1.766,1.766,0,0,0,.591-.375,2.245,2.245,0,0,0,.471-.651,3.814,3.814,0,0,0,.306-.972A6.966,6.966,0,0,0,12.978-4.2a6.178,6.178,0,0,0-.171-1.53A3.148,3.148,0,0,0,12.339-6.8a2.02,2.02,0,0,0-.681-.612A1.762,1.762,0,0,0,10.818-7.62Zm4.629,6.453a.72.72,0,0,1,.525-.225.72.72,0,0,1,.525.225.72.72,0,0,1,.225.525.729.729,0,0,1-.225.528.715.715,0,0,1-.525.228.715.715,0,0,1-.525-.228.729.729,0,0,1-.225-.528A.72.72,0,0,1,15.447-1.167ZM22.878-2.64h1.434v.876H22.878V0h-.924V-1.764H18.03v-.714l3.138-5.916h1.05L19.14-2.64h2.814V-4.98h.924Zm5.884-3.583H30.4l1.635,4.98,1.816-4.98h1.518V0H34.317V-5.01L32.477,0h-.943l-1.74-5.25V0H28.762Zm7.906-1.928a1.716,1.716,0,0,1,1.5-.812,1.534,1.534,0,0,1,1.146.425,1.489,1.489,0,0,1,.418,1.09,1.531,1.531,0,0,1-.18.742,3.024,3.024,0,0,1-.478.644L37.613-4.515H39.9V-4H36.812v-.424l1.852-1.953a1.564,1.564,0,0,0,.5-1.071,1,1,0,0,0-.27-.719.983.983,0,0,0-.746-.282,1.373,1.373,0,0,0-.369.047.965.965,0,0,0-.3.14,1.663,1.663,0,0,0-.227.191,2,2,0,0,0-.194.234Z" transform="translate(85.319 123.135) rotate(180)"/>
      <path id="_11_м2" data-name="11 м2" d="M3.522-.882V-7.236L1.08-6.36V-7.3L4.446-8.5v7.62h2.2V0H1.17V-.882Zm7.2,0V-7.236L8.28-6.36V-7.3l3.366-1.2v7.62h2.2V0H8.37V-.882Zm7.7-5.341h1.641L21.7-1.242l1.816-4.98h1.518V0H23.979V-5.01L22.139,0H21.2l-1.74-5.25V0H18.424ZM26.33-8.151a1.716,1.716,0,0,1,1.5-.812,1.534,1.534,0,0,1,1.146.425,1.489,1.489,0,0,1,.418,1.09,1.531,1.531,0,0,1-.18.742,3.024,3.024,0,0,1-.478.644L27.275-4.515h2.282V-4H26.474v-.424l1.851-1.953a1.564,1.564,0,0,0,.5-1.071,1,1,0,0,0-.27-.719.983.983,0,0,0-.746-.282,1.373,1.373,0,0,0-.369.047.965.965,0,0,0-.3.14,1.663,1.663,0,0,0-.228.191,2,2,0,0,0-.194.234Z" transform="translate(211.454 122.855) rotate(180)"/>
      <path id="_2.8_м2" data-name="2.8 м2" d="M.816-7.116A2.942,2.942,0,0,1,3.39-8.508a2.63,2.63,0,0,1,1.965.729A2.553,2.553,0,0,1,6.072-5.91a2.625,2.625,0,0,1-.309,1.272,5.183,5.183,0,0,1-.819,1.1L2.436-.882H6.348V0H1.062V-.726L4.236-4.074A2.681,2.681,0,0,0,5.1-5.91a1.711,1.711,0,0,0-.462-1.233A1.685,1.685,0,0,0,3.36-7.626a2.354,2.354,0,0,0-.633.081,1.654,1.654,0,0,0-.516.24,2.851,2.851,0,0,0-.39.327,3.42,3.42,0,0,0-.333.4ZM8.247-1.167a.72.72,0,0,1,.525-.225.72.72,0,0,1,.525.225.72.72,0,0,1,.225.525A.729.729,0,0,1,9.3-.114a.715.715,0,0,1-.525.228.715.715,0,0,1-.525-.228.729.729,0,0,1-.225-.528A.72.72,0,0,1,8.247-1.167Zm4.227-7.077a3.88,3.88,0,0,1,1.464-.264,3.88,3.88,0,0,1,1.464.264,2.419,2.419,0,0,1,1.053.8,2.005,2.005,0,0,1,.4,1.239,1.883,1.883,0,0,1-.4,1.227,2.425,2.425,0,0,1-1.062.741,2.81,2.81,0,0,1,1.206.75,1.786,1.786,0,0,1,.456,1.254,1.993,1.993,0,0,1-.426,1.272,2.584,2.584,0,0,1-1.125.81,4.308,4.308,0,0,1-1.563.27,4.308,4.308,0,0,1-1.563-.27,2.584,2.584,0,0,1-1.125-.81,1.993,1.993,0,0,1-.426-1.272,1.786,1.786,0,0,1,.456-1.254,2.81,2.81,0,0,1,1.206-.75,2.425,2.425,0,0,1-1.062-.741,1.883,1.883,0,0,1-.4-1.227,2.005,2.005,0,0,1,.4-1.239A2.419,2.419,0,0,1,12.474-8.244Zm1.464,4.416a2.7,2.7,0,0,0-1.53.4A1.286,1.286,0,0,0,11.8-2.292a1.291,1.291,0,0,0,.606,1.137,2.7,2.7,0,0,0,1.53.405,2.686,2.686,0,0,0,1.524-.405,1.291,1.291,0,0,0,.606-1.137,1.286,1.286,0,0,0-.606-1.131A2.686,2.686,0,0,0,13.938-3.828Zm1.386-3.423a2.33,2.33,0,0,0-1.386-.393,2.33,2.33,0,0,0-1.386.393A1.263,1.263,0,0,0,12-6.162a1.31,1.31,0,0,0,.549,1.125,2.3,2.3,0,0,0,1.389.4,2.3,2.3,0,0,0,1.389-.4,1.31,1.31,0,0,0,.549-1.125A1.263,1.263,0,0,0,15.324-7.251Zm6.238,1.028H23.2l1.635,4.98,1.816-4.98h1.518V0H27.117V-5.01L25.277,0h-.943l-1.74-5.25V0H21.562Zm7.906-1.928a1.716,1.716,0,0,1,1.5-.812,1.534,1.534,0,0,1,1.146.425,1.489,1.489,0,0,1,.418,1.09,1.531,1.531,0,0,1-.18.742,3.024,3.024,0,0,1-.478.644L30.413-4.515H32.7V-4H29.612v-.424l1.851-1.953a1.564,1.564,0,0,0,.5-1.071,1,1,0,0,0-.27-.719.983.983,0,0,0-.746-.282,1.373,1.373,0,0,0-.369.047.965.965,0,0,0-.3.14,1.663,1.663,0,0,0-.228.191,2,2,0,0,0-.194.234Z" transform="translate(215.965 29.469) rotate(180)"/>
      <path id="_4_м2" data-name="4 м2" d="M5.34-2.64H6.774v.876H5.34V0H4.416V-1.764H.492v-.714L3.63-8.394H4.68L1.6-2.64H4.416V-4.98H5.34Zm5.884-3.583h1.641L14.5-1.242l1.816-4.98h1.518V0H16.779V-5.01L14.939,0H14l-1.74-5.25V0H11.224ZM19.13-8.151a1.716,1.716,0,0,1,1.5-.812,1.534,1.534,0,0,1,1.146.425,1.489,1.489,0,0,1,.418,1.09,1.531,1.531,0,0,1-.18.742,3.024,3.024,0,0,1-.478.644L20.075-4.515h2.282V-4H19.274v-.424l1.851-1.953a1.564,1.564,0,0,0,.5-1.071,1,1,0,0,0-.27-.719.983.983,0,0,0-.746-.282,1.373,1.373,0,0,0-.369.047.965.965,0,0,0-.3.14,1.663,1.663,0,0,0-.228.191,2,2,0,0,0-.194.234Z" transform="translate(343.735 28.602) rotate(180)"/>
      <path id="_4_м2-2" data-name="4 м2" d="M5.34-2.64H6.774v.876H5.34V0H4.416V-1.764H.492v-.714L3.63-8.394H4.68L1.6-2.64H4.416V-4.98H5.34Zm5.884-3.583h1.641L14.5-1.242l1.816-4.98h1.518V0H16.779V-5.01L14.939,0H14l-1.74-5.25V0H11.224ZM19.13-8.151a1.716,1.716,0,0,1,1.5-.812,1.534,1.534,0,0,1,1.146.425,1.489,1.489,0,0,1,.418,1.09,1.531,1.531,0,0,1-.18.742,3.024,3.024,0,0,1-.478.644L20.075-4.515h2.282V-4H19.274v-.424l1.851-1.953a1.564,1.564,0,0,0,.5-1.071,1,1,0,0,0-.27-.719.983.983,0,0,0-.746-.282,1.373,1.373,0,0,0-.369.047.965.965,0,0,0-.3.14,1.663,1.663,0,0,0-.228.191,2,2,0,0,0-.194.234Z" transform="translate(204.54 251.449) rotate(180)"/>
      <path id="_1.4_м2" data-name="1.4 м2" d="M3.522-.882V-7.236L1.08-6.36V-7.3L4.446-8.5v7.62h2.2V0H1.17V-.882Zm4.725-.285a.72.72,0,0,1,.525-.225.72.72,0,0,1,.525.225.72.72,0,0,1,.225.525A.729.729,0,0,1,9.3-.114a.715.715,0,0,1-.525.228.715.715,0,0,1-.525-.228.729.729,0,0,1-.225-.528A.72.72,0,0,1,8.247-1.167ZM15.678-2.64h1.434v.876H15.678V0h-.924V-1.764H10.83v-.714l3.138-5.916h1.05L11.94-2.64h2.814V-4.98h.924Zm5.884-3.583H23.2l1.635,4.98,1.816-4.98h1.518V0H27.117V-5.01L25.277,0h-.943l-1.74-5.25V0H21.562Zm7.906-1.928a1.716,1.716,0,0,1,1.5-.812,1.534,1.534,0,0,1,1.146.425,1.489,1.489,0,0,1,.418,1.09,1.531,1.531,0,0,1-.18.742,3.024,3.024,0,0,1-.478.644L30.413-4.515H32.7V-4H29.612v-.424l1.851-1.953a1.564,1.564,0,0,0,.5-1.071,1,1,0,0,0-.27-.719.983.983,0,0,0-.746-.282,1.373,1.373,0,0,0-.369.047.965.965,0,0,0-.3.14,1.663,1.663,0,0,0-.228.191,2,2,0,0,0-.194.234Z" transform="translate(62.057 240.587) rotate(180)"/>
      <path id="_3.0_м2" data-name="3.0 м2" d="M3.342-8.508a3.039,3.039,0,0,1,2.01.639A2.057,2.057,0,0,1,6.12-6.21,2.046,2.046,0,0,1,5.772-5a2.216,2.216,0,0,1-.966.756,2.37,2.37,0,0,1,1.1.759,1.929,1.929,0,0,1,.4,1.233,2.213,2.213,0,0,1-.24,1.041,2.024,2.024,0,0,1-.648.741A3.122,3.122,0,0,1,4.5-.039,3.881,3.881,0,0,1,3.42.108,3.45,3.45,0,0,1,.7-1l.594-.618a2.688,2.688,0,0,0,.942.636A3.076,3.076,0,0,0,3.4-.756a2.318,2.318,0,0,0,1.386-.4,1.317,1.317,0,0,0,.552-1.14,1.294,1.294,0,0,0-.579-1.116,2.454,2.454,0,0,0-1.449-.408h-1.1v-.846h1.1a2.152,2.152,0,0,0,1.329-.39,1.306,1.306,0,0,0,.519-1.11,1.292,1.292,0,0,0-.528-1.074,2.124,2.124,0,0,0-1.338-.408,2.172,2.172,0,0,0-1.074.267,2.339,2.339,0,0,0-.78.687L.768-7.26a2.728,2.728,0,0,1,1.041-.906A3.3,3.3,0,0,1,3.342-8.508ZM8.247-1.167a.72.72,0,0,1,.525-.225.72.72,0,0,1,.525.225.72.72,0,0,1,.225.525A.729.729,0,0,1,9.3-.114a.715.715,0,0,1-.525.228.715.715,0,0,1-.525-.228.729.729,0,0,1-.225-.528A.72.72,0,0,1,8.247-1.167Zm5.709-7.341a2.771,2.771,0,0,1,1.212.267,2.917,2.917,0,0,1,.987.783,3.744,3.744,0,0,1,.675,1.353A6.76,6.76,0,0,1,17.076-4.2a7.414,7.414,0,0,1-.162,1.617,4.455,4.455,0,0,1-.444,1.221,3.008,3.008,0,0,1-.678.831,2.6,2.6,0,0,1-.855.486,3.083,3.083,0,0,1-.981.153,2.99,2.99,0,0,1-1.227-.249,2.851,2.851,0,0,1-1-.753,3.568,3.568,0,0,1-.687-1.35A6.946,6.946,0,0,1,10.794-4.2a6.946,6.946,0,0,1,.249-1.956,3.568,3.568,0,0,1,.687-1.35,2.851,2.851,0,0,1,1-.753A2.99,2.99,0,0,1,13.956-8.508Zm0,.888a2.008,2.008,0,0,0-.693.117,1.813,1.813,0,0,0-.6.375,2.23,2.23,0,0,0-.48.651,3.8,3.8,0,0,0-.312.972,6.788,6.788,0,0,0-.114,1.3,6.788,6.788,0,0,0,.114,1.305,3.8,3.8,0,0,0,.312.972,2.23,2.23,0,0,0,.48.651,1.813,1.813,0,0,0,.6.375,2.009,2.009,0,0,0,.693.117A1.941,1.941,0,0,0,14.637-.9a1.766,1.766,0,0,0,.591-.375,2.245,2.245,0,0,0,.471-.651,3.814,3.814,0,0,0,.306-.972A6.966,6.966,0,0,0,16.116-4.2a6.178,6.178,0,0,0-.171-1.53A3.148,3.148,0,0,0,15.477-6.8a2.02,2.02,0,0,0-.681-.612A1.762,1.762,0,0,0,13.956-7.62Zm7.606,1.4H23.2l1.635,4.98,1.816-4.98h1.518V0H27.117V-5.01L25.277,0h-.943l-1.74-5.25V0H21.562Zm7.906-1.928a1.716,1.716,0,0,1,1.5-.812,1.534,1.534,0,0,1,1.146.425,1.489,1.489,0,0,1,.418,1.09,1.531,1.531,0,0,1-.18.742,3.024,3.024,0,0,1-.478.644L30.413-4.515H32.7V-4H29.612v-.424l1.851-1.953a1.564,1.564,0,0,0,.5-1.071,1,1,0,0,0-.27-.719.983.983,0,0,0-.746-.282,1.373,1.373,0,0,0-.369.047.965.965,0,0,0-.3.14,1.663,1.663,0,0,0-.228.191,2,2,0,0,0-.194.234Z" transform="translate(62.057 296.946) rotate(180)"/>
      <path id="_3.5_м2" data-name="3.5 м2" d="M3.342-8.508a3.039,3.039,0,0,1,2.01.639A2.057,2.057,0,0,1,6.12-6.21,2.046,2.046,0,0,1,5.772-5a2.216,2.216,0,0,1-.966.756,2.37,2.37,0,0,1,1.1.759,1.929,1.929,0,0,1,.4,1.233,2.213,2.213,0,0,1-.24,1.041,2.024,2.024,0,0,1-.648.741A3.122,3.122,0,0,1,4.5-.039,3.881,3.881,0,0,1,3.42.108,3.45,3.45,0,0,1,.7-1l.594-.618a2.688,2.688,0,0,0,.942.636A3.076,3.076,0,0,0,3.4-.756a2.318,2.318,0,0,0,1.386-.4,1.317,1.317,0,0,0,.552-1.14,1.294,1.294,0,0,0-.579-1.116,2.454,2.454,0,0,0-1.449-.408h-1.1v-.846h1.1a2.152,2.152,0,0,0,1.329-.39,1.306,1.306,0,0,0,.519-1.11,1.292,1.292,0,0,0-.528-1.074,2.124,2.124,0,0,0-1.338-.408,2.172,2.172,0,0,0-1.074.267,2.339,2.339,0,0,0-.78.687L.768-7.26a2.728,2.728,0,0,1,1.041-.906A3.3,3.3,0,0,1,3.342-8.508ZM8.247-1.167a.72.72,0,0,1,.525-.225.72.72,0,0,1,.525.225.72.72,0,0,1,.225.525A.729.729,0,0,1,9.3-.114a.715.715,0,0,1-.525.228.715.715,0,0,1-.525-.228.729.729,0,0,1-.225-.528A.72.72,0,0,1,8.247-1.167Zm8.067-6.357H12.606L12.528-5.04h1.236a3.089,3.089,0,0,1,2.175.7,2.308,2.308,0,0,1,.759,1.77,2.663,2.663,0,0,1-.39,1.452,2.441,2.441,0,0,1-1.035.924,3.339,3.339,0,0,1-1.449.306A3.5,3.5,0,0,1,10.98-1.194l.618-.6a2.827,2.827,0,0,0,1,.759,2.915,2.915,0,0,0,1.23.267,1.938,1.938,0,0,0,1.4-.492,1.639,1.639,0,0,0,.51-1.23A1.511,1.511,0,0,0,15.192-3.7a2.616,2.616,0,0,0-1.71-.462h-1.83L11.76-8.4h4.554Zm5.248,1.3H23.2l1.635,4.98,1.816-4.98h1.518V0H27.117V-5.01L25.277,0h-.943l-1.74-5.25V0H21.562Zm7.906-1.928a1.716,1.716,0,0,1,1.5-.812,1.534,1.534,0,0,1,1.146.425,1.489,1.489,0,0,1,.418,1.09,1.531,1.531,0,0,1-.18.742,3.024,3.024,0,0,1-.478.644L30.413-4.515H32.7V-4H29.612v-.424l1.851-1.953a1.564,1.564,0,0,0,.5-1.071,1,1,0,0,0-.27-.719.983.983,0,0,0-.746-.282,1.373,1.373,0,0,0-.369.047.965.965,0,0,0-.3.14,1.663,1.663,0,0,0-.228.191,2,2,0,0,0-.194.234Z" transform="translate(132.461 251.74) rotate(180)"/>
      <path id="_15.3_м2" data-name="15.3 м2" d="M3.522-.882V-7.236L1.08-6.36V-7.3L4.446-8.5v7.62h2.2V0H1.17V-.882Zm9.654-6.642H9.468L9.39-5.04h1.236a3.089,3.089,0,0,1,2.175.7,2.308,2.308,0,0,1,.759,1.77,2.663,2.663,0,0,1-.39,1.452,2.441,2.441,0,0,1-1.035.924,3.339,3.339,0,0,1-1.449.306A3.5,3.5,0,0,1,7.842-1.194l.618-.6a2.827,2.827,0,0,0,1,.759,2.915,2.915,0,0,0,1.23.267,1.938,1.938,0,0,0,1.4-.492,1.639,1.639,0,0,0,.51-1.23A1.511,1.511,0,0,0,12.054-3.7a2.616,2.616,0,0,0-1.71-.462H8.514L8.622-8.4h4.554Zm2.271,6.357a.72.72,0,0,1,.525-.225.72.72,0,0,1,.525.225.72.72,0,0,1,.225.525.729.729,0,0,1-.225.528.715.715,0,0,1-.525.228.715.715,0,0,1-.525-.228.729.729,0,0,1-.225-.528A.72.72,0,0,1,15.447-1.167ZM20.88-8.508a3.039,3.039,0,0,1,2.01.639,2.057,2.057,0,0,1,.768,1.659A2.046,2.046,0,0,1,23.31-5a2.216,2.216,0,0,1-.966.756,2.37,2.37,0,0,1,1.1.759,1.929,1.929,0,0,1,.4,1.233,2.213,2.213,0,0,1-.24,1.041,2.024,2.024,0,0,1-.648.741,3.122,3.122,0,0,1-.918.429,3.881,3.881,0,0,1-1.08.147A3.45,3.45,0,0,1,18.234-1l.594-.618a2.688,2.688,0,0,0,.942.636,3.076,3.076,0,0,0,1.17.222,2.318,2.318,0,0,0,1.386-.4,1.317,1.317,0,0,0,.552-1.14A1.294,1.294,0,0,0,22.3-3.408a2.454,2.454,0,0,0-1.449-.408h-1.1v-.846h1.1a2.152,2.152,0,0,0,1.329-.39,1.306,1.306,0,0,0,.519-1.11,1.292,1.292,0,0,0-.528-1.074,2.124,2.124,0,0,0-1.338-.408,2.172,2.172,0,0,0-1.074.267,2.339,2.339,0,0,0-.78.687l-.666-.57a2.728,2.728,0,0,1,1.041-.906A3.3,3.3,0,0,1,20.88-8.508Zm7.882,2.285H30.4l1.635,4.98,1.816-4.98h1.518V0H34.317V-5.01L32.477,0h-.943l-1.74-5.25V0H28.762Zm7.906-1.928a1.716,1.716,0,0,1,1.5-.812,1.534,1.534,0,0,1,1.146.425,1.489,1.489,0,0,1,.418,1.09,1.531,1.531,0,0,1-.18.742,3.024,3.024,0,0,1-.478.644L37.613-4.515H39.9V-4H36.812v-.424l1.852-1.953a1.564,1.564,0,0,0,.5-1.071,1,1,0,0,0-.27-.719.983.983,0,0,0-.746-.282,1.373,1.373,0,0,0-.369.047.965.965,0,0,0-.3.14,1.663,1.663,0,0,0-.227.191,2,2,0,0,0-.194.234Z" transform="translate(351.235 122.855) rotate(180)"/>
      <path id="_53.4_м2" data-name="53.4 м2" d="M1.521-.325V-1.939A5.06,5.06,0,0,0,4.3-1.058a3.215,3.215,0,0,0,2.273-.8,2.744,2.744,0,0,0,.863-2.115A2.509,2.509,0,0,0,6.55-6.012a3.848,3.848,0,0,0-2.523-.733q-.557,0-2.087.111V-13.3H8.377v1.373h-5v3.9q.612-.037,1.132-.037A4.711,4.711,0,0,1,7.812-7,3.785,3.785,0,0,1,8.98-4.063,4.06,4.06,0,0,1,7.723-.956,4.84,4.84,0,0,1,4.277.223,5.464,5.464,0,0,1,1.521-.325Zm9.936-.167V-2.134a4.842,4.842,0,0,0,3.08,1.076,3.348,3.348,0,0,0,2.222-.7,2.319,2.319,0,0,0,.83-1.874q0-2.607-3.7-2.607h-1.1v-1.29h1.048q3.293,0,3.293-2.449,0-2.264-2.514-2.264a4.265,4.265,0,0,0-2.644.956v-1.484a5.811,5.811,0,0,1,3.024-.761,3.905,3.905,0,0,1,2.686.891,2.91,2.91,0,0,1,1.007,2.282,3.252,3.252,0,0,1-2.672,3.377v.037A3.559,3.559,0,0,1,18.3-5.933a2.973,2.973,0,0,1,.849,2.166,3.618,3.618,0,0,1-1.285,2.89,5.036,5.036,0,0,1-3.391,1.1A5.563,5.563,0,0,1,11.458-.492Zm11.1.7A.985.985,0,0,1,21.825-.1a1.008,1.008,0,0,1-.3-.733,1.023,1.023,0,0,1,.3-.738.978.978,0,0,1,.728-.311,1,1,0,0,1,.742.311,1.015,1.015,0,0,1,.306.738A1,1,0,0,1,23.3-.1,1.011,1.011,0,0,1,22.553.2ZM34.2-3.535H32.489V0h-1.5V-3.535H24.733v-.993L30.652-13.3h1.837v8.535H34.2Zm-3.21-1.234v-5.752q0-.612.037-1.373h-.037a9.47,9.47,0,0,1-.51,1.021l-4.091,6.1Zm10.5-5.084h3.229l2.449,6.865,2.468-6.865h3.219V0H50.636V-6.485L48.233,0H46.006L43.715-6.485V0H41.488ZM59.3-6H54.625v-.79l2.262-2.267A9.455,9.455,0,0,0,58.124-10.5a2.236,2.236,0,0,0,.371-1.231,1.371,1.371,0,0,0-.384-1.039,1.518,1.518,0,0,0-1.093-.368,2.9,2.9,0,0,0-1.991.888v-.931a3.343,3.343,0,0,1,2.116-.709,2.283,2.283,0,0,1,1.634.563,1.979,1.979,0,0,1,.6,1.51,2.881,2.881,0,0,1-.411,1.458,9.238,9.238,0,0,1-1.477,1.767l-1.791,1.77V-6.8H59.3Z" transform="translate(368.971 172.685) rotate(180)"/>
      <path id="Контур_217" data-name="Контур 217" d="M16360.146,3670.232h81.309" transform="translate(-16332.126 -3604.269)" fill="none" stroke="#000" stroke-width="0.5"/>
      <path id="Контур_267" data-name="Контур 267" d="M16360.146,3670.232h48.236" transform="translate(-16167.678 -3604.14)" fill="none" stroke="#000" stroke-width="0.5"/>
      <path id="Контур_268" data-name="Контур 268" d="M16360.146,3671.475h48.236" transform="translate(-16038.781 -3604.907)" fill="none" stroke="#000" stroke-width="0.5"/>
    </g>
    <g id="Сгруппировать_502" data-name="Сгруппировать 502" transform="translate(-1595.529 -3162.662) rotate(180)">
      <g id="lock-outlined-24px" transform="translate(111.043 106.693)">
        <g id="Сгруппировать_134" data-name="Сгруппировать 134">
          <path id="Контур_654" data-name="Контур 654" d="M0,0H45.172V49.9H0Z" fill="none"/>
          <path id="Контур_655" data-name="Контур 655" d="M0,0H45.172V49.9H0Z" fill="none" opacity="0.87"/>
        </g>
        <path id="Контур_656" data-name="Контур 656" d="M36.525,16.635H34.2V12.168A11.4,11.4,0,0,0,22.586,1,11.4,11.4,0,0,0,10.97,12.168v4.467H8.646A4.573,4.573,0,0,0,4,21.1V43.437A4.573,4.573,0,0,0,8.646,47.9H36.525a4.573,4.573,0,0,0,4.646-4.467V21.1a4.573,4.573,0,0,0-4.646-4.465ZM15.616,12.168a6.83,6.83,0,0,1,6.97-6.7,6.83,6.83,0,0,1,6.97,6.7v4.467H15.616Zm20.909,31.27H8.646V21.1H36.525Zm-13.939-6.7a4.471,4.471,0,1,0-4.646-4.467,4.573,4.573,0,0,0,4.646,4.466Z" fill="#fff"/>
      </g>
      <path id="Контур_1707" data-name="Контур 1707" d="M5.832.27A7.192,7.192,0,0,1,3.69-.03,4.458,4.458,0,0,1,2.079-.891,3.761,3.761,0,0,1,1.071-2.277,4.641,4.641,0,0,1,.72-4.122V-4.23H1.89a3.16,3.16,0,0,0,1.1,2.646A4.614,4.614,0,0,0,5.922-.72,4.128,4.128,0,0,0,7.38-.963,3.22,3.22,0,0,0,8.469-1.62a2.942,2.942,0,0,0,.684-.963A2.837,2.837,0,0,0,9.4-3.744a2.279,2.279,0,0,0-.225-1.017,2.319,2.319,0,0,0-.621-.783,2.937,2.937,0,0,0-.927-.5,3.538,3.538,0,0,0-1.143-.18H4.428V-7.272H6.48a3.286,3.286,0,0,0,.972-.144,2.573,2.573,0,0,0,.828-.423,1.969,1.969,0,0,0,.567-.7,2.206,2.206,0,0,0,.207-.981,2.548,2.548,0,0,0-.243-1.152,2.26,2.26,0,0,0-.657-.8,2.8,2.8,0,0,0-.99-.468A4.751,4.751,0,0,0,5.94-12.1a5.23,5.23,0,0,0-1.4.18,3.228,3.228,0,0,0-1.125.549,2.679,2.679,0,0,0-.756.918A3.324,3.324,0,0,0,2.322-9.18H1.134a4.361,4.361,0,0,1,.423-1.728,3.584,3.584,0,0,1,1-1.233,4.258,4.258,0,0,1,1.485-.738A6.794,6.794,0,0,1,5.9-13.122a6.776,6.776,0,0,1,1.7.207,4.081,4.081,0,0,1,1.4.639,3.1,3.1,0,0,1,.936,1.089,3.33,3.33,0,0,1,.342,1.557,2.719,2.719,0,0,1-.162.945,2.967,2.967,0,0,1-.432.792,3.064,3.064,0,0,1-.612.6,2.779,2.779,0,0,1-.684.378v.054a2.968,2.968,0,0,1,1.629,1.035,3.24,3.24,0,0,1,.6,2.061,3.985,3.985,0,0,1-.243,1.3,3.786,3.786,0,0,1-.8,1.314A4.323,4.323,0,0,1,8.1-.135a5.619,5.619,0,0,1-2.268.4ZM14.976.252A4.648,4.648,0,0,1,13.761.1a2.729,2.729,0,0,1-.99-.486,2.324,2.324,0,0,1-.666-.846,2.814,2.814,0,0,1-.243-1.215,2.4,2.4,0,0,1,.432-1.521,2.718,2.718,0,0,1,1.143-.837,6.52,6.52,0,0,1,1.6-.405q.891-.117,1.809-.225.342-.036.621-.09a1.1,1.1,0,0,0,.459-.189.875.875,0,0,0,.279-.369,1.591,1.591,0,0,0,.1-.612,2.069,2.069,0,0,0-.189-.945,1.494,1.494,0,0,0-.522-.585,2.1,2.1,0,0,0-.774-.3,5.231,5.231,0,0,0-.945-.081,2.862,2.862,0,0,0-1.764.513,2.01,2.01,0,0,0-.72,1.647H12.258A3,3,0,0,1,13.383-8.82a4.383,4.383,0,0,1,2.637-.738,6.5,6.5,0,0,1,1.224.117,2.958,2.958,0,0,1,1.1.441,2.4,2.4,0,0,1,.792.909,3.279,3.279,0,0,1,.3,1.521v4.932a.6.6,0,0,0,.164.507.6.6,0,0,0,.5.177.8.8,0,0,0,.36-.072v.954q-.2.036-.351.054A3.417,3.417,0,0,1,19.728,0a1.716,1.716,0,0,1-.693-.117.93.93,0,0,1-.4-.333,1.249,1.249,0,0,1-.189-.513A4.4,4.4,0,0,1,18.4-1.62h-.04a7.577,7.577,0,0,1-.621.8,3.087,3.087,0,0,1-.7.585,3.221,3.221,0,0,1-.891.36,4.854,4.854,0,0,1-1.172.127Zm.09-.936a3.9,3.9,0,0,0,1.242-.2,3.056,3.056,0,0,0,1.035-.576,2.8,2.8,0,0,0,.7-.918A2.778,2.778,0,0,0,18.306-3.6V-5.076H18.27a.65.65,0,0,1-.414.288,4.225,4.225,0,0,1-.54.126q-.72.126-1.485.225a8.144,8.144,0,0,0-1.4.3,2.658,2.658,0,0,0-1.035.576A1.358,1.358,0,0,0,13-2.52a1.651,1.651,0,0,0,.171.765,1.856,1.856,0,0,0,.459.576,2.021,2.021,0,0,0,.657.369,2.406,2.406,0,0,0,.779.126ZM25.722.252a4.241,4.241,0,0,1-2.106-.468A3.631,3.631,0,0,1,22.3-1.458a5.2,5.2,0,0,1-.684-1.782,10.81,10.81,0,0,1-.2-2.088q0-.666.054-1.395a12.77,12.77,0,0,1,.189-1.44,10.469,10.469,0,0,1,.351-1.359,5.02,5.02,0,0,1,.558-1.17,3.682,3.682,0,0,1,1.512-1.386,6.212,6.212,0,0,1,2.214-.5l.864-.054a3.289,3.289,0,0,0,.972-.144.671.671,0,0,0,.36-.342h1.26A1.439,1.439,0,0,1,29.025-12a4.716,4.716,0,0,1-1.773.369l-1.368.09A3.218,3.218,0,0,0,23.472-10.4a6.556,6.556,0,0,0-1.134,3.186h.054a3.67,3.67,0,0,1,1.386-1.5,3.826,3.826,0,0,1,2.052-.567,4.32,4.32,0,0,1,1.7.324,3.747,3.747,0,0,1,1.323.936,4.255,4.255,0,0,1,.864,1.494,6.016,6.016,0,0,1,.306,1.98,6.037,6.037,0,0,1-.306,1.971,4.357,4.357,0,0,1-.873,1.521,3.868,3.868,0,0,1-1.359.972,4.4,4.4,0,0,1-1.763.335Zm0-.936a2.91,2.91,0,0,0,1.269-.279A2.928,2.928,0,0,0,28-1.755a3.738,3.738,0,0,0,.657-1.224,5.017,5.017,0,0,0,.234-1.575A4.872,4.872,0,0,0,28.656-6.1,3.543,3.543,0,0,0,28-7.3a3.082,3.082,0,0,0-.99-.774,2.754,2.754,0,0,0-1.233-.279,3.139,3.139,0,0,0-1.314.27,2.9,2.9,0,0,0-1.017.765,3.543,3.543,0,0,0-.657,1.2,4.933,4.933,0,0,0-.234,1.566,5.017,5.017,0,0,0,.234,1.575,3.738,3.738,0,0,0,.657,1.224,2.928,2.928,0,0,0,1.008.792,2.91,2.91,0,0,0,1.268.277Zm5.994-8.6H32.76V-7.52h.04a3.036,3.036,0,0,1,1.287-1.5,3.879,3.879,0,0,1,2.025-.531,4.04,4.04,0,0,1,1.845.4A3.785,3.785,0,0,1,39.262-8.08a4.557,4.557,0,0,1,.774,1.566,6.88,6.88,0,0,1,.252,1.881,6.852,6.852,0,0,1-.252,1.89A4.567,4.567,0,0,1,39.258-1.2,3.7,3.7,0,0,1,37.953-.135a4.119,4.119,0,0,1-1.845.387A4.106,4.106,0,0,1,35.091.126a3.585,3.585,0,0,1-.927-.378,3.085,3.085,0,0,1-.765-.63,2.685,2.685,0,0,1-.513-.882H32.85V3.42H31.716Zm4.392,8.6a2.614,2.614,0,0,0,1.386-.351,2.974,2.974,0,0,0,.945-.909,3.956,3.956,0,0,0,.54-1.269,6.1,6.1,0,0,0,.171-1.431,6.1,6.1,0,0,0-.171-1.431,3.956,3.956,0,0,0-.54-1.269,2.974,2.974,0,0,0-.945-.909A2.614,2.614,0,0,0,36.108-8.6a3.389,3.389,0,0,0-1.575.324,2.746,2.746,0,0,0-1,.864A3.4,3.4,0,0,0,33-6.156a7.259,7.259,0,0,0-.153,1.512,6.1,6.1,0,0,0,.171,1.431,3.737,3.737,0,0,0,.558,1.269,3.006,3.006,0,0,0,1.008.909,3.05,3.05,0,0,0,1.524.351Zm9.864.936a4.354,4.354,0,0,1-1.881-.387,4,4,0,0,1-1.377-1.053,4.6,4.6,0,0,1-.846-1.557,6.138,6.138,0,0,1-.288-1.9,6.163,6.163,0,0,1,.288-1.89A4.583,4.583,0,0,1,42.714-8.1a4.1,4.1,0,0,1,1.377-1.062,4.27,4.27,0,0,1,1.881-.4,4.27,4.27,0,0,1,1.881.4A4.1,4.1,0,0,1,49.23-8.1a4.583,4.583,0,0,1,.846,1.566,6.163,6.163,0,0,1,.288,1.89,6.138,6.138,0,0,1-.288,1.9,4.6,4.6,0,0,1-.846,1.557A4,4,0,0,1,47.853-.135a4.354,4.354,0,0,1-1.881.387Zm0-.936a2.867,2.867,0,0,0,1.422-.342,3.122,3.122,0,0,0,1.017-.9A4.083,4.083,0,0,0,49.023-3.2a5.158,5.158,0,0,0,.207-1.449,5.158,5.158,0,0,0-.207-1.449,4.083,4.083,0,0,0-.612-1.269,3.122,3.122,0,0,0-1.017-.9A2.867,2.867,0,0,0,45.972-8.6a2.867,2.867,0,0,0-1.422.342,3.122,3.122,0,0,0-1.017.9,4.083,4.083,0,0,0-.612,1.269,5.158,5.158,0,0,0-.207,1.449,5.158,5.158,0,0,0,.207,1.449,4.083,4.083,0,0,0,.612,1.269,3.122,3.122,0,0,0,1.017.9,2.867,2.867,0,0,0,1.422.338Zm6.066-8.6h1.134v3.942h5.274V-9.288H59.58V0H58.446V-4.392H53.172V0H52.038Zm9.666,0h1.134v7.956l5.13-7.956h1.4V0h-1.13V-7.956L63.108,0H61.7Zm9.81,0h1.044V-7.52h.036a3.036,3.036,0,0,1,1.287-1.5,3.879,3.879,0,0,1,2.025-.531,4.04,4.04,0,0,1,1.845.4A3.785,3.785,0,0,1,79.056-8.08a4.558,4.558,0,0,1,.774,1.566,6.88,6.88,0,0,1,.252,1.881,6.852,6.852,0,0,1-.252,1.89A4.567,4.567,0,0,1,79.056-1.2,3.7,3.7,0,0,1,77.751-.135a4.119,4.119,0,0,1-1.845.387A4.106,4.106,0,0,1,74.889.126a3.585,3.585,0,0,1-.927-.378,3.085,3.085,0,0,1-.765-.63,2.685,2.685,0,0,1-.513-.882h-.036V3.42H71.514Zm4.392,8.6a2.614,2.614,0,0,0,1.386-.351,2.974,2.974,0,0,0,.945-.909,3.957,3.957,0,0,0,.54-1.269,6.1,6.1,0,0,0,.171-1.431,6.1,6.1,0,0,0-.171-1.431,3.957,3.957,0,0,0-.54-1.269,2.974,2.974,0,0,0-.945-.909A2.614,2.614,0,0,0,75.906-8.6a3.389,3.389,0,0,0-1.575.324,2.746,2.746,0,0,0-1,.864,3.4,3.4,0,0,0-.531,1.26,7.26,7.26,0,0,0-.153,1.512,6.1,6.1,0,0,0,.171,1.431,3.736,3.736,0,0,0,.558,1.269,3.006,3.006,0,0,0,1.008.909A3.05,3.05,0,0,0,75.906-.684ZM85.77.252a4.354,4.354,0,0,1-1.881-.387,4,4,0,0,1-1.377-1.053,4.6,4.6,0,0,1-.846-1.557,6.138,6.138,0,0,1-.288-1.9,6.163,6.163,0,0,1,.288-1.89A4.583,4.583,0,0,1,82.512-8.1a4.1,4.1,0,0,1,1.377-1.062,4.27,4.27,0,0,1,1.881-.4,4.27,4.27,0,0,1,1.881.4A4.1,4.1,0,0,1,89.028-8.1a4.583,4.583,0,0,1,.846,1.566,6.163,6.163,0,0,1,.288,1.89,6.138,6.138,0,0,1-.288,1.9,4.6,4.6,0,0,1-.846,1.557A4,4,0,0,1,87.651-.135,4.354,4.354,0,0,1,85.77.252Zm0-.936a2.867,2.867,0,0,0,1.422-.342,3.122,3.122,0,0,0,1.017-.9A4.083,4.083,0,0,0,88.821-3.2a5.158,5.158,0,0,0,.207-1.449,5.158,5.158,0,0,0-.207-1.449,4.083,4.083,0,0,0-.612-1.269,3.122,3.122,0,0,0-1.017-.9A2.867,2.867,0,0,0,85.77-8.6a2.867,2.867,0,0,0-1.422.342,3.122,3.122,0,0,0-1.017.9,4.083,4.083,0,0,0-.612,1.269,5.158,5.158,0,0,0-.207,1.449,5.158,5.158,0,0,0,.207,1.449,4.083,4.083,0,0,0,.612,1.269,3.122,3.122,0,0,0,1.017.9A2.867,2.867,0,0,0,85.77-.684Zm6.066-8.6h4.248a3.712,3.712,0,0,1,2.2.558,1.891,1.891,0,0,1,.774,1.638A2.228,2.228,0,0,1,98.635-5.7a2.179,2.179,0,0,1-1.179.774V-4.9a2.5,2.5,0,0,1,1.44.72A2.231,2.231,0,0,1,99.418-2.6,2.305,2.305,0,0,1,98.572-.67,3.955,3.955,0,0,1,96.084,0H91.836Zm4.122,8.33a2.85,2.85,0,0,0,1.755-.441,1.572,1.572,0,0,0,.567-1.323,1.468,1.468,0,0,0-.567-1.242,2.9,2.9,0,0,0-1.755-.432H92.97V-.954Zm0-4.32a2.24,2.24,0,0,0,1.467-.414,1.38,1.38,0,0,0,.5-1.116q0-1.53-1.962-1.53H92.97v3.06ZM103.77.252A4.648,4.648,0,0,1,102.555.1a2.729,2.729,0,0,1-.99-.486,2.324,2.324,0,0,1-.666-.846,2.814,2.814,0,0,1-.243-1.215,2.4,2.4,0,0,1,.432-1.521,2.718,2.718,0,0,1,1.143-.837,6.52,6.52,0,0,1,1.6-.4q.891-.117,1.809-.225.342-.036.621-.09a1.1,1.1,0,0,0,.459-.189.875.875,0,0,0,.28-.37,1.591,1.591,0,0,0,.1-.612,2.069,2.069,0,0,0-.189-.945,1.494,1.494,0,0,0-.522-.585,2.1,2.1,0,0,0-.774-.3,5.231,5.231,0,0,0-.945-.081,2.862,2.862,0,0,0-1.764.513,2.01,2.01,0,0,0-.72,1.647h-1.134a3,3,0,0,1,1.125-2.376,4.383,4.383,0,0,1,2.637-.738,6.5,6.5,0,0,1,1.224.117,2.958,2.958,0,0,1,1.1.441,2.4,2.4,0,0,1,.792.909,3.279,3.279,0,0,1,.306,1.521v4.932a.6.6,0,0,0,.164.507.6.6,0,0,0,.5.177.8.8,0,0,0,.36-.072v.954q-.2.036-.351.054a3.417,3.417,0,0,1-.387.018,1.716,1.716,0,0,1-.693-.117.93.93,0,0,1-.4-.333,1.249,1.249,0,0,1-.189-.513,4.4,4.4,0,0,1-.045-.657h-.036a7.578,7.578,0,0,1-.621.8,3.087,3.087,0,0,1-.7.585,3.221,3.221,0,0,1-.891.36,4.854,4.854,0,0,1-1.179.13Zm.09-.936a3.9,3.9,0,0,0,1.242-.2,3.056,3.056,0,0,0,1.035-.576,2.8,2.8,0,0,0,.7-.918A2.778,2.778,0,0,0,107.1-3.6V-5.076h-.036a.65.65,0,0,1-.414.288,4.225,4.225,0,0,1-.54.126q-.72.126-1.485.225a8.144,8.144,0,0,0-1.395.3,2.658,2.658,0,0,0-1.035.576,1.358,1.358,0,0,0-.4,1.044,1.651,1.651,0,0,0,.171.765,1.856,1.856,0,0,0,.459.576,2.021,2.021,0,0,0,.657.369,2.406,2.406,0,0,0,.778.123Zm6.624-8.6h1.134v3.942h5.274V-9.288h1.134V0h-1.134V-4.392h-5.274V0h-1.134ZM124.092.252a4.354,4.354,0,0,1-1.881-.387,4,4,0,0,1-1.377-1.053,4.6,4.6,0,0,1-.846-1.557,6.138,6.138,0,0,1-.288-1.9,6.163,6.163,0,0,1,.288-1.89,4.583,4.583,0,0,1,.846-1.566,4.1,4.1,0,0,1,1.377-1.062,4.27,4.27,0,0,1,1.881-.4,4.27,4.27,0,0,1,1.881.4A4.1,4.1,0,0,1,127.35-8.1a4.583,4.583,0,0,1,.846,1.566,6.163,6.163,0,0,1,.288,1.89,6.138,6.138,0,0,1-.288,1.9,4.6,4.6,0,0,1-.846,1.557,4,4,0,0,1-1.377,1.053,4.354,4.354,0,0,1-1.881.386Zm0-.936a2.867,2.867,0,0,0,1.422-.342,3.122,3.122,0,0,0,1.017-.9,4.083,4.083,0,0,0,.612-1.269,5.158,5.158,0,0,0,.207-1.449,5.158,5.158,0,0,0-.207-1.449,4.083,4.083,0,0,0-.612-1.269,3.122,3.122,0,0,0-1.017-.9,2.867,2.867,0,0,0-1.422-.342,2.867,2.867,0,0,0-1.422.342,3.122,3.122,0,0,0-1.017.9,4.083,4.083,0,0,0-.612,1.269,5.158,5.158,0,0,0-.207,1.449,5.158,5.158,0,0,0,.207,1.449,4.083,4.083,0,0,0,.612,1.269,3.122,3.122,0,0,0,1.017.9,2.867,2.867,0,0,0,1.422.342Z" transform="translate(71.385 183.018)" fill="#fff"/>
    </g>
  </g>
</svg>
