<svg xmlns="http://www.w3.org/2000/svg" width="400.639" height="351.007" viewBox="0 0 400.639 351.007">
  <g id="Сгруппировать_501" data-name="Сгруппировать 501" transform="translate(1172.683 4471.632)">
    <g id="Компонент_15_17" data-name="Компонент 15 – 17" transform="translate(-1172.683 -4471.587)">
      <path id="Контур_589" data-name="Контур 589" d="M37.529,2.514,2.8,23.207V284.451H266.014V344.2H397.361l.3-281.536H268.8l.936-40.765L231.893-.456H167.357L133.109,20.7,100.344,2.514Z" transform="translate(0 0.456)" fill="#cd6161"/>
      <path id="Контур_310" data-name="Контур 310" d="M7.823,0H0V265.975H7.823Z" transform="translate(0 22.405)"/>
      <path id="Контур_309" data-name="Контур 309" d="M7.823,0H0V224.067H7.823Z" transform="translate(131.311 22.405)"/>
      <path id="Контур_308" data-name="Контур 308" d="M7.823,0H0V223.508H7.823Z" transform="translate(263.18 22.405)"/>
      <path id="Контур_307" data-name="Контур 307" d="M0,197.8H7.823V0H0Z" transform="translate(201.717 280.557) rotate(90)"/>
      <path id="Контур_306" data-name="Контур 306" d="M0,33.526H7.823V0H0Z" transform="translate(271.004 280.557) rotate(90)"/>
      <path id="Контур_305" data-name="Контур 305" d="M0,11.734H41.349V0H0Z" transform="translate(263.74 22.405) rotate(90)"/>
      <path id="Контур_304" data-name="Контур 304" d="M0,9.5H62.024V0H0Z" transform="translate(169.307 5.642)"/>
      <path id="Контур_303" data-name="Контур 303" d="M0,9.5H40.231V0H0Z" transform="translate(231.137 5.485) rotate(30)"/>
      <path id="Контур_302" data-name="Контур 302" d="M0,10.058H36.32V0H0Z" transform="translate(174.539 13.871) rotate(150)"/>
      <path id="Контур_301" data-name="Контур 301" d="M0,11.175H41.908V0H0Z" transform="translate(148.633 22.405) rotate(90)"/>
      <path id="Контур_300" data-name="Контур 300" d="M0,44.7H5.029V0H0Z" transform="translate(278.826 225.239) rotate(90)"/>
      <path id="Контур_299" data-name="Контур 299" d="M0,42.187H5.029V0H0Z" transform="translate(322.969 302.349)"/>
      <path id="Контур_298" data-name="Контур 298" d="M0,72.081H5.029V0H0Z" transform="translate(396.727 263.794) rotate(90)"/>
      <path id="Контур_297" data-name="Контур 297" d="M0,15.646H5.029V0H0Z" transform="translate(333.027 225.239) rotate(90)"/>
      <path id="Контур_296" data-name="Контур 296" d="M0,61.465H5.029V0H0Z" transform="translate(394.492 207.917) rotate(90)"/>
      <path id="Контур_295" data-name="Контур 295" d="M0,61.465H5.029V0H0Z" transform="translate(394.492 225.239) rotate(90)"/>
      <path id="Контур_294" data-name="Контур 294" d="M0,63.141H5.029V0H0Z" transform="translate(200.039 225.239) rotate(90)"/>
      <path id="Контур_293" data-name="Контур 293" d="M0,133.546H7.823V0H0Z" transform="translate(400.639 343.139) rotate(90)"/>
      <path id="Контур_292" data-name="Контур 292" d="M0,43.584H5.029V0H0Z" transform="translate(2.592 26.603) rotate(-120)"/>
      <path id="Контур_163" data-name="Контур 163" d="M39.092,5.03h60.977l36.578,21.118,2.514-4.355L102.268,0H37.451L0,21.793l2.514,4.355Z" transform="translate(130.271 0.455)" fill="none" stroke="#000" stroke-width="1"/>
      <path id="Контур_291" data-name="Контур 291" d="M0,64.817H5.029V0H0Z" transform="translate(37.529 5.484) rotate(-90)"/>
      <path id="Контур_290" data-name="Контур 290" d="M0,43.584H5.029V0H0Z" transform="translate(98.98 4.811) rotate(-60)"/>
      <path id="Контур_159" data-name="Контур 159" d="M16790.4,3663.37v3.87h-2.855V3680H16741.3v-12.761h-2.473v-3.87Z" transform="translate(-16629.412 -3600.527)"/>
      <path id="Контур_166" data-name="Контур 166" d="M16778.2,3663.37v3.784h-2.859v12.477h-61.734v-12.477h-2.477v-3.784Z" transform="translate(-16568.078 -3600.527)" fill="none" stroke="#000" stroke-width="0.5"/>
      <path id="Контур_167" data-name="Контур 167" d="M16778.2,3663.37v3.777h-2.859V3679.6h-61.734v-12.454h-2.477v-3.777Z" transform="translate(-16698.285 -3600.127)" fill="none" stroke="#000" stroke-width="0.5"/>
      <path id="Контур_161" data-name="Контур 161" d="M16790.4,3663.37v3.87h-2.855V3680H16741.3v-12.761h-2.473v-3.87Z" transform="translate(-16498.658 -3600.527)"/>
      <path id="Контур_162" data-name="Контур 162" d="M16809.5,3662.98v4.088h-2.857v12.761h-22.121v-12.761h-2.475v-4.088Z" transform="translate(-16409.404 -3600.355)"/>
      <path id="Контур_160" data-name="Контур 160" d="M16784.2,3663.37v4.385h-2.855v13.065h-40.055v-13.389h-2.471v-4.061Z" transform="translate(-16738.234 -3600.527)"/>
      <path id="Контур_289" data-name="Контур 289" d="M0,66.494H7.823V0H0Z" transform="translate(263.18 284.468)"/>
      <path id="Контур_288" data-name="Контур 288" d="M0,284.414H7.823V0H0Z" transform="translate(392.816 62.636)"/>
      <path id="Контур_287" data-name="Контур 287" d="M0,11.175H5.029V0H0Z" transform="translate(322.969 225.239)"/>
      <path id="Контур_286" data-name="Контур 286" d="M0,11.175H5.029V0H0Z" transform="translate(322.969 263.794)"/>
      <path id="Контур_164" data-name="Контур 164" d="M16683.9,3575.98l-36.85-21.579-63.207-.037-37.32,21.533.873,1.673,36.957-21.515,62.383.036,36.271,21.5Z" transform="translate(-16415.367 -3552.431)"/>
      <path id="Контур_165" data-name="Контур 165" d="M99.461,0H0V15.646H99.461Z" transform="translate(283.855 63.195)" fill="none" stroke="#000" stroke-width="0.5"/>
      <path id="Контур_285" data-name="Контур 285" d="M0,32.409H1.676V0H0Z" transform="translate(134.529 281.116) rotate(120)"/>
      <path id="Контур_284" data-name="Контур 284" d="M0,34.644H1.676V0H0Z" transform="translate(235.773 227.753) rotate(150)"/>
      <path id="Контур_283" data-name="Контур 283" d="M0,34.644H1.676V0H0Z" transform="translate(238.043 282.567) rotate(45)"/>
      <path id="Контур_282" data-name="Контур 282" d="M0,34.644H1.676V0H0Z" transform="translate(299.516 202.111) rotate(43)"/>
      <path id="Контур_281" data-name="Контур 281" d="M0,23.945H1.676V0H0Z" transform="translate(325.137 235.641) rotate(45)"/>
      <path id="Контур_280" data-name="Контур 280" d="M0,24.029H1.676V0H0Z" transform="translate(308.145 286.132) rotate(-45)"/>
      <path id="Контур_168" data-name="Контур 168" d="M86.518,3.921A27.891,27.891,0,0,0,69.444,29.669a28.445,28.445,0,0,0,.63,5.926" transform="translate(131.154 194.452)" fill="none" stroke="#000" stroke-width="0.5"/>
      <path id="Контур_172" data-name="Контур 172" d="M0,19.326A17.018,17.018,0,0,0,10.418,3.616,17.356,17.356,0,0,0,10.034,0" transform="translate(327.998 252.569) rotate(90)" fill="none" stroke="#000" stroke-width="0.5"/>
      <path id="Контур_169" data-name="Контур 169" d="M69.444,3.921A27.891,27.891,0,0,1,86.518,29.669c0,.715-.027,1.424-.1,2.307" transform="translate(230.09 198.749)" fill="none" stroke="#000" stroke-width="0.5"/>
      <path id="Контур_170" data-name="Контур 170" d="M0,30.444A23.764,23.764,0,0,0,18.967,7.138,23.983,23.983,0,0,0,17.878,0" transform="translate(121.646 275.069) rotate(-150)" fill="none" stroke="#000" stroke-width="0.5"/>
      <path id="Контур_171" data-name="Контур 171" d="M70.859,37.569a25.444,25.444,0,0,0-.431,4.711A25.736,25.736,0,0,0,82.482,64.044" transform="translate(131.848 243.865)" fill="none" stroke="#000" stroke-width="0.5"/>
      <path id="Контур_173" data-name="Контур 173" d="M0,0A17.018,17.018,0,0,1,10.418,15.71a17.355,17.355,0,0,1-.384,3.616" transform="translate(308.672 286.194) rotate(-90)" fill="none" stroke="#000" stroke-width="0.5"/>
      <path id="Контур_279" data-name="Контур 279" d="M5.029,0H0V20.675H5.029Z" transform="translate(330.512 207.917)"/>
      <path id="Контур_174" data-name="Контур 174" d="M16379.9,3943.44h-53.4v-8.462l1.67,6.766Z" transform="translate(-15988.515 -3720.369)"/>
      <text id="_10.4_м2" data-name="10.4 м2" transform="translate(323.113 132.59)" font-size="12" font-family="Mark-Regular"><tspan x="0" y="0">10.4 </tspan><tspan y="0" font-family="ArialMT, Arial">м</tspan><tspan y="0" font-size="7" baseline-shift="3.9998301964322795">2</tspan></text>
      <text id="_11_м2" data-name="11 м2" transform="translate(195.281 132.311)" font-size="12" font-family="Mark-Regular"><tspan x="0" y="0">11 </tspan><tspan y="0" font-family="ArialMT, Arial">м</tspan><tspan y="0" font-size="7" baseline-shift="3.9998301964322795">2</tspan></text>
      <text id="_4_м2" data-name="4 м2" transform="translate(189.447 38.925)" font-size="12" font-family="Mark-Regular"><tspan x="0" y="0">4 </tspan><tspan y="0" font-family="ArialMT, Arial">м</tspan><tspan y="0" font-size="7" baseline-shift="3.9998301964322795">2</tspan></text>
      <text id="_4_м2-2" data-name="4 м2" transform="translate(57.98 39.057)" font-size="12" font-family="Mark-Regular"><tspan x="0" y="0">4 </tspan><tspan y="0" font-family="ArialMT, Arial">м</tspan><tspan y="0" font-size="7" baseline-shift="3.9998301964322795">2</tspan></text>
      <text id="_4_м2-3" data-name="4 м2" transform="translate(199.174 257.904)" font-size="12" font-family="Mark-Regular"><tspan x="0" y="0">4 </tspan><tspan y="0" font-family="ArialMT, Arial">м</tspan><tspan y="0" font-size="7" baseline-shift="3.9998301964322795">2</tspan></text>
      <text id="_1.4_м2" data-name="1.4 м2" transform="translate(343.354 251.363)" font-size="12" font-family="Mark-Regular"><tspan x="0" y="0">1.4 </tspan><tspan y="0" font-family="ArialMT, Arial">м</tspan><tspan y="0" font-size="7" baseline-shift="3.9998301964322795">2</tspan></text>
      <text id="_3.0_м2" data-name="3.0 м2" transform="translate(343.354 306.401)" font-size="12" font-family="Mark-Regular"><tspan x="0" y="0">3.0 </tspan><tspan y="0" font-family="ArialMT, Arial">м</tspan><tspan y="0" font-size="7" baseline-shift="3.9998301964322795">2</tspan></text>
      <text id="_3.5_м2" data-name="3.5 м2" transform="translate(272.951 257.196)" font-size="12" font-family="Mark-Regular"><tspan x="0" y="0">3.5 </tspan><tspan y="0" font-family="ArialMT, Arial">м</tspan><tspan y="0" font-size="7" baseline-shift="3.9998301964322795">2</tspan></text>
      <text id="_15.3_м2" data-name="15.3 м2" transform="translate(45.195 132.311)" font-size="12" font-family="Mark-Regular"><tspan x="0" y="0">15.3 </tspan><tspan y="0" font-family="ArialMT, Arial">м</tspan><tspan y="0" font-size="7" baseline-shift="3.9998301964322795">2</tspan></text>
      <text id="_53.0_м2" data-name="53.0 м2" transform="translate(40.624 187.14)" font-size="19" font-family="Mark-Medium, Mark" font-weight="500"><tspan x="0" y="0">53.0 </tspan><tspan y="0" font-family="SegoeUI-Bold, Segoe UI" font-weight="700">м</tspan><tspan y="0" font-size="11.08" baseline-shift="6.3311571653886975">2</tspan></text>
      <path id="Контур_217" data-name="Контур 217" d="M16441.5,3670.23h-81.309" transform="translate(-16068.837 -3603.813)" fill="none" stroke="#000" stroke-width="0.5"/>
      <path id="Контур_267" data-name="Контур 267" d="M16408.4,3670.23h-48.238" transform="translate(-16200.213 -3603.684)" fill="none" stroke="#000" stroke-width="0.5"/>
      <path id="Контур_268" data-name="Контур 268" d="M16408.4,3671.48h-48.238" transform="translate(-16329.108 -3604.451)" fill="none" stroke="#000" stroke-width="0.5"/>
    </g>
    <path id="Контур_1698" data-name="Контур 1698" d="M1.3-12.852h9.9V0H9.972V-11.808H2.52V0H1.3ZM13.572-9.288h1.044v1.764h.036a3.036,3.036,0,0,1,1.287-1.5,3.879,3.879,0,0,1,2.025-.531,4.04,4.04,0,0,1,1.845.4,3.785,3.785,0,0,1,1.3,1.071,4.557,4.557,0,0,1,.774,1.566,6.88,6.88,0,0,1,.252,1.881,6.852,6.852,0,0,1-.252,1.89A4.567,4.567,0,0,1,21.114-1.2a3.7,3.7,0,0,1-1.3,1.062,4.119,4.119,0,0,1-1.845.387A4.107,4.107,0,0,1,16.947.126a3.585,3.585,0,0,1-.927-.378,3.085,3.085,0,0,1-.765-.63,2.685,2.685,0,0,1-.513-.882h-.036V3.42H13.572Zm4.392,8.6a2.614,2.614,0,0,0,1.386-.351,2.974,2.974,0,0,0,.945-.909,3.956,3.956,0,0,0,.54-1.269,6.1,6.1,0,0,0,.171-1.431,6.1,6.1,0,0,0-.171-1.431,3.956,3.956,0,0,0-.54-1.269,2.974,2.974,0,0,0-.945-.909A2.614,2.614,0,0,0,17.964-8.6a3.389,3.389,0,0,0-1.575.324,2.746,2.746,0,0,0-1,.864,3.4,3.4,0,0,0-.531,1.26A7.259,7.259,0,0,0,14.7-4.64a6.1,6.1,0,0,0,.171,1.431,3.736,3.736,0,0,0,.558,1.269,3.006,3.006,0,0,0,1.008.909,3.05,3.05,0,0,0,1.522.347Zm9.864.936a4.354,4.354,0,0,1-1.881-.387A4,4,0,0,1,24.57-1.188a4.6,4.6,0,0,1-.846-1.557,6.138,6.138,0,0,1-.288-1.9,6.163,6.163,0,0,1,.288-1.89A4.583,4.583,0,0,1,24.57-8.1a4.1,4.1,0,0,1,1.377-1.062,4.27,4.27,0,0,1,1.881-.4,4.27,4.27,0,0,1,1.881.4A4.1,4.1,0,0,1,31.086-8.1a4.583,4.583,0,0,1,.846,1.566,6.163,6.163,0,0,1,.288,1.89,6.138,6.138,0,0,1-.288,1.9,4.6,4.6,0,0,1-.846,1.557A4,4,0,0,1,29.709-.135a4.354,4.354,0,0,1-1.881.387Zm0-.936A2.867,2.867,0,0,0,29.25-1.03a3.122,3.122,0,0,0,1.017-.9A4.083,4.083,0,0,0,30.879-3.2a5.158,5.158,0,0,0,.207-1.449A5.158,5.158,0,0,0,30.879-6.1a4.083,4.083,0,0,0-.612-1.269,3.122,3.122,0,0,0-1.017-.9A2.867,2.867,0,0,0,27.828-8.6a2.867,2.867,0,0,0-1.422.342,3.122,3.122,0,0,0-1.017.9,4.083,4.083,0,0,0-.612,1.269A5.158,5.158,0,0,0,24.57-4.64a5.158,5.158,0,0,0,.207,1.449,4.083,4.083,0,0,0,.612,1.269,3.122,3.122,0,0,0,1.017.9,2.867,2.867,0,0,0,1.422.338Zm5.112-.27h1.1a9.923,9.923,0,0,0,.972-2.952,24.055,24.055,0,0,0,.306-4.158v-1.22h6.246V-.954H42.95V2.952H41.814V0h-7.74V2.952H32.94Zm7.488,0v-7.38H36.414v.648a20.487,20.487,0,0,1-.342,4.023,10.83,10.83,0,0,1-.864,2.709ZM46.782.252A4.648,4.648,0,0,1,45.567.1a2.729,2.729,0,0,1-.99-.486,2.324,2.324,0,0,1-.666-.846,2.814,2.814,0,0,1-.243-1.215A2.4,2.4,0,0,1,44.1-3.969a2.718,2.718,0,0,1,1.143-.837,6.52,6.52,0,0,1,1.6-.405q.891-.117,1.809-.225.342-.036.621-.09a1.1,1.1,0,0,0,.459-.189.875.875,0,0,0,.279-.369,1.591,1.591,0,0,0,.1-.612,2.069,2.069,0,0,0-.189-.945,1.494,1.494,0,0,0-.522-.585,2.1,2.1,0,0,0-.774-.3,5.231,5.231,0,0,0-.945-.081,2.862,2.862,0,0,0-1.764.513,2.01,2.01,0,0,0-.72,1.647H44.064A3,3,0,0,1,45.189-8.82a4.383,4.383,0,0,1,2.637-.738,6.5,6.5,0,0,1,1.224.117A2.958,2.958,0,0,1,50.15-9a2.4,2.4,0,0,1,.792.909,3.279,3.279,0,0,1,.306,1.521v4.932a.6.6,0,0,0,.164.507.6.6,0,0,0,.5.177.8.8,0,0,0,.36-.072v.954q-.2.036-.351.054A3.417,3.417,0,0,1,51.534,0a1.716,1.716,0,0,1-.693-.117.93.93,0,0,1-.4-.333,1.25,1.25,0,0,1-.189-.513A4.4,4.4,0,0,1,50.2-1.62h-.036a7.577,7.577,0,0,1-.621.8,3.087,3.087,0,0,1-.7.585,3.221,3.221,0,0,1-.891.36,4.854,4.854,0,0,1-1.17.127Zm.09-.936a3.9,3.9,0,0,0,1.242-.2,3.056,3.056,0,0,0,1.035-.576,2.8,2.8,0,0,0,.7-.918A2.778,2.778,0,0,0,50.112-3.6V-5.076h-.036a.65.65,0,0,1-.414.288,4.225,4.225,0,0,1-.54.126q-.72.126-1.485.225a8.144,8.144,0,0,0-1.4.3,2.658,2.658,0,0,0-1.035.576,1.358,1.358,0,0,0-.4,1.041,1.651,1.651,0,0,0,.171.765,1.856,1.856,0,0,0,.459.576,2.021,2.021,0,0,0,.657.369A2.406,2.406,0,0,0,46.872-.684Zm6.624-8.6H54.63v3.942H59.9V-9.288h1.134V0H59.9V-4.392H54.63V0H53.5ZM67.1.252a4.354,4.354,0,0,1-1.881-.387,4,4,0,0,1-1.377-1.053A4.6,4.6,0,0,1,63-2.745a6.138,6.138,0,0,1-.288-1.9A6.163,6.163,0,0,1,63-6.534,4.583,4.583,0,0,1,63.846-8.1a4.1,4.1,0,0,1,1.377-1.062,4.27,4.27,0,0,1,1.881-.4,4.27,4.27,0,0,1,1.881.4A4.1,4.1,0,0,1,70.362-8.1a4.583,4.583,0,0,1,.846,1.566,6.163,6.163,0,0,1,.288,1.89,6.138,6.138,0,0,1-.288,1.9,4.6,4.6,0,0,1-.846,1.557A4,4,0,0,1,68.985-.135,4.354,4.354,0,0,1,67.1.252Zm0-.936a2.867,2.867,0,0,0,1.422-.342,3.122,3.122,0,0,0,1.017-.9,4.083,4.083,0,0,0,.612-1.269,5.158,5.158,0,0,0,.207-1.449,5.158,5.158,0,0,0-.207-1.449,4.083,4.083,0,0,0-.612-1.269,3.122,3.122,0,0,0-1.017-.9A2.867,2.867,0,0,0,67.1-8.6a2.867,2.867,0,0,0-1.422.342,3.122,3.122,0,0,0-1.017.9,4.083,4.083,0,0,0-.612,1.269,5.158,5.158,0,0,0-.207,1.449,5.158,5.158,0,0,0,.207,1.449,4.083,4.083,0,0,0,.612,1.269,3.122,3.122,0,0,0,1.017.9A2.867,2.867,0,0,0,67.1-.684Z" transform="translate(-1008 -4289)" fill="#fff"/>
    <ellipse id="Эллипс_78" data-name="Эллипс 78" cx="23" cy="22.5" rx="23" ry="22.5" transform="translate(-995 -4363)" fill="none" stroke="#fff" stroke-width="4"/>
    <rect id="Прямоугольник_528" data-name="Прямоугольник 528" width="4.118" height="47.357" transform="translate(-953.693 -4325.968) rotate(135)" fill="#fff"/>
  </g>
</svg>
