<svg id="Компонент_17_11" data-name="Компонент 17 – 11" xmlns="http://www.w3.org/2000/svg" width="269.887" height="330.228" viewBox="0 0 269.887 330.228">
  <path id="Контур_342" data-name="Контур 342" d="M7.823,0H0V249.138H7.823Z" transform="translate(0 18.993)"/>
  <path id="Контур_347" data-name="Контур 347" d="M0,149.854H7.823V0H0Z" transform="translate(150.639 18.993) rotate(90)"/>
  <path id="Контур_348" data-name="Контур 348" d="M0,82.75H7.823V0H0Z" transform="translate(269.887 18.993) rotate(90)"/>
  <path id="Контур_345" data-name="Контур 345" d="M7.823,0H0V249.138H7.823Z" transform="translate(262.063 18.993)"/>
  <path id="Контур_343" data-name="Контур 343" d="M16768.6,3680v-4.18h-2.857v-12.451h-24.4v12.761h-2.477V3680Z" transform="translate(-16738.059 -3411.871)"/>
  <path id="Контур_346" data-name="Контур 346" d="M16738.8,3680v-4.18h2.855v-12.451h24.4v12.761h2.479V3680Z" transform="translate(-16498.688 -3411.871)"/>
  <path id="Контур_344" data-name="Контур 344" d="M16790.4,3680v-3.87h-2.855v-12.761H16741.3v12.761h-2.473V3680Z" transform="translate(-16628.566 -3411.871)"/>
  <path id="Контур_349" data-name="Контур 349" d="M0,82.258H5.029V0H0Z" transform="translate(133.549 90.516)"/>
  <path id="Контур_350" data-name="Контур 350" d="M0,30.822H5.029V0H0Z" transform="translate(133.549 25.139)"/>
  <path id="Контур_351" data-name="Контур 351" d="M0,11.016H5.029V0H0Z" transform="translate(193.338 25.139)"/>
  <path id="Контур_352" data-name="Контур 352" d="M0,29.864H5.029V0H0Z" transform="translate(193.338 71.511)"/>
  <path id="Контур_373" data-name="Контур 373" d="M0,4.272H5.029V0H0Z" transform="translate(193.338 136.41)"/>
  <path id="Контур_355" data-name="Контур 355" d="M0,12.942H5.029V0H0Z" transform="translate(133.549 141.439) rotate(-90)"/>
  <path id="Контур_356" data-name="Контур 356" d="M0,17.2H5.029V0H0Z" transform="translate(181.166 143.196) rotate(-90)"/>
  <path id="Контур_354" data-name="Контур 354" d="M0,28.74H5.029V0H0Z" transform="translate(133.549 224.062)"/>
  <path id="Контур_353" data-name="Контур 353" d="M0,70.149H5.029V0H0Z" transform="translate(263.486 99.419) rotate(90)"/>
  <path id="Контур_357" data-name="Контур 357" d="M0,48.464H5.315V0H0Z" transform="translate(133.263 259.816)"/>
  <path id="Контур_362" data-name="Контур 362" d="M0,7.824H41.908V0H0Z" transform="translate(262.063 308.28) rotate(-90)"/>
  <path id="Контур_365" data-name="Контур 365" d="M16806.1,3679.25v-3.7h-4.039v-12.188h-87.4v12.188h-3.5v3.7Z" transform="translate(-16688.977 -3411.494)" fill="none" stroke="#000" stroke-width="0.5"/>
  <path id="Контур_366" data-name="Контур 366" d="M16453.1,3670.23h-92.994" transform="translate(-16338.011 -3406.089)" fill="none" stroke="#000" stroke-width="0.5"/>
  <path id="Контур_367" data-name="Контур 367" d="M16711.1,3679.6v-3.777h2.855V3663.37h61.734v12.453h2.48v3.777Z" transform="translate(-16509.148 -3411.871)" fill="none" stroke="#000" stroke-width="0.5"/>
  <path id="Контур_368" data-name="Контур 368" d="M16360.1,3671.48h48.234" transform="translate(-16157.549 -3407.523)" fill="none" stroke="#000" stroke-width="0.5"/>
  <path id="Контур_369" data-name="Контур 369" d="M0,61.465H5.029V0H0Z" transform="translate(262.346 143.196) rotate(90)"/>
  <path id="Контур_372" data-name="Контур 372" d="M0,67.608H5.029V0H0Z" transform="translate(265.975 163.87) rotate(90)"/>
  <path id="Контур_370" data-name="Контур 370" d="M5.029,0H0V20.675H5.029Z" transform="translate(198.367 143.196)"/>
  <path id="Контур_371" data-name="Контур 371" d="M16379.9,3943.44h-53.406v-8.462l1.672,6.765Z" transform="translate(-16120.1 -3783.972)"/>
  <path id="Контур_374" data-name="Контур 374" d="M0,0H1.676V34.644H0Z" transform="translate(162.469 1.185) rotate(-45)"/>
  <path id="Контур_375" data-name="Контур 375" d="M70.859,64.044a25.444,25.444,0,0,1-.431-4.711A25.736,25.736,0,0,1,82.482,37.569" transform="translate(80.77 -37.228)" fill="none" stroke="#000" stroke-width="0.5"/>
  <path id="Контур_376" data-name="Контур 376" d="M0,0H1.676V32.409H0Z" transform="matrix(-0.857, 0.515, -0.515, -0.857, 163.184, 165.485)"/>
  <path id="Контур_377" data-name="Контур 377" d="M0,0A23.751,23.751,0,0,1,16.159,22.558,23.978,23.978,0,0,1,15.071,29.7" transform="matrix(0.515, 0.857, -0.857, 0.515, 179.662, 137.595)" fill="none" stroke="#000" stroke-width="0.5"/>
  <path id="Контур_378" data-name="Контур 378" d="M0,0H1.676V34.644H0Z" transform="translate(172.736 59.649) rotate(-135)"/>
  <path id="Контур_380" data-name="Контур 380" d="M0,31.745H1.536V0H0Z" transform="translate(197.67 137.814) rotate(135)"/>
  <path id="Контур_379" data-name="Контур 379" d="M11.623,0a25.445,25.445,0,0,1,.431,4.711A25.736,25.736,0,0,1,0,26.474" transform="translate(198.367 58.866) rotate(90)" fill="none" stroke="#000" stroke-width="0.5"/>
  <path id="Контур_381" data-name="Контур 381" d="M10.651,24.259a23.315,23.315,0,0,0,.4-4.317A23.583,23.583,0,0,0,0,0" transform="translate(174.449 116.084) rotate(-90)" fill="none" stroke="#000" stroke-width="0.5"/>
  <text id="_17.0_м2" data-name="17.0 м2" transform="translate(53.006 88.801)" font-size="12" font-family="Mark-Regular"><tspan x="0" y="0">17.0 </tspan><tspan y="0" font-family="ArialMT, Arial">м</tspan><tspan y="0" font-size="7" baseline-shift="3.9998301964322795">2</tspan></text>
  <text id="_4.0_м2" data-name="4.0 м2" transform="translate(183.119 292.574)" font-size="12" font-family="Mark-Regular"><tspan x="0" y="0">4.0 </tspan><tspan y="0" font-family="ArialMT, Arial">м</tspan><tspan y="0" font-size="7" baseline-shift="3.9998301964322795">2</tspan></text>
  <text id="_8.0_м2" data-name="8.0 м2" transform="translate(183.557 214.931)" font-size="12" font-family="Mark-Regular"><tspan x="0" y="0">8.0 </tspan><tspan y="0" font-family="ArialMT, Arial">м</tspan><tspan y="0" font-size="7" baseline-shift="3.9998301964322795">2</tspan></text>
  <text id="_3.5_м2" data-name="3.5 м2" transform="translate(150.641 87.072)" font-size="12" font-family="Mark-Regular"><tspan x="0" y="0">3.5 </tspan><tspan y="0" font-family="ArialMT, Arial">м</tspan><tspan y="0" font-size="7" baseline-shift="3.9998301964322795">2</tspan></text>
  <text id="_1.4_м2" data-name="1.4 м2" transform="translate(219.008 125.084)" font-size="12" font-family="Mark-Regular"><tspan x="0" y="0">1.4 </tspan><tspan y="0" font-family="ArialMT, Arial">м</tspan><tspan y="0" font-size="7" baseline-shift="3.9998301964322795">2</tspan></text>
  <text id="_2.8_м2" data-name="2.8 м2" transform="translate(219.008 60.435)" font-size="12" font-family="Mark-Regular"><tspan x="0" y="0">2.8 </tspan><tspan y="0" font-family="ArialMT, Arial">м</tspan><tspan y="0" font-size="7" baseline-shift="3.9998301964322795">2</tspan></text>
  <text id="_34.7_м2" data-name="34.7 м2" transform="translate(41.676 170.007)" font-size="19" font-family="Mark-Medium, Mark" font-weight="500"><tspan x="0" y="0">34.7 </tspan><tspan y="0" font-family="SegoeUI-Bold, Segoe UI" font-weight="700">м</tspan><tspan y="0" font-size="11.08" baseline-shift="6.3311571653886975">2</tspan></text>
  <path id="Контур_1454" data-name="Контур 1454" d="M100.07,21.118H39.092L5.518.157,3,4.512,36.893,26.147H101.71L139.162,4.355,136.647,0Z" transform="translate(130.259 304.081)"/>
</svg>
