<svg xmlns="http://www.w3.org/2000/svg" width="270.052" height="330.228" viewBox="0 0 270.052 330.228">
  <g id="Компонент_16_11" data-name="Компонент 16 – 11" transform="translate(0.004)">
    <path id="Контур_342" data-name="Контур 342" d="M0,0H7.823V249.138H0Z" transform="translate(262.225 18.993)"/>
    <path id="Контур_347" data-name="Контур 347" d="M0,0H7.823V149.854H0Z" transform="translate(269.262 18.993) rotate(90)"/>
    <path id="Контур_348" data-name="Контур 348" d="M0,0H7.823V82.75H0Z" transform="translate(82.912 18.993) rotate(90)"/>
    <path id="Контур_345" data-name="Контур 345" d="M0,0H7.823V249.138H0Z" transform="translate(0.162 18.993)"/>
    <path id="Контур_343" data-name="Контур 343" d="M16738.8,3680v-4.18h2.855v-12.451h24.4v12.761h2.479V3680Z" transform="translate(-16499.313 -3411.871)"/>
    <path id="Контур_346" data-name="Контур 346" d="M16768.6,3680v-4.18h-2.857v-12.451h-24.4v12.761h-2.477V3680Z" transform="translate(-16738.684 -3411.871)"/>
    <path id="Контур_344" data-name="Контур 344" d="M16738.8,3680v-3.87h2.855v-12.761h46.244v12.761h2.475V3680Z" transform="translate(-16630.648 -3411.871)"/>
    <path id="Контур_349" data-name="Контур 349" d="M5.029,82.258H0V0H5.029Z" transform="translate(131.469 90.516)"/>
    <path id="Контур_350" data-name="Контур 350" d="M5.029,30.822H0V0H5.029Z" transform="translate(131.469 25.139)"/>
    <path id="Контур_351" data-name="Контур 351" d="M5.029,11.016H0V0H5.029Z" transform="translate(71.682 25.139)"/>
    <path id="Контур_352" data-name="Контур 352" d="M5.029,29.864H0V0H5.029Z" transform="translate(71.682 71.511)"/>
    <path id="Контур_373" data-name="Контур 373" d="M5.029,4.272H0V0H5.029Z" transform="translate(71.682 136.41)"/>
    <path id="Контур_355" data-name="Контур 355" d="M0,0H5.029V12.942H0Z" transform="translate(123.557 141.439) rotate(-90)"/>
    <path id="Контур_356" data-name="Контур 356" d="M0,0H5.029V17.2H0Z" transform="translate(71.682 143.196) rotate(-90)"/>
    <path id="Контур_354" data-name="Контур 354" d="M5.029,28.74H0V0H5.029Z" transform="translate(131.469 224.062)"/>
    <path id="Контур_353" data-name="Контур 353" d="M0,0H5.029V70.149H0Z" transform="translate(76.709 99.419) rotate(90)"/>
    <path id="Контур_357" data-name="Контур 357" d="M5,48.464H0V0H5Z" transform="translate(131.501 259.815)"/>
    <path id="Контур_1697" data-name="Контур 1697" d="M5,48.464H0V0H5Z" transform="translate(0 259.819)"/>
    <path id="Контур_365" data-name="Контур 365" d="M16711.1,3679.25v-3.7h4.043v-12.188h87.395v12.188h3.5v3.7Z" transform="translate(-16558.148 -3411.495)" fill="none" stroke="#000" stroke-width="0.5"/>
    <path id="Контур_366" data-name="Контур 366" d="M16360.1,3670.23h92.994" transform="translate(-16205.233 -3406.089)" fill="none" stroke="#000" stroke-width="0.5"/>
    <path id="Контур_367" data-name="Контур 367" d="M16778.2,3679.6v-3.777h-2.855V3663.37h-61.738v12.453h-2.477v3.777Z" transform="translate(-16710.109 -3411.871)" fill="none" stroke="#000" stroke-width="0.5"/>
    <path id="Контур_368" data-name="Контур 368" d="M16408.4,3671.48h-48.234" transform="translate(-16340.932 -3407.523)" fill="none" stroke="#000" stroke-width="0.5"/>
    <path id="Контур_369" data-name="Контур 369" d="M0,0H5.029V61.465H0Z" transform="translate(69.166 143.196) rotate(90)"/>
    <path id="Контур_372" data-name="Контур 372" d="M0,0H5.029V67.608H0Z" transform="translate(71.682 163.87) rotate(90)"/>
    <path id="Контур_370" data-name="Контур 370" d="M0,0H5.029V20.675H0Z" transform="translate(66.652 143.196)"/>
    <path id="Контур_371" data-name="Контур 371" d="M16326.5,3943.44h53.4v-8.462l-1.67,6.765Z" transform="translate(-16316.293 -3783.973)"/>
    <path id="Контур_374" data-name="Контур 374" d="M0,34.644H1.676V0H0Z" transform="translate(83.08 25.682) rotate(-135)"/>
    <path id="Контур_375" data-name="Контур 375" d="M82.051,64.044a25.444,25.444,0,0,0,.431-4.711A25.736,25.736,0,0,0,70.428,37.569" transform="translate(36.367 -37.228)" fill="none" stroke="#000" stroke-width="0.5"/>
    <path id="Контур_376" data-name="Контур 376" d="M0,32.409H1.676V0H0Z" transform="matrix(0.857, 0.515, -0.515, 0.857, 123.557, 137.705)"/>
    <path id="Контур_377" data-name="Контур 377" d="M0,29.7A23.751,23.751,0,0,0,16.159,7.138,23.983,23.983,0,0,0,15.07,0" transform="matrix(-0.515, 0.857, -0.857, -0.515, 115.84, 152.889)" fill="none" stroke="#000" stroke-width="0.5"/>
    <path id="Контур_378" data-name="Контур 378" d="M0,34.644H1.676V0H0Z" transform="translate(72.814 35.152) rotate(-45)"/>
    <path id="Контур_380" data-name="Контур 380" d="M0,0H1.536V31.745H0Z" transform="translate(94.826 115.367) rotate(45)"/>
    <path id="Контур_379" data-name="Контур 379" d="M11.623,26.474a25.445,25.445,0,0,0,.431-4.711A25.736,25.736,0,0,0,0,0" transform="translate(98.154 58.866) rotate(90)" fill="none" stroke="#000" stroke-width="0.5"/>
    <path id="Контур_381" data-name="Контур 381" d="M10.651,0a23.315,23.315,0,0,1,.4,4.317A23.583,23.583,0,0,1,0,24.259" transform="translate(71.34 116.084) rotate(-90)" fill="none" stroke="#000" stroke-width="0.5"/>
    <text id="_17.0_м2" data-name="17.0 м2" transform="translate(183.834 88.801)" font-size="12" font-family="Mark-Regular"><tspan x="0" y="0">17.0 </tspan><tspan y="0" font-family="ArialMT, Arial">м</tspan><tspan y="0" font-size="7" baseline-shift="3.9998301964322795">2</tspan></text>
    <text id="_4.0_м2" data-name="4.0 м2" transform="translate(58.701 292.574)" font-size="12" font-family="Mark-Regular"><tspan x="0" y="0">4.0 </tspan><tspan y="0" font-family="ArialMT, Arial">м</tspan><tspan y="0" font-size="7" baseline-shift="3.9998301964322795">2</tspan></text>
    <text id="_8.0_м2" data-name="8.0 м2" transform="translate(58.266 214.931)" font-size="12" font-family="Mark-Regular"><tspan x="0" y="0">8.0 </tspan><tspan y="0" font-family="ArialMT, Arial">м</tspan><tspan y="0" font-size="7" baseline-shift="3.9998301964322795">2</tspan></text>
    <text id="_3.5_м2" data-name="3.5 м2" transform="translate(91.182 87.071)" font-size="12" font-family="Mark-Regular"><tspan x="0" y="0">3.5 </tspan><tspan y="0" font-family="ArialMT, Arial">м</tspan><tspan y="0" font-size="7" baseline-shift="3.9998301964322795">2</tspan></text>
    <text id="_1.4_м2" data-name="1.4 м2" transform="translate(22.813 125.084)" font-size="12" font-family="Mark-Regular"><tspan x="0" y="0">1.4 </tspan><tspan y="0" font-family="ArialMT, Arial">м</tspan><tspan y="0" font-size="7" baseline-shift="3.9998301964322795">2</tspan></text>
    <text id="_2.8_м2" data-name="2.8 м2" transform="translate(22.814 60.435)" font-size="12" font-family="Mark-Regular"><tspan x="0" y="0">2.8 </tspan><tspan y="0" font-family="ArialMT, Arial">м</tspan><tspan y="0" font-size="7" baseline-shift="3.9998301964322795">2</tspan></text>
    <text id="_34.7_м2" data-name="34.7 м2" transform="translate(160.297 170.007)" font-size="19" font-family="Mark-Medium, Mark" font-weight="500"><tspan x="0" y="0">34.7 </tspan><tspan y="0" font-family="SegoeUI-Bold, Segoe UI" font-weight="700">м</tspan><tspan y="0" font-size="11.08" baseline-shift="6.3311571653886975">2</tspan></text>
    <path id="Контур_1455" data-name="Контур 1455" d="M100.07,21.118H39.092L5.518.157,3,4.512,36.893,26.147H101.71L139.162,4.355,136.647,0Z" transform="translate(-3.004 304.081)"/>
  </g>
</svg>
