<svg xmlns="http://www.w3.org/2000/svg" width="270.052" height="330.228" viewBox="0 0 270.052 330.228">
  <g id="Сгруппировать_504" data-name="Сгруппировать 504" transform="translate(1047.004 3031.018)">
    <g id="Компонент_16_10" data-name="Компонент 16 – 10" transform="translate(-1047 -3031.018)">
      <path id="Контур_590" data-name="Контур 590" d="M3.646,22.9H265.834V267.287l-131.2-.316v40.155L100.05,327.582,37.3,329.992,3.646,310.22Z" transform="translate(0.16)" fill="#464646"/>
      <path id="Контур_342" data-name="Контур 342" d="M0,0H7.823V249.138H0Z" transform="translate(262.225 18.993)"/>
      <path id="Контур_347" data-name="Контур 347" d="M0,0H7.823V149.854H0Z" transform="translate(269.262 18.993) rotate(90)"/>
      <path id="Контур_348" data-name="Контур 348" d="M0,0H7.823V82.75H0Z" transform="translate(82.912 18.993) rotate(90)"/>
      <path id="Контур_345" data-name="Контур 345" d="M0,0H7.823V249.138H0Z" transform="translate(0.162 18.993)"/>
      <path id="Контур_343" data-name="Контур 343" d="M16738.8,3680v-4.18h2.855v-12.451h24.4v12.761h2.479V3680Z" transform="translate(-16499.313 -3411.871)"/>
      <path id="Контур_346" data-name="Контур 346" d="M16768.6,3680v-4.18h-2.857v-12.451h-24.4v12.761h-2.477V3680Z" transform="translate(-16738.684 -3411.871)"/>
      <path id="Контур_344" data-name="Контур 344" d="M16738.8,3680v-3.87h2.855v-12.761h46.244v12.761h2.475V3680Z" transform="translate(-16630.648 -3411.871)"/>
      <path id="Контур_349" data-name="Контур 349" d="M5.029,82.258H0V0H5.029Z" transform="translate(131.469 90.516)"/>
      <path id="Контур_350" data-name="Контур 350" d="M5.029,30.822H0V0H5.029Z" transform="translate(131.469 25.139)"/>
      <path id="Контур_351" data-name="Контур 351" d="M5.029,11.016H0V0H5.029Z" transform="translate(71.682 25.139)"/>
      <path id="Контур_352" data-name="Контур 352" d="M5.029,29.864H0V0H5.029Z" transform="translate(71.682 71.511)"/>
      <path id="Контур_373" data-name="Контур 373" d="M5.029,4.272H0V0H5.029Z" transform="translate(71.682 136.41)"/>
      <path id="Контур_355" data-name="Контур 355" d="M0,0H5.029V12.942H0Z" transform="translate(123.557 141.439) rotate(-90)"/>
      <path id="Контур_356" data-name="Контур 356" d="M0,0H5.029V17.2H0Z" transform="translate(71.682 143.196) rotate(-90)"/>
      <path id="Контур_354" data-name="Контур 354" d="M5.029,28.74H0V0H5.029Z" transform="translate(131.469 224.062)"/>
      <path id="Контур_353" data-name="Контур 353" d="M0,0H5.029V70.149H0Z" transform="translate(76.709 99.419) rotate(90)"/>
      <path id="Контур_357" data-name="Контур 357" d="M5,48.464H0V0H5Z" transform="translate(131.501 259.815)"/>
      <path id="Контур_1697" data-name="Контур 1697" d="M5,48.464H0V0H5Z" transform="translate(0 259.819)"/>
      <path id="Контур_365" data-name="Контур 365" d="M16711.1,3679.25v-3.7h4.043v-12.188h87.395v12.188h3.5v3.7Z" transform="translate(-16558.148 -3411.495)" fill="none" stroke="#000" stroke-width="0.5"/>
      <path id="Контур_366" data-name="Контур 366" d="M16360.1,3670.23h92.994" transform="translate(-16205.233 -3406.089)" fill="none" stroke="#000" stroke-width="0.5"/>
      <path id="Контур_367" data-name="Контур 367" d="M16778.2,3679.6v-3.777h-2.855V3663.37h-61.738v12.453h-2.477v3.777Z" transform="translate(-16710.109 -3411.871)" fill="none" stroke="#000" stroke-width="0.5"/>
      <path id="Контур_368" data-name="Контур 368" d="M16408.4,3671.48h-48.234" transform="translate(-16340.932 -3407.523)" fill="none" stroke="#000" stroke-width="0.5"/>
      <path id="Контур_369" data-name="Контур 369" d="M0,0H5.029V61.465H0Z" transform="translate(69.166 143.196) rotate(90)"/>
      <path id="Контур_372" data-name="Контур 372" d="M0,0H5.029V67.608H0Z" transform="translate(71.682 163.87) rotate(90)"/>
      <path id="Контур_370" data-name="Контур 370" d="M0,0H5.029V20.675H0Z" transform="translate(66.652 143.196)"/>
      <path id="Контур_371" data-name="Контур 371" d="M16326.5,3943.44h53.4v-8.462l-1.67,6.765Z" transform="translate(-16316.293 -3783.973)"/>
      <path id="Контур_374" data-name="Контур 374" d="M0,34.644H1.676V0H0Z" transform="translate(83.08 25.682) rotate(-135)"/>
      <path id="Контур_375" data-name="Контур 375" d="M82.051,64.044a25.444,25.444,0,0,0,.431-4.711A25.736,25.736,0,0,0,70.428,37.569" transform="translate(36.367 -37.228)" fill="none" stroke="#000" stroke-width="0.5"/>
      <path id="Контур_376" data-name="Контур 376" d="M0,32.409H1.676V0H0Z" transform="matrix(0.857, 0.515, -0.515, 0.857, 123.557, 137.705)"/>
      <path id="Контур_377" data-name="Контур 377" d="M0,29.7A23.751,23.751,0,0,0,16.159,7.138,23.983,23.983,0,0,0,15.07,0" transform="matrix(-0.515, 0.857, -0.857, -0.515, 115.84, 152.889)" fill="none" stroke="#000" stroke-width="0.5"/>
      <path id="Контур_378" data-name="Контур 378" d="M0,34.644H1.676V0H0Z" transform="translate(72.814 35.152) rotate(-45)"/>
      <path id="Контур_380" data-name="Контур 380" d="M0,0H1.536V31.745H0Z" transform="translate(94.826 115.367) rotate(45)"/>
      <path id="Контур_379" data-name="Контур 379" d="M11.623,26.474a25.445,25.445,0,0,0,.431-4.711A25.736,25.736,0,0,0,0,0" transform="translate(98.154 58.866) rotate(90)" fill="none" stroke="#000" stroke-width="0.5"/>
      <path id="Контур_381" data-name="Контур 381" d="M10.651,0a23.315,23.315,0,0,1,.4,4.317A23.583,23.583,0,0,1,0,24.259" transform="translate(71.34 116.084) rotate(-90)" fill="none" stroke="#000" stroke-width="0.5"/>
      <text id="_17.0_м2" data-name="17.0 м2" transform="translate(183.834 88.801)" font-size="12" font-family="Mark-Regular"><tspan x="0" y="0">17.0 </tspan><tspan y="0" font-family="ArialMT, Arial">м</tspan><tspan y="0" font-size="7" baseline-shift="3.9998301964322795">2</tspan></text>
      <text id="_4.0_м2" data-name="4.0 м2" transform="translate(58.701 292.574)" font-size="12" font-family="Mark-Regular"><tspan x="0" y="0">4.0 </tspan><tspan y="0" font-family="ArialMT, Arial">м</tspan><tspan y="0" font-size="7" baseline-shift="3.9998301964322795">2</tspan></text>
      <text id="_8.0_м2" data-name="8.0 м2" transform="translate(58.266 214.931)" font-size="12" font-family="Mark-Regular"><tspan x="0" y="0">8.0 </tspan><tspan y="0" font-family="ArialMT, Arial">м</tspan><tspan y="0" font-size="7" baseline-shift="3.9998301964322795">2</tspan></text>
      <text id="_3.5_м2" data-name="3.5 м2" transform="translate(91.182 87.071)" font-size="12" font-family="Mark-Regular"><tspan x="0" y="0">3.5 </tspan><tspan y="0" font-family="ArialMT, Arial">м</tspan><tspan y="0" font-size="7" baseline-shift="3.9998301964322795">2</tspan></text>
      <text id="_1.4_м2" data-name="1.4 м2" transform="translate(22.813 125.084)" font-size="12" font-family="Mark-Regular"><tspan x="0" y="0">1.4 </tspan><tspan y="0" font-family="ArialMT, Arial">м</tspan><tspan y="0" font-size="7" baseline-shift="3.9998301964322795">2</tspan></text>
      <text id="_2.8_м2" data-name="2.8 м2" transform="translate(22.814 60.435)" font-size="12" font-family="Mark-Regular"><tspan x="0" y="0">2.8 </tspan><tspan y="0" font-family="ArialMT, Arial">м</tspan><tspan y="0" font-size="7" baseline-shift="3.9998301964322795">2</tspan></text>
      <text id="_34.7_м2" data-name="34.7 м2" transform="translate(160.297 170.007)" font-size="19" font-family="Mark-Medium, Mark" font-weight="500"><tspan x="0" y="0">34.7 </tspan><tspan y="0" font-family="SegoeUI-Bold, Segoe UI" font-weight="700">м</tspan><tspan y="0" font-size="11.08" baseline-shift="6.3311571653886975">2</tspan></text>
      <path id="Контур_1455" data-name="Контур 1455" d="M100.07,21.118H39.092L5.518.157,3,4.512,36.893,26.147H101.71L139.162,4.355,136.647,0Z" transform="translate(-3.004 304.081)"/>
    </g>
    <g id="Сгруппировать_500" data-name="Сгруппировать 500" transform="translate(-1047.861 -3031.018)">
      <g id="lock-outlined-24px" transform="translate(111.043 106.693)">
        <g id="Сгруппировать_134" data-name="Сгруппировать 134">
          <path id="Контур_654" data-name="Контур 654" d="M0,0H45.172V49.9H0Z" fill="none"/>
          <path id="Контур_655" data-name="Контур 655" d="M0,0H45.172V49.9H0Z" fill="none" opacity="0.87"/>
        </g>
        <path id="Контур_656" data-name="Контур 656" d="M36.525,16.635H34.2V12.168A11.4,11.4,0,0,0,22.586,1,11.4,11.4,0,0,0,10.97,12.168v4.467H8.646A4.573,4.573,0,0,0,4,21.1V43.437A4.573,4.573,0,0,0,8.646,47.9H36.525a4.573,4.573,0,0,0,4.646-4.467V21.1a4.573,4.573,0,0,0-4.646-4.465ZM15.616,12.168a6.83,6.83,0,0,1,6.97-6.7,6.83,6.83,0,0,1,6.97,6.7v4.467H15.616Zm20.909,31.27H8.646V21.1H36.525Zm-13.939-6.7a4.471,4.471,0,1,0-4.646-4.467,4.573,4.573,0,0,0,4.646,4.466Z" fill="#fff"/>
      </g>
      <path id="Контур_1709" data-name="Контур 1709" d="M5.832.27A7.192,7.192,0,0,1,3.69-.03,4.458,4.458,0,0,1,2.079-.891,3.761,3.761,0,0,1,1.071-2.277,4.641,4.641,0,0,1,.72-4.122V-4.23H1.89a3.16,3.16,0,0,0,1.1,2.646A4.614,4.614,0,0,0,5.922-.72,4.128,4.128,0,0,0,7.38-.963,3.22,3.22,0,0,0,8.469-1.62a2.942,2.942,0,0,0,.684-.963A2.837,2.837,0,0,0,9.4-3.744a2.279,2.279,0,0,0-.225-1.017,2.319,2.319,0,0,0-.621-.783,2.937,2.937,0,0,0-.927-.5,3.538,3.538,0,0,0-1.143-.18H4.428V-7.272H6.48a3.286,3.286,0,0,0,.972-.144,2.573,2.573,0,0,0,.828-.423,1.969,1.969,0,0,0,.567-.7,2.206,2.206,0,0,0,.207-.981,2.548,2.548,0,0,0-.243-1.152,2.26,2.26,0,0,0-.657-.8,2.8,2.8,0,0,0-.99-.468A4.751,4.751,0,0,0,5.94-12.1a5.23,5.23,0,0,0-1.4.18,3.228,3.228,0,0,0-1.125.549,2.679,2.679,0,0,0-.756.918A3.324,3.324,0,0,0,2.322-9.18H1.134a4.361,4.361,0,0,1,.423-1.728,3.584,3.584,0,0,1,1-1.233,4.258,4.258,0,0,1,1.485-.738A6.794,6.794,0,0,1,5.9-13.122a6.776,6.776,0,0,1,1.7.207,4.081,4.081,0,0,1,1.4.639,3.1,3.1,0,0,1,.936,1.089,3.33,3.33,0,0,1,.342,1.557,2.719,2.719,0,0,1-.162.945,2.967,2.967,0,0,1-.432.792,3.064,3.064,0,0,1-.612.6,2.779,2.779,0,0,1-.684.378v.054a2.968,2.968,0,0,1,1.629,1.035,3.24,3.24,0,0,1,.6,2.061,3.985,3.985,0,0,1-.243,1.3,3.786,3.786,0,0,1-.8,1.314A4.323,4.323,0,0,1,8.1-.135a5.619,5.619,0,0,1-2.268.4ZM14.976.252A4.648,4.648,0,0,1,13.761.1a2.729,2.729,0,0,1-.99-.486,2.324,2.324,0,0,1-.666-.846,2.814,2.814,0,0,1-.243-1.215,2.4,2.4,0,0,1,.432-1.521,2.718,2.718,0,0,1,1.143-.837,6.52,6.52,0,0,1,1.6-.405q.891-.117,1.809-.225.342-.036.621-.09a1.1,1.1,0,0,0,.459-.189.875.875,0,0,0,.279-.369,1.591,1.591,0,0,0,.1-.612,2.069,2.069,0,0,0-.189-.945,1.494,1.494,0,0,0-.522-.585,2.1,2.1,0,0,0-.774-.3,5.231,5.231,0,0,0-.945-.081,2.862,2.862,0,0,0-1.764.513,2.01,2.01,0,0,0-.72,1.647H12.258A3,3,0,0,1,13.383-8.82a4.383,4.383,0,0,1,2.637-.738,6.5,6.5,0,0,1,1.224.117,2.958,2.958,0,0,1,1.1.441,2.4,2.4,0,0,1,.792.909,3.279,3.279,0,0,1,.3,1.521v4.932a.6.6,0,0,0,.164.507.6.6,0,0,0,.5.177.8.8,0,0,0,.36-.072v.954q-.2.036-.351.054A3.417,3.417,0,0,1,19.728,0a1.716,1.716,0,0,1-.693-.117.93.93,0,0,1-.4-.333,1.249,1.249,0,0,1-.189-.513A4.4,4.4,0,0,1,18.4-1.62h-.04a7.577,7.577,0,0,1-.621.8,3.087,3.087,0,0,1-.7.585,3.221,3.221,0,0,1-.891.36,4.854,4.854,0,0,1-1.172.127Zm.09-.936a3.9,3.9,0,0,0,1.242-.2,3.056,3.056,0,0,0,1.035-.576,2.8,2.8,0,0,0,.7-.918A2.778,2.778,0,0,0,18.306-3.6V-5.076H18.27a.65.65,0,0,1-.414.288,4.225,4.225,0,0,1-.54.126q-.72.126-1.485.225a8.144,8.144,0,0,0-1.4.3,2.658,2.658,0,0,0-1.035.576A1.358,1.358,0,0,0,13-2.52a1.651,1.651,0,0,0,.171.765,1.856,1.856,0,0,0,.459.576,2.021,2.021,0,0,0,.657.369,2.406,2.406,0,0,0,.779.126ZM25.722.252a4.241,4.241,0,0,1-2.106-.468A3.631,3.631,0,0,1,22.3-1.458a5.2,5.2,0,0,1-.684-1.782,10.81,10.81,0,0,1-.2-2.088q0-.666.054-1.395a12.77,12.77,0,0,1,.189-1.44,10.469,10.469,0,0,1,.351-1.359,5.02,5.02,0,0,1,.558-1.17,3.682,3.682,0,0,1,1.512-1.386,6.212,6.212,0,0,1,2.214-.5l.864-.054a3.289,3.289,0,0,0,.972-.144.671.671,0,0,0,.36-.342h1.26A1.439,1.439,0,0,1,29.025-12a4.716,4.716,0,0,1-1.773.369l-1.368.09A3.218,3.218,0,0,0,23.472-10.4a6.556,6.556,0,0,0-1.134,3.186h.054a3.67,3.67,0,0,1,1.386-1.5,3.826,3.826,0,0,1,2.052-.567,4.32,4.32,0,0,1,1.7.324,3.747,3.747,0,0,1,1.323.936,4.255,4.255,0,0,1,.864,1.494,6.016,6.016,0,0,1,.306,1.98,6.037,6.037,0,0,1-.306,1.971,4.357,4.357,0,0,1-.873,1.521,3.868,3.868,0,0,1-1.359.972,4.4,4.4,0,0,1-1.763.335Zm0-.936a2.91,2.91,0,0,0,1.269-.279A2.928,2.928,0,0,0,28-1.755a3.738,3.738,0,0,0,.657-1.224,5.017,5.017,0,0,0,.234-1.575A4.872,4.872,0,0,0,28.656-6.1,3.543,3.543,0,0,0,28-7.3a3.082,3.082,0,0,0-.99-.774,2.754,2.754,0,0,0-1.233-.279,3.139,3.139,0,0,0-1.314.27,2.9,2.9,0,0,0-1.017.765,3.543,3.543,0,0,0-.657,1.2,4.933,4.933,0,0,0-.234,1.566,5.017,5.017,0,0,0,.234,1.575,3.738,3.738,0,0,0,.657,1.224,2.928,2.928,0,0,0,1.008.792,2.91,2.91,0,0,0,1.268.277Zm5.994-8.6H32.76V-7.52h.04a3.036,3.036,0,0,1,1.287-1.5,3.879,3.879,0,0,1,2.025-.531,4.04,4.04,0,0,1,1.845.4A3.785,3.785,0,0,1,39.262-8.08a4.557,4.557,0,0,1,.774,1.566,6.88,6.88,0,0,1,.252,1.881,6.852,6.852,0,0,1-.252,1.89A4.567,4.567,0,0,1,39.258-1.2,3.7,3.7,0,0,1,37.953-.135a4.119,4.119,0,0,1-1.845.387A4.106,4.106,0,0,1,35.091.126a3.585,3.585,0,0,1-.927-.378,3.085,3.085,0,0,1-.765-.63,2.685,2.685,0,0,1-.513-.882H32.85V3.42H31.716Zm4.392,8.6a2.614,2.614,0,0,0,1.386-.351,2.974,2.974,0,0,0,.945-.909,3.956,3.956,0,0,0,.54-1.269,6.1,6.1,0,0,0,.171-1.431,6.1,6.1,0,0,0-.171-1.431,3.956,3.956,0,0,0-.54-1.269,2.974,2.974,0,0,0-.945-.909A2.614,2.614,0,0,0,36.108-8.6a3.389,3.389,0,0,0-1.575.324,2.746,2.746,0,0,0-1,.864A3.4,3.4,0,0,0,33-6.156a7.259,7.259,0,0,0-.153,1.512,6.1,6.1,0,0,0,.171,1.431,3.737,3.737,0,0,0,.558,1.269,3.006,3.006,0,0,0,1.008.909,3.05,3.05,0,0,0,1.524.351Zm9.864.936a4.354,4.354,0,0,1-1.881-.387,4,4,0,0,1-1.377-1.053,4.6,4.6,0,0,1-.846-1.557,6.138,6.138,0,0,1-.288-1.9,6.163,6.163,0,0,1,.288-1.89A4.583,4.583,0,0,1,42.714-8.1a4.1,4.1,0,0,1,1.377-1.062,4.27,4.27,0,0,1,1.881-.4,4.27,4.27,0,0,1,1.881.4A4.1,4.1,0,0,1,49.23-8.1a4.583,4.583,0,0,1,.846,1.566,6.163,6.163,0,0,1,.288,1.89,6.138,6.138,0,0,1-.288,1.9,4.6,4.6,0,0,1-.846,1.557A4,4,0,0,1,47.853-.135a4.354,4.354,0,0,1-1.881.387Zm0-.936a2.867,2.867,0,0,0,1.422-.342,3.122,3.122,0,0,0,1.017-.9A4.083,4.083,0,0,0,49.023-3.2a5.158,5.158,0,0,0,.207-1.449,5.158,5.158,0,0,0-.207-1.449,4.083,4.083,0,0,0-.612-1.269,3.122,3.122,0,0,0-1.017-.9A2.867,2.867,0,0,0,45.972-8.6a2.867,2.867,0,0,0-1.422.342,3.122,3.122,0,0,0-1.017.9,4.083,4.083,0,0,0-.612,1.269,5.158,5.158,0,0,0-.207,1.449,5.158,5.158,0,0,0,.207,1.449,4.083,4.083,0,0,0,.612,1.269,3.122,3.122,0,0,0,1.017.9,2.867,2.867,0,0,0,1.422.338Zm6.066-8.6h1.134v3.942h5.274V-9.288H59.58V0H58.446V-4.392H53.172V0H52.038Zm9.666,0h1.134v7.956l5.13-7.956h1.4V0h-1.13V-7.956L63.108,0H61.7Zm9.81,0h1.044V-7.52h.036a3.036,3.036,0,0,1,1.287-1.5,3.879,3.879,0,0,1,2.025-.531,4.04,4.04,0,0,1,1.845.4A3.785,3.785,0,0,1,79.056-8.08a4.558,4.558,0,0,1,.774,1.566,6.88,6.88,0,0,1,.252,1.881,6.852,6.852,0,0,1-.252,1.89A4.567,4.567,0,0,1,79.056-1.2,3.7,3.7,0,0,1,77.751-.135a4.119,4.119,0,0,1-1.845.387A4.106,4.106,0,0,1,74.889.126a3.585,3.585,0,0,1-.927-.378,3.085,3.085,0,0,1-.765-.63,2.685,2.685,0,0,1-.513-.882h-.036V3.42H71.514Zm4.392,8.6a2.614,2.614,0,0,0,1.386-.351,2.974,2.974,0,0,0,.945-.909,3.957,3.957,0,0,0,.54-1.269,6.1,6.1,0,0,0,.171-1.431,6.1,6.1,0,0,0-.171-1.431,3.957,3.957,0,0,0-.54-1.269,2.974,2.974,0,0,0-.945-.909A2.614,2.614,0,0,0,75.906-8.6a3.389,3.389,0,0,0-1.575.324,2.746,2.746,0,0,0-1,.864,3.4,3.4,0,0,0-.531,1.26,7.26,7.26,0,0,0-.153,1.512,6.1,6.1,0,0,0,.171,1.431,3.736,3.736,0,0,0,.558,1.269,3.006,3.006,0,0,0,1.008.909A3.05,3.05,0,0,0,75.906-.684ZM85.77.252a4.354,4.354,0,0,1-1.881-.387,4,4,0,0,1-1.377-1.053,4.6,4.6,0,0,1-.846-1.557,6.138,6.138,0,0,1-.288-1.9,6.163,6.163,0,0,1,.288-1.89A4.583,4.583,0,0,1,82.512-8.1a4.1,4.1,0,0,1,1.377-1.062,4.27,4.27,0,0,1,1.881-.4,4.27,4.27,0,0,1,1.881.4A4.1,4.1,0,0,1,89.028-8.1a4.583,4.583,0,0,1,.846,1.566,6.163,6.163,0,0,1,.288,1.89,6.138,6.138,0,0,1-.288,1.9,4.6,4.6,0,0,1-.846,1.557A4,4,0,0,1,87.651-.135,4.354,4.354,0,0,1,85.77.252Zm0-.936a2.867,2.867,0,0,0,1.422-.342,3.122,3.122,0,0,0,1.017-.9A4.083,4.083,0,0,0,88.821-3.2a5.158,5.158,0,0,0,.207-1.449,5.158,5.158,0,0,0-.207-1.449,4.083,4.083,0,0,0-.612-1.269,3.122,3.122,0,0,0-1.017-.9A2.867,2.867,0,0,0,85.77-8.6a2.867,2.867,0,0,0-1.422.342,3.122,3.122,0,0,0-1.017.9,4.083,4.083,0,0,0-.612,1.269,5.158,5.158,0,0,0-.207,1.449,5.158,5.158,0,0,0,.207,1.449,4.083,4.083,0,0,0,.612,1.269,3.122,3.122,0,0,0,1.017.9A2.867,2.867,0,0,0,85.77-.684Zm6.066-8.6h4.248a3.712,3.712,0,0,1,2.2.558,1.891,1.891,0,0,1,.774,1.638A2.228,2.228,0,0,1,98.635-5.7a2.179,2.179,0,0,1-1.179.774V-4.9a2.5,2.5,0,0,1,1.44.72A2.231,2.231,0,0,1,99.418-2.6,2.305,2.305,0,0,1,98.572-.67,3.955,3.955,0,0,1,96.084,0H91.836Zm4.122,8.33a2.85,2.85,0,0,0,1.755-.441,1.572,1.572,0,0,0,.567-1.323,1.468,1.468,0,0,0-.567-1.242,2.9,2.9,0,0,0-1.755-.432H92.97V-.954Zm0-4.32a2.24,2.24,0,0,0,1.467-.414,1.38,1.38,0,0,0,.5-1.116q0-1.53-1.962-1.53H92.97v3.06ZM103.77.252A4.648,4.648,0,0,1,102.555.1a2.729,2.729,0,0,1-.99-.486,2.324,2.324,0,0,1-.666-.846,2.814,2.814,0,0,1-.243-1.215,2.4,2.4,0,0,1,.432-1.521,2.718,2.718,0,0,1,1.143-.837,6.52,6.52,0,0,1,1.6-.4q.891-.117,1.809-.225.342-.036.621-.09a1.1,1.1,0,0,0,.459-.189.875.875,0,0,0,.28-.37,1.591,1.591,0,0,0,.1-.612,2.069,2.069,0,0,0-.189-.945,1.494,1.494,0,0,0-.522-.585,2.1,2.1,0,0,0-.774-.3,5.231,5.231,0,0,0-.945-.081,2.862,2.862,0,0,0-1.764.513,2.01,2.01,0,0,0-.72,1.647h-1.134a3,3,0,0,1,1.125-2.376,4.383,4.383,0,0,1,2.637-.738,6.5,6.5,0,0,1,1.224.117,2.958,2.958,0,0,1,1.1.441,2.4,2.4,0,0,1,.792.909,3.279,3.279,0,0,1,.306,1.521v4.932a.6.6,0,0,0,.164.507.6.6,0,0,0,.5.177.8.8,0,0,0,.36-.072v.954q-.2.036-.351.054a3.417,3.417,0,0,1-.387.018,1.716,1.716,0,0,1-.693-.117.93.93,0,0,1-.4-.333,1.249,1.249,0,0,1-.189-.513,4.4,4.4,0,0,1-.045-.657h-.036a7.578,7.578,0,0,1-.621.8,3.087,3.087,0,0,1-.7.585,3.221,3.221,0,0,1-.891.36,4.854,4.854,0,0,1-1.179.13Zm.09-.936a3.9,3.9,0,0,0,1.242-.2,3.056,3.056,0,0,0,1.035-.576,2.8,2.8,0,0,0,.7-.918A2.778,2.778,0,0,0,107.1-3.6V-5.076h-.036a.65.65,0,0,1-.414.288,4.225,4.225,0,0,1-.54.126q-.72.126-1.485.225a8.144,8.144,0,0,0-1.395.3,2.658,2.658,0,0,0-1.035.576,1.358,1.358,0,0,0-.4,1.044,1.651,1.651,0,0,0,.171.765,1.856,1.856,0,0,0,.459.576,2.021,2.021,0,0,0,.657.369,2.406,2.406,0,0,0,.778.123Zm6.624-8.6h1.134v3.942h5.274V-9.288h1.134V0h-1.134V-4.392h-5.274V0h-1.134ZM124.092.252a4.354,4.354,0,0,1-1.881-.387,4,4,0,0,1-1.377-1.053,4.6,4.6,0,0,1-.846-1.557,6.138,6.138,0,0,1-.288-1.9,6.163,6.163,0,0,1,.288-1.89,4.583,4.583,0,0,1,.846-1.566,4.1,4.1,0,0,1,1.377-1.062,4.27,4.27,0,0,1,1.881-.4,4.27,4.27,0,0,1,1.881.4A4.1,4.1,0,0,1,127.35-8.1a4.583,4.583,0,0,1,.846,1.566,6.163,6.163,0,0,1,.288,1.89,6.138,6.138,0,0,1-.288,1.9,4.6,4.6,0,0,1-.846,1.557,4,4,0,0,1-1.377,1.053,4.354,4.354,0,0,1-1.881.386Zm0-.936a2.867,2.867,0,0,0,1.422-.342,3.122,3.122,0,0,0,1.017-.9,4.083,4.083,0,0,0,.612-1.269,5.158,5.158,0,0,0,.207-1.449,5.158,5.158,0,0,0-.207-1.449,4.083,4.083,0,0,0-.612-1.269,3.122,3.122,0,0,0-1.017-.9,2.867,2.867,0,0,0-1.422-.342,2.867,2.867,0,0,0-1.422.342,3.122,3.122,0,0,0-1.017.9,4.083,4.083,0,0,0-.612,1.269,5.158,5.158,0,0,0-.207,1.449,5.158,5.158,0,0,0,.207,1.449,4.083,4.083,0,0,0,.612,1.269,3.122,3.122,0,0,0,1.017.9,2.867,2.867,0,0,0,1.422.342Z" transform="translate(71.385 183.018)" fill="#fff"/>
    </g>
  </g>
</svg>
