<svg xmlns="http://www.w3.org/2000/svg" width="47.664" height="40.149" viewBox="0 0 47.664 40.149">
  <g id="Сгруппировать_377" data-name="Сгруппировать 377" transform="translate(-1417.283 -655.601)">
    <path id="Контур_116" data-name="Контур 116" d="M17672.17,2051.364h1.68l1.348-1.213v-5.486s-.627-1.642-3.412-2.774a39.684,39.684,0,0,0-7.727-1.756s-3.375-2.321-5.939-3.857a24.813,24.813,0,0,0-4.168-2.137,5.159,5.159,0,0,0-1.51-.153h-9.543a9.933,9.933,0,0,0-2.033.153,5.156,5.156,0,0,0-2.174,1.089c-.375.233-4.764,3.844-4.764,3.844a13.455,13.455,0,0,0-3.547.774,2.2,2.2,0,0,0-1.348,1.537v8.021a2.39,2.39,0,0,0,1.121,1.192,5.743,5.743,0,0,0,2.131.348" transform="translate(-16211 -1359.6)" fill="none" stroke="#000" stroke-width="1.5"/>
    <path id="Контур_117" data-name="Контур 117" d="M17639.174,2050.015h23.8" transform="translate(-16210.146 -1358.251)" fill="none" stroke="#000" stroke-width="1.5"/>
    <circle id="Эллипс_36" data-name="Эллипс 36" cx="4" cy="4" r="4" transform="translate(1452.583 687)" fill="none" stroke="#000" stroke-width="1.5"/>
    <circle id="Эллипс_38" data-name="Эллипс 38" cx="4" cy="4" r="4" transform="translate(1421.583 687)" fill="none" stroke="#000" stroke-width="1.5"/>
    <circle id="Эллипс_35" data-name="Эллипс 35" cx="1.5" cy="1.5" r="1.5" transform="translate(1455.013 689.5)" fill="none" stroke="#000" stroke-width="1.5"/>
    <circle id="Эллипс_37" data-name="Эллипс 37" cx="1.5" cy="1.5" r="1.5" transform="translate(1424.083 689.5)" fill="none" stroke="#000" stroke-width="1.5"/>
    <path id="Контур_118" data-name="Контур 118" d="M17642.393,2042.515h18.963a.574.574,0,0,0,.68-.233.434.434,0,0,0-.117-.656s-2.131-1.7-4.363-3.134a31.033,31.033,0,0,0-4.512-2.426,8.158,8.158,0,0,0-1.826-.161h-8.35a6.069,6.069,0,0,0-2.187.277,21.667,21.667,0,0,0-2.846,1.922,45.6,45.6,0,0,0-3.615,3.065.708.708,0,0,0-.348.707.775.775,0,0,0,.607.638h4.566" transform="translate(-16210.593 -1359.439)" fill="none" stroke="#000" stroke-width="1.5"/>
    <path id="Контур_119" data-name="Контур 119" d="M17644.65,2042.491v-6.3" transform="translate(-16209.686 -1359.415)" fill="none" stroke="#000" stroke-width="1.5"/>
    <path id="Контур_120" data-name="Контур 120" d="M17644.65,2044.224h2.92" transform="translate(-16209.686 -1358.739)" fill="none" stroke="#000" stroke-width="1.5"/>
    <path id="Контур_121" data-name="Контур 121" d="M17666,2041.119v-9.835" transform="translate(-16207.889 -1359.827)" fill="none" stroke="#000" stroke-width="1.5"/>
    <path id="Контур_122" data-name="Контур 122" d="M17663.8,2040.567v-9.438" transform="translate(-16208.074 -1359.84)" fill="none" stroke="#000" stroke-width="1.5"/>
    <path id="Контур_123" data-name="Контур 123" d="M17657.449,2027.16v5.308l15.346-.012v-15.105h-15.346v6.092" transform="translate(-16208.608 -1361)" fill="none" stroke="#000" stroke-width="1.5"/>
    <path id="Контур_124" data-name="Контур 124" d="M2.61-2.871V.707H1.14V-8.4H4.672a3.508,3.508,0,0,1,2.391.735A2.562,2.562,0,0,1,7.9-5.635a2.562,2.562,0,0,1-.836,2.03,3.508,3.508,0,0,1-2.391.735Zm0-4.144v2.758H4.633A2.1,2.1,0,0,0,5.95-4.591a1.256,1.256,0,0,0,.42-1.044,1.256,1.256,0,0,0-.42-1.044,2.1,2.1,0,0,0-1.317-.335Z" transform="translate(1452.786 668.273)" fill="#b91a1a"/>
  </g>
</svg>
