<svg xmlns="http://www.w3.org/2000/svg" width="101.736" height="103.022" viewBox="0 0 101.736 103.022">
  <g id="Сгруппировать_421" data-name="Сгруппировать 421" transform="translate(0 0.35)">
    <path id="Контур_753" data-name="Контур 753" d="M1.341,77.087,0,.3,17.174,0" transform="matrix(1, 0.017, -0.017, 1, 7.231, 12.356)" fill="none" stroke="#000" stroke-width="0.7"/>
    <path id="Контур_754" data-name="Контур 754" d="M21705.922,8836.627V8747.2h44.143l.424,51.177" transform="translate(-21681.387 -8747.2)" fill="none" stroke="#000" stroke-width="0.7"/>
    <path id="Контур_755" data-name="Контур 755" d="M21723.891,8787.426V8747.2h-17.969" transform="translate(-21637.246 -8734.394)" fill="none" stroke="#000" stroke-width="0.7"/>
    <path id="Контур_759" data-name="Контур 759" d="M-20659.066-8365.135a25.77,25.77,0,0,1-10.1-2.039,25.87,25.87,0,0,1-8.242-5.557,25.81,25.81,0,0,1-5.557-8.244,25.735,25.735,0,0,1-2.039-10.093,25.744,25.744,0,0,1,2.039-10.094,25.81,25.81,0,0,1,5.557-8.244,25.841,25.841,0,0,1,8.242-5.558,25.769,25.769,0,0,1,10.1-2.038,25.743,25.743,0,0,1,10.094,2.038,25.828,25.828,0,0,1,8.244,5.558,25.873,25.873,0,0,1,5.557,8.244,25.779,25.779,0,0,1,2.039,10.094,25.77,25.77,0,0,1-2.039,10.093,25.873,25.873,0,0,1-5.557,8.244,25.857,25.857,0,0,1-8.244,5.557A25.744,25.744,0,0,1-20659.066-8365.135Zm0-48.666a22.589,22.589,0,0,0-8.85,1.787,22.671,22.671,0,0,0-7.225,4.872,22.7,22.7,0,0,0-4.871,7.226,22.561,22.561,0,0,0-1.785,8.849,22.547,22.547,0,0,0,1.785,8.849,22.677,22.677,0,0,0,4.871,7.226,22.66,22.66,0,0,0,7.225,4.87,22.589,22.589,0,0,0,8.85,1.787,22.593,22.593,0,0,0,8.848-1.787,22.66,22.66,0,0,0,7.225-4.87,22.639,22.639,0,0,0,4.869-7.226,22.549,22.549,0,0,0,1.787-8.849,22.563,22.563,0,0,0-1.787-8.849,22.661,22.661,0,0,0-4.869-7.226,22.671,22.671,0,0,0-7.225-4.872A22.593,22.593,0,0,0-20659.066-8413.8Z" transform="translate(20734.52 8467.458)" fill="none" stroke="#000" stroke-width="0.7"/>
    <path id="Контур_756" data-name="Контур 756" d="M21748.73,8866.857h-53.066" transform="translate(-21695.664 -8777.432)" fill="none" stroke="#000" stroke-width="0.7"/>
    <path id="Контур_757" data-name="Контур 757" d="M-20654.906-8400.351h-30.1V-8417h30.1v16.649Zm-13.125-13.45h0v10.249h9.924V-8413.8Zm-13.77,0h0v10.249h10.566V-8413.8Z" transform="translate(20716.357 8425.836)" fill="none" stroke="#000" stroke-width="0.7"/>
    <path id="Контур_798" data-name="Контур 798" d="M0,0H3.842V3.842H0Z" transform="translate(30.949 31.888)"/>
    <path id="Контур_797" data-name="Контур 797" d="M0,0H3.842V3.842H0Z" transform="translate(10.459 20.362)"/>
    <path id="Контур_796" data-name="Контур 796" d="M0,0H3.842V3.842H0Z" transform="translate(72.571 20.362)"/>
    <path id="Контур_795" data-name="Контур 795" d="M0,0H3.842V3.842H0Z" transform="translate(72.571 28.046)"/>
    <path id="Контур_794" data-name="Контур 794" d="M0,0H3.842V3.842H0Z" transform="translate(72.571 35.73)"/>
    <path id="Контур_793" data-name="Контур 793" d="M0,0H3.842V3.842H0Z" transform="translate(72.571 43.414)"/>
    <path id="Контур_792" data-name="Контур 792" d="M0,0H3.842V3.842H0Z" transform="translate(10.459 51.098)"/>
    <path id="Контур_791" data-name="Контур 791" d="M0,0H3.842V3.842H0Z" transform="translate(10.459 35.73)"/>
    <path id="Контур_790" data-name="Контур 790" d="M0,0H3.842V3.842H0Z" transform="translate(10.459 66.466)"/>
    <path id="Контур_789" data-name="Контур 789" d="M0,0H3.842V3.842H0Z" transform="translate(10.459 28.046)"/>
    <path id="Контур_788" data-name="Контур 788" d="M0,0H3.842V3.842H0Z" transform="translate(10.459 58.782)"/>
    <path id="Контур_787" data-name="Контур 787" d="M0,0H3.842V3.842H0Z" transform="translate(10.459 43.414)"/>
    <path id="Контур_786" data-name="Контур 786" d="M0,0H3.842V3.842H0Z" transform="translate(10.459 74.15)"/>
    <path id="Контур_785" data-name="Контур 785" d="M0,0H3.842V3.842H0Z" transform="translate(30.949 39.572)"/>
    <path id="Контур_784" data-name="Контур 784" d="M0,0H3.842V3.842H0Z" transform="translate(30.949 47.256)"/>
    <path id="Контур_783" data-name="Контур 783" d="M0,0H3.842V3.842H0Z" transform="translate(50.159 31.888)"/>
    <path id="Контур_782" data-name="Контур 782" d="M0,0H3.842V3.842H0Z" transform="translate(50.159 39.572)"/>
    <path id="Контур_781" data-name="Контур 781" d="M0,0H3.842V3.842H0Z" transform="translate(50.159 47.256)"/>
    <path id="Контур_780" data-name="Контур 780" d="M0,0H3.842V3.842H0Z" transform="translate(38.633 31.888)"/>
    <path id="Контур_779" data-name="Контур 779" d="M0,0H3.842V3.842H0Z" transform="translate(16.222 20.362)"/>
    <path id="Контур_778" data-name="Контур 778" d="M0,0H3.842V3.842H0Z" transform="translate(78.334 20.362)"/>
    <path id="Контур_777" data-name="Контур 777" d="M0,0H3.842V3.842H0Z" transform="translate(78.334 28.046)"/>
    <path id="Контур_776" data-name="Контур 776" d="M0,0H3.842V3.842H0Z" transform="translate(78.334 35.73)"/>
    <path id="Контур_775" data-name="Контур 775" d="M0,0H3.842V3.842H0Z" transform="translate(78.334 43.414)"/>
    <path id="Контур_774" data-name="Контур 774" d="M0,0H3.842V3.842H0Z" transform="translate(16.222 51.098)"/>
    <path id="Контур_773" data-name="Контур 773" d="M0,0H3.842V3.842H0Z" transform="translate(16.222 35.73)"/>
    <path id="Контур_772" data-name="Контур 772" d="M0,0H3.842V3.842H0Z" transform="translate(16.222 66.466)"/>
    <path id="Контур_771" data-name="Контур 771" d="M0,0H3.842V3.842H0Z" transform="translate(16.222 28.046)"/>
    <path id="Контур_770" data-name="Контур 770" d="M0,0H3.842V3.842H0Z" transform="translate(16.222 58.782)"/>
    <path id="Контур_769" data-name="Контур 769" d="M0,0H3.842V3.842H0Z" transform="translate(16.222 43.414)"/>
    <path id="Контур_768" data-name="Контур 768" d="M0,0H3.842V3.842H0Z" transform="translate(16.222 74.15)"/>
    <path id="Контур_767" data-name="Контур 767" d="M0,0H3.842V3.842H0Z" transform="translate(38.633 39.572)"/>
    <path id="Контур_766" data-name="Контур 766" d="M0,0H3.842V3.842H0Z" transform="translate(38.633 47.256)"/>
    <path id="Контур_765" data-name="Контур 765" d="M0,0H3.842V3.842H0Z" transform="translate(57.843 31.888)"/>
    <path id="Контур_764" data-name="Контур 764" d="M0,0H3.842V3.842H0Z" transform="translate(57.843 39.572)"/>
    <path id="Контур_763" data-name="Контур 763" d="M0,0H3.842V3.842H0Z" transform="translate(57.843 47.256)"/>
    <path id="Контур_758" data-name="Контур 758" d="M21767.367,8823.84v-4.418h-12.273v29.211h-3.105v-29.211h-2.2v-3.17h23.5" transform="translate(-21715.131 -8759.229)" fill="none" stroke="#000" stroke-width="0.7"/>
    <path id="Контур_761" data-name="Контур 761" d="M4.8,0A4.8,4.8,0,1,1,0,4.8,4.8,4.8,0,0,1,4.8,0Z" transform="translate(64.23 66.412)" fill="none" stroke="#b91a1a" stroke-width="1"/>
    <path id="Контур_762" data-name="Контур 762" d="M4.8,0A4.8,4.8,0,1,1,0,4.8,4.8,4.8,0,0,1,4.8,0Z" transform="translate(77.037 76.657)" fill="none" stroke="#b91a1a" stroke-width="1"/>
    <path id="Контур_760" data-name="Контур 760" d="M21408.047,8636.146l13.246-21.025h1.6l-13.187,21.025Z" transform="translate(-21339.971 -8549.242)" fill="#b91a1a"/>
  </g>
</svg>
