<svg xmlns="http://www.w3.org/2000/svg" width="314.786" height="275.597" viewBox="0 0 314.786 275.597">
  <g id="Сгруппировать_56" data-name="Сгруппировать 56" transform="translate(-16453.999 -5326.159)">
    <path id="Контур_310" data-name="Контур 310" d="M0,0H6.146V208.979H0Z" transform="translate(16762.639 5343.605)"/>
    <path id="Контур_309" data-name="Контур 309" d="M0,0H6.146V176.052H0Z" transform="translate(16659.467 5343.605)"/>
    <path id="Контур_308" data-name="Контур 308" d="M0,0H6.146V175.613H0Z" transform="translate(16555.855 5343.605)"/>
    <path id="Контур_307" data-name="Контур 307" d="M0,0H6.146V155.417H0Z" transform="translate(16765.711 5546.438) rotate(90)"/>
    <path id="Контур_306" data-name="Контур 306" d="M0,0H6.146V26.342H0Z" transform="translate(16582.197 5546.438) rotate(90)"/>
    <path id="Контур_305" data-name="Контур 305" d="M0,0H32.488V9.22H0Z" transform="translate(16570.781 5343.605) rotate(90)"/>
    <path id="Контур_304" data-name="Контур 304" d="M0,0H48.733V7.464H0Z" transform="translate(16635.76 5337.897) rotate(180)"/>
    <path id="Контур_303" data-name="Контур 303" d="M0,0H31.61V7.464H0Z" transform="translate(16590.91 5336.774) rotate(150)"/>
    <path id="Контур_302" data-name="Контур 302" d="M0,0H28.537V7.9H0Z" transform="translate(16635.6 5330.056) rotate(30)"/>
    <path id="Контур_301" data-name="Контур 301" d="M0,0H32.927V8.781H0Z" transform="translate(16660.783 5343.605) rotate(90)"/>
    <path id="Контур_300" data-name="Контур 300" d="M0,0H3.951V35.123H0Z" transform="translate(16584.832 5502.974) rotate(90)"/>
    <path id="Контур_299" data-name="Контур 299" d="M0,0H3.951V33.147H0Z" transform="translate(16515.023 5596.708) rotate(180)"/>
    <path id="Контур_298" data-name="Контур 298" d="M0,0H3.951V56.635H0Z" transform="translate(16513.709 5533.267) rotate(90)"/>
    <path id="Контур_297" data-name="Контур 297" d="M0,0H3.951V12.293H0Z" transform="translate(16519.416 5502.974) rotate(90)"/>
    <path id="Контур_296" data-name="Контур 296" d="M0,0H3.951V48.294H0Z" transform="translate(16507.125 5489.363) rotate(90)"/>
    <path id="Контур_295" data-name="Контур 295" d="M0,0H3.951V48.294H0Z" transform="translate(16507.125 5502.974) rotate(90)"/>
    <path id="Контур_294" data-name="Контур 294" d="M0,0H3.951V49.611H0Z" transform="translate(16661.223 5502.974) rotate(90)"/>
    <path id="Контур_293" data-name="Контур 293" d="M0,0H6.146V104.929H0Z" transform="translate(16558.928 5595.609) rotate(90)"/>
    <path id="Контур_292" data-name="Контур 292" d="M0,0H3.951V34.244H0Z" transform="translate(16737.092 5329.782) rotate(-60)"/>
    <path id="Контур_163" data-name="Контур 163" d="M78.626,3.952H30.715L1.976,20.545,0,17.123,28.987,0H79.915l29.426,17.122-1.976,3.422Z" transform="translate(16557.092 5326.358)" fill="none" stroke="#000" stroke-width="0.4"/>
    <path id="Контур_291" data-name="Контур 291" d="M0,0H3.951V50.928H0Z" transform="translate(16688.371 5330.311) rotate(-90)"/>
    <path id="Контур_290" data-name="Контур 290" d="M0,0H3.951V34.245H0Z" transform="translate(16661.357 5346.904) rotate(-120)"/>
    <path id="Контур_159" data-name="Контур 159" d="M16738.842,3663.371v3.04h2.246v10.027h36.334v-10.027h1.943v-3.04Z" transform="translate(-96.566 1712.007)"/>
    <path id="Контур_166" data-name="Контур 166" d="M16711.115,3663.371v2.973h2.244v9.8h48.512v-9.8h1.941v-2.973Z" transform="translate(-107.417 1712.007)" fill="none" stroke="#000" stroke-width="0.4"/>
    <path id="Контур_167" data-name="Контур 167" d="M16711.115,3663.371v2.968h2.244v9.785h48.512v-9.785h1.941v-2.968Z" transform="translate(-5.111 1712.322)" fill="none" stroke="#000" stroke-width="0.4"/>
    <path id="Контур_161" data-name="Контур 161" d="M16738.842,3663.371v3.04h2.246v10.027h36.334v-10.027h1.943v-3.04Z" transform="translate(-199.299 1712.007)"/>
    <path id="Контур_162" data-name="Контур 162" d="M16782.014,3662.98v3.212h2.242v10.026h17.385v-10.026h1.941v-3.212Z" transform="translate(-327.568 1712.227)"/>
    <path id="Контур_160" data-name="Контур 160" d="M16738.842,3663.371v3.284h2.246v9.783h31.469v-10.027h1.945v-3.04Z" transform="translate(-6.195 1712.007)"/>
    <path id="Контур_289" data-name="Контур 289" d="M0,0H6.146V52.245H0Z" transform="translate(16562.002 5601.756) rotate(180)"/>
    <path id="Контур_288" data-name="Контур 288" d="M0,0H6.146V223.467H0Z" transform="translate(16460.146 5598.683) rotate(180)"/>
    <path id="Контур_287" data-name="Контур 287" d="M0,0H3.951V8.781H0Z" transform="translate(16515.023 5511.754) rotate(180)"/>
    <path id="Контур_286" data-name="Контур 286" d="M0,0H3.951V8.781H0Z" transform="translate(16515.023 5542.047) rotate(180)"/>
    <path id="Контур_164" data-name="Контур 164" d="M16546.486,3571.35l28.953-16.955,49.664-.03,29.32,16.919-.684,1.314-29.039-16.905-49.016.029-28.5,16.9Z" transform="translate(11.339 1773.156)"/>
    <path id="Контур_165" data-name="Контур 165" d="M0,0H78.148V12.293H0Z" transform="translate(16467.611 5375.654)" fill="none" stroke="#000" stroke-width="0.4"/>
    <path id="Контур_285" data-name="Контур 285" d="M0,0H1.317V25.464H0Z" transform="translate(16685.135 5534.145) rotate(60)"/>
    <path id="Контур_284" data-name="Контур 284" d="M0,0H1.317V27.22H0Z" transform="translate(16597.148 5481.376) rotate(30)"/>
    <path id="Контур_283" data-name="Контур 283" d="M0,0H1.317V27.22H0Z" transform="translate(16601 5567.265) rotate(135)"/>
    <path id="Контур_282" data-name="Контур 282" d="M0,0H1.317V27.22H0Z" transform="translate(16552.018 5504.709) rotate(137)"/>
    <path id="Контур_281" data-name="Контур 281" d="M0,0H1.317V18.814H0Z" transform="translate(16526.627 5524.45) rotate(135)"/>
    <path id="Контур_280" data-name="Контур 280" d="M0,0H1.317V18.88H0Z" transform="translate(16513.324 5564.168) rotate(-135)"/>
    <path id="Контур_168" data-name="Контур 168" d="M69.444,3.921a21.914,21.914,0,0,1,13.415,20.23,22.349,22.349,0,0,1-.495,4.656" transform="translate(16528.314 5477.944)" fill="none" stroke="#000" stroke-width="0.4"/>
    <path id="Контур_172" data-name="Контур 172" d="M0,0A13.372,13.372,0,0,1,8.186,12.344a13.637,13.637,0,0,1-.3,2.841" transform="translate(16526.26 5524.447) rotate(90)" fill="none" stroke="#000" stroke-width="0.4"/>
    <path id="Контур_169" data-name="Контур 169" d="M82.859,3.921a21.914,21.914,0,0,0-13.415,20.23c0,.562.021,1.119.075,1.813" transform="translate(16450.578 5481.32)" fill="none" stroke="#000" stroke-width="0.4"/>
    <path id="Контур_170" data-name="Контур 170" d="M0,0A18.672,18.672,0,0,1,14.9,18.311a18.844,18.844,0,0,1-.856,5.608" transform="translate(16661.248 5521.411) rotate(-30)" fill="none" stroke="#000" stroke-width="0.4"/>
    <path id="Контур_171" data-name="Контур 171" d="M79.56,37.569a19.992,19.992,0,0,1,.338,3.7,20.221,20.221,0,0,1-9.471,17.1" transform="translate(16529.957 5509.558)" fill="none" stroke="#000" stroke-width="0.4"/>
    <path id="Контур_173" data-name="Контур 173" d="M0,15.184A13.371,13.371,0,0,0,8.186,2.841,13.636,13.636,0,0,0,7.884,0" transform="translate(16511.074 5550.867) rotate(-90)" fill="none" stroke="#000" stroke-width="0.4"/>
    <path id="Контур_279" data-name="Контур 279" d="M0,0H3.951V16.244H0Z" transform="translate(16505.146 5489.363)"/>
    <path id="Контур_174" data-name="Контур 174" d="M16326.516,3941.629h41.961v-6.65l-1.312,5.316Z" transform="translate(134.736 1559.644)"/>
    <path id="Контур_278" data-name="Контур 278" d="M0,101.856V0H21.952V78.587H48.732v23.269Z" transform="translate(16460.146 5387.947)" fill="none" stroke="#000" stroke-width="0.4"/>
    <g id="Контур_277" data-name="Контур 277" transform="translate(16527.145 5429.66)" fill="none">
      <path d="M1.756,0H26.342A1.756,1.756,0,0,1,28.1,1.756V36a1.756,1.756,0,0,1-1.756,1.756H1.756A1.756,1.756,0,0,1,0,36V1.756A1.756,1.756,0,0,1,1.756,0Z" stroke="none"/>
      <path d="M 1.756124496459961 0.3999977111816406 C 1.008354187011719 0.3999977111816406 0.399993896484375 1.008358001708984 0.399993896484375 1.756126403808594 L 0.399993896484375 36.00062942504883 C 0.399993896484375 36.74839782714844 1.008354187011719 37.35675811767578 1.756124496459961 37.35675811767578 L 26.34191513061523 37.35675811767578 C 27.08968544006348 37.35675811767578 27.69804382324219 36.74839782714844 27.69804382324219 36.00062942504883 L 27.69804382324219 1.756126403808594 C 27.69804382324219 1.008358001708984 27.08968544006348 0.3999977111816406 26.34191513061523 0.3999977111816406 L 1.756124496459961 0.3999977111816406 M 1.756124496459961 -3.814697265625e-06 L 26.34191513061523 -3.814697265625e-06 C 27.31180381774902 -3.814697265625e-06 28.09804534912109 0.7862396240234375 28.09804534912109 1.756126403808594 L 28.09804534912109 36.00062942504883 C 28.09804534912109 36.97050857543945 27.31180381774902 37.75675964355469 26.34191513061523 37.75675964355469 L 1.756124496459961 37.75675964355469 C 0.7862453460693359 37.75675964355469 -5.7220458984375e-06 36.97050857543945 -5.7220458984375e-06 36.00062942504883 L -5.7220458984375e-06 1.756126403808594 C -5.7220458984375e-06 0.7862396240234375 0.7862453460693359 -3.814697265625e-06 1.756124496459961 -3.814697265625e-06 Z" stroke="none" fill="#000"/>
    </g>
    <text id="_10.4_м2" data-name="10.4 м2" transform="translate(16492.635 5435.972)" font-size="5" font-family="Mark-Medium, Mark" font-weight="500"><tspan x="0" y="0">10.4 </tspan><tspan y="0" font-family="SegoeUI-SemiBold, Segoe UI" font-weight="600">м</tspan><tspan y="0" font-size="2.917" baseline-shift="1.666500052313606">2</tspan></text>
    <text id="_11_м2" data-name="11 м2" transform="translate(16601.953 5406.118)" font-size="5" font-family="Mark-Medium, Mark" font-weight="500"><tspan x="0" y="0">11 </tspan><tspan y="0" font-family="SegoeUI-SemiBold, Segoe UI" font-weight="600">м</tspan><tspan y="0" font-size="2.917" baseline-shift="1.666500052313606">2</tspan></text>
    <text id="_2.8_м2" data-name="2.8 м2" transform="translate(16613.371 5352.996)" font-size="5" font-family="Mark-Medium, Mark" font-weight="500"><tspan x="0" y="0">2.8 </tspan><tspan y="0" font-family="SegoeUI-SemiBold, Segoe UI" font-weight="600">м</tspan><tspan y="0" font-size="2.917" baseline-shift="1.666500052313606">2</tspan></text>
    <text id="_4_м2" data-name="4 м2" transform="translate(16696.783 5352.996)" font-size="5" font-family="Mark-Medium, Mark" font-weight="500"><tspan x="0" y="0">4 </tspan><tspan y="0" font-family="SegoeUI-SemiBold, Segoe UI" font-weight="600">м</tspan><tspan y="0" font-size="2.917" baseline-shift="1.666500052313606">2</tspan></text>
    <text id="_4_м2-2" data-name="4 м2" transform="translate(16587.027 5529.486)" font-size="5" font-family="Mark-Medium, Mark" font-weight="500"><tspan x="0" y="0">4 </tspan><tspan y="0" font-family="SegoeUI-SemiBold, Segoe UI" font-weight="600">м</tspan><tspan y="0" font-size="2.917" baseline-shift="1.666500052313606">2</tspan></text>
    <text id="_1.4_м2" data-name="1.4 м2" transform="translate(16487.367 5520.267)" font-size="5" font-family="Mark-Medium, Mark" font-weight="500"><tspan x="0" y="0">1.4 </tspan><tspan y="0" font-family="SegoeUI-SemiBold, Segoe UI" font-weight="600">м</tspan><tspan y="0" font-size="2.917" baseline-shift="1.666500052313606">2</tspan></text>
    <text id="_3.0_м2" data-name="3.0 м2" transform="translate(16487.367 5557.146)" font-size="5" font-family="Mark-Medium, Mark" font-weight="500"><tspan x="0" y="0">3.0 </tspan><tspan y="0" font-family="SegoeUI-SemiBold, Segoe UI" font-weight="600">м</tspan><tspan y="0" font-size="2.917" baseline-shift="1.666500052313606">2</tspan></text>
    <text id="_3.5_м2" data-name="3.5 м2" transform="translate(16532.148 5529.925)" font-size="5" font-family="Mark-Medium, Mark" font-weight="500"><tspan x="0" y="0">3.5 </tspan><tspan y="0" font-family="SegoeUI-SemiBold, Segoe UI" font-weight="600">м</tspan><tspan y="0" font-size="2.917" baseline-shift="1.666500052313606">2</tspan></text>
    <text id="_15.3_м2" data-name="15.3 м2" transform="translate(16697.842 5467.413)" font-size="5" font-family="Mark-Medium, Mark" font-weight="500"><tspan x="0" y="0">15.3 </tspan><tspan y="0" font-family="SegoeUI-SemiBold, Segoe UI" font-weight="600">м</tspan><tspan y="0" font-size="2.917" baseline-shift="1.666500052313606">2</tspan></text>
    <g id="Сгруппировать_22" data-name="Сгруппировать 22" transform="translate(16462.342 5437.119)">
      <path id="Контур_275" data-name="Контур 275" d="M.439,0H17.122a.439.439,0,0,1,.439.439V17.122a.439.439,0,0,1-.439.439H.439A.439.439,0,0,1,0,17.122V.439A.439.439,0,0,1,.439,0Z" fill="none" stroke="#000" stroke-width="0.4"/>
      <path id="Контур_274" data-name="Контур 274" d="M1.756,0A1.756,1.756,0,1,1,0,1.756,1.756,1.756,0,0,1,1.756,0Z" transform="translate(2.195 2.195)" fill="none" stroke="#000" stroke-width="0.4"/>
      <path id="Контур_273" data-name="Контур 273" d="M1.756,0A1.756,1.756,0,1,1,0,1.756,1.756,1.756,0,0,1,1.756,0Z" transform="translate(10.976 11.415)" fill="none" stroke="#000" stroke-width="0.4"/>
      <path id="Контур_272" data-name="Контур 272" d="M3.073,0A3.073,3.073,0,1,1,0,3.073,3.073,3.073,0,0,1,3.073,0Z" transform="translate(2.195 9.659)" fill="none" stroke="#000" stroke-width="0.4"/>
      <path id="Контур_271" data-name="Контур 271" d="M3.073,0A3.073,3.073,0,1,1,0,3.073,3.073,3.073,0,0,1,3.073,0Z" transform="translate(8.342 2.195)" fill="none" stroke="#000" stroke-width="0.4"/>
      <path id="Контур_270" data-name="Контур 270" d="M2.2,0A2.2,2.2,0,1,1,0,2.2,2.2,2.2,0,0,1,2.2,0Z" transform="translate(3.073 10.537)" fill="none" stroke="#000" stroke-width="0.4"/>
      <path id="Контур_269" data-name="Контур 269" d="M2.2,0A2.2,2.2,0,1,1,0,2.2,2.2,2.2,0,0,1,2.2,0Z" transform="translate(9.22 3.073)" fill="none" stroke="#000" stroke-width="0.4"/>
    </g>
    <g id="Сгруппировать_23" data-name="Сгруппировать 23" transform="translate(16482.314 5469.162)">
      <path id="Контур_175" data-name="Контур 175" d="M16382.617,3897.351h8.289v-17.242H16367.2v17.242h13.814" transform="translate(-16367.197 -3880.108)" fill="none" stroke="#000" stroke-width="0.4"/>
      <path id="Контур_276" data-name="Контур 276" d="M.659,0a.659.659,0,0,1,.659.659V6.8A.659.659,0,0,1,0,6.8V.659A.659.659,0,0,1,.659,0Z" transform="translate(13.962 11.861)" fill="none" stroke="#000" stroke-width="0.4"/>
      <g id="Контур_340" data-name="Контур 340" transform="translate(11.767 18.007)" fill="none">
        <path d="M.878,0A.878.878,0,1,1,0,.878.878.878,0,0,1,.878,0Z" stroke="none"/>
        <path d="M 0.8780640363693237 0.4000040292739868 C 0.6144640445709229 0.4000040292739868 0.4000040292739868 0.6144640445709229 0.4000040292739868 0.8780640363693237 C 0.4000040292739868 1.141664028167725 0.6144640445709229 1.356124043464661 0.8780640363693237 1.356124043464661 C 1.141664028167725 1.356124043464661 1.356124043464661 1.141664028167725 1.356124043464661 0.8780640363693237 C 1.356124043464661 0.6144640445709229 1.141664028167725 0.4000040292739868 0.8780640363693237 0.4000040292739868 M 0.8780640363693237 4.053115844726562e-06 C 1.363003969192505 4.053115844726562e-06 1.756124019622803 0.393123984336853 1.756124019622803 0.8780640363693237 C 1.756124019622803 1.363003969192505 1.363003969192505 1.756124019622803 0.8780640363693237 1.756124019622803 C 0.393123984336853 1.756124019622803 4.053115844726562e-06 1.363003969192505 4.053115844726562e-06 0.8780640363693237 C 4.053115844726562e-06 0.393123984336853 0.393123984336853 4.053115844726562e-06 0.8780640363693237 4.053115844726562e-06 Z" stroke="none" fill="#000"/>
      </g>
      <g id="Контур_339" data-name="Контур 339" transform="translate(15.718 18.007)" fill="none">
        <path d="M.878,0A.878.878,0,1,1,0,.878.878.878,0,0,1,.878,0Z" stroke="none"/>
        <path d="M 0.8780640363693237 0.4000040292739868 C 0.6144640445709229 0.4000040292739868 0.4000040292739868 0.6144640445709229 0.4000040292739868 0.8780640363693237 C 0.4000040292739868 1.141664028167725 0.6144640445709229 1.356124043464661 0.8780640363693237 1.356124043464661 C 1.141664028167725 1.356124043464661 1.356124043464661 1.141664028167725 1.356124043464661 0.8780640363693237 C 1.356124043464661 0.6144640445709229 1.141664028167725 0.4000040292739868 0.8780640363693237 0.4000040292739868 M 0.8780640363693237 4.053115844726562e-06 C 1.363003969192505 4.053115844726562e-06 1.756124019622803 0.393123984336853 1.756124019622803 0.8780640363693237 C 1.756124019622803 1.363003969192505 1.363003969192505 1.756124019622803 0.8780640363693237 1.756124019622803 C 0.393123984336853 1.756124019622803 4.053115844726562e-06 1.363003969192505 4.053115844726562e-06 0.8780640363693237 C 4.053115844726562e-06 0.393123984336853 0.393123984336853 4.053115844726562e-06 0.8780640363693237 4.053115844726562e-06 Z" stroke="none" fill="#000"/>
      </g>
      <g id="Контур_338" data-name="Контур 338" transform="translate(13.742 6.865)" fill="none">
        <path d="M.878,0A.878.878,0,1,1,0,.878.878.878,0,0,1,.878,0Z" stroke="none"/>
        <path d="M 0.8780640363693237 0.4000040292739868 C 0.6144640445709229 0.4000040292739868 0.4000040292739868 0.6144640445709229 0.4000040292739868 0.8780640363693237 C 0.4000040292739868 1.141664028167725 0.6144640445709229 1.356124043464661 0.8780640363693237 1.356124043464661 C 1.141664028167725 1.356124043464661 1.356124043464661 1.141664028167725 1.356124043464661 0.8780640363693237 C 1.356124043464661 0.6144640445709229 1.141664028167725 0.4000040292739868 0.8780640363693237 0.4000040292739868 M 0.8780640363693237 4.053115844726562e-06 C 1.363003969192505 4.053115844726562e-06 1.756124019622803 0.393123984336853 1.756124019622803 0.8780640363693237 C 1.756124019622803 1.363003969192505 1.363003969192505 1.756124019622803 0.8780640363693237 1.756124019622803 C 0.393123984336853 1.756124019622803 4.053115844726562e-06 1.363003969192505 4.053115844726562e-06 0.8780640363693237 C 4.053115844726562e-06 0.393123984336853 0.393123984336853 4.053115844726562e-06 0.8780640363693237 4.053115844726562e-06 Z" stroke="none" fill="#000"/>
      </g>
      <path id="Контур_201" data-name="Контур 201" d="M16391.006,3895.461h7.453v-15.352h-14.592v15.352h5.7" transform="translate(-16375.677 -3879.169)" fill="none" stroke="#000" stroke-width="0.4"/>
      <path id="Контур_202" data-name="Контур 202" d="M-.235.185H5.911L5.879,15.47H-.268Z" transform="translate(1.251 0.781)" fill="none" stroke="#000" stroke-width="0.4"/>
      <path id="Контур_203" data-name="Контур 203" d="M16369.438,3881.172h6.129" transform="translate(-16368.431 -3878.895)" fill="none" stroke="#000" stroke-width="0.4"/>
      <path id="Контур_208" data-name="Контур 208" d="M16369.438,3881.172h6.129" transform="translate(-16368.454 -3874.943)" fill="none" stroke="#000" stroke-width="0.4"/>
      <path id="Контур_211" data-name="Контур 211" d="M16369.438,3881.172h6.129" transform="translate(-16368.418 -3870.992)" fill="none" stroke="#000" stroke-width="0.4"/>
      <path id="Контур_204" data-name="Контур 204" d="M16369.438,3881.172h6.129" transform="translate(-16368.454 -3877.578)" fill="none" stroke="#000" stroke-width="0.4"/>
      <path id="Контур_207" data-name="Контур 207" d="M16369.438,3881.172h6.129" transform="translate(-16368.479 -3873.626)" fill="none" stroke="#000" stroke-width="0.4"/>
      <path id="Контур_210" data-name="Контур 210" d="M16369.438,3881.172h6.129" transform="translate(-16368.442 -3869.675)" fill="none" stroke="#000" stroke-width="0.4"/>
      <path id="Контур_205" data-name="Контур 205" d="M16369.438,3881.172h6.129" transform="translate(-16368.454 -3876.26)" fill="none" stroke="#000" stroke-width="0.4"/>
      <path id="Контур_206" data-name="Контур 206" d="M16369.438,3881.172h6.129" transform="translate(-16368.479 -3872.309)" fill="none" stroke="#000" stroke-width="0.4"/>
      <path id="Контур_209" data-name="Контур 209" d="M16369.438,3881.172h6.129" transform="translate(-16368.442 -3868.358)" fill="none" stroke="#000" stroke-width="0.4"/>
      <path id="Контур_212" data-name="Контур 212" d="M16369.438,3881.172h6.129" transform="translate(-16368.479 -3867.041)" fill="none" stroke="#000" stroke-width="0.4"/>
      <path id="Контур_213" data-name="Контур 213" d="M16369.438,3881.172h6.129" transform="translate(-16368.454 -3865.724)" fill="none" stroke="#000" stroke-width="0.4"/>
    </g>
    <path id="Контур_176" data-name="Контур 176" d="M16345.742,3788.608h-22.354" transform="translate(136.356 1645.266)" fill="none" stroke="#000" stroke-width="0.4"/>
    <path id="Контур_177" data-name="Контур 177" d="M16345.742,3788.608h-22.354" transform="translate(136.489 1668.973)" fill="none" stroke="#000" stroke-width="0.4"/>
    <path id="Контур_178" data-name="Контур 178" d="M16345.742,3788.608h-22.354" transform="translate(136.557 1622.436)" fill="none" stroke="#000" stroke-width="0.4"/>
    <path id="Контур_179" data-name="Контур 179" d="M16453.488,3779.958l-5.092-1.059v15.692l5.092-.731" transform="translate(73.653 1661.822)" fill="none" stroke="#000" stroke-width="0.4"/>
    <path id="Контур_180" data-name="Контур 180" d="M16449.912,3779.408V3794.9" transform="translate(72.803 1661.537)" fill="none" stroke="#000" stroke-width="0.4"/>
    <g id="Сгруппировать_24" data-name="Сгруппировать 24" transform="translate(16533.83 5466.975)">
      <path id="Контур_181" data-name="Контур 181" d="M5.095,1.059,0,0V15.692l5.095-.73" transform="translate(0 5.095) rotate(-90)" fill="none" stroke="#000" stroke-width="0.4"/>
      <path id="Контур_182" data-name="Контур 182" d="M0,0V15.492" transform="translate(0.224 4.429) rotate(-90)" fill="none" stroke="#000" stroke-width="0.4"/>
    </g>
    <g id="Сгруппировать_25" data-name="Сгруппировать 25" transform="translate(16533.334 5424.566)">
      <path id="Контур_181-2" data-name="Контур 181" d="M5.094,14.633,0,15.693V0L5.094.73" transform="translate(15.693) rotate(90)" fill="none" stroke="#000" stroke-width="0.4"/>
      <path id="Контур_182-2" data-name="Контур 182" d="M0,15.492V0" transform="translate(15.716 0.665) rotate(90)" fill="none" stroke="#000" stroke-width="0.4"/>
    </g>
    <g id="Контур_337" data-name="Контур 337" transform="translate(16659.467 5506.752) rotate(90)" fill="none">
      <path d="M0,0H12.732V47.854H0Z" stroke="none"/>
      <path d="M 0.4000043869018555 0.399993896484375 L 0.4000043869018555 47.45448303222656 L 12.33192348480225 47.45448303222656 L 12.33192348480225 0.399993896484375 L 0.4000043869018555 0.399993896484375 M 3.814697265625e-06 -7.62939453125e-06 L 12.73192405700684 -7.62939453125e-06 L 12.73192405700684 47.85448455810547 L 3.814697265625e-06 47.85448455810547 L 3.814697265625e-06 -7.62939453125e-06 Z" stroke="none" fill="#000"/>
    </g>
    <g id="Сгруппировать_26" data-name="Сгруппировать 26" transform="translate(16627.359 5510.957)">
      <path id="Контур_183" data-name="Контур 183" d="M3.342,0,0,1.474v.207H6.559V1.39Z" transform="translate(-0.001 1.557)" fill="none" stroke="#000" stroke-width="0.4"/>
      <path id="Контур_184" data-name="Контур 184" d="M0,.333C.563-.3,1.072.1,1.1.484S.61,1.046.61,1.046v.511" transform="translate(2.713 0)" fill="none" stroke="#000" stroke-width="0.4"/>
    </g>
    <g id="Сгруппировать_54" data-name="Сгруппировать 54" transform="translate(16617.551 5510.957)">
      <path id="Контур_183-2" data-name="Контур 183" d="M3.342,0,0,1.474v.207H6.559V1.39Z" transform="translate(-0.001 1.557)" fill="none" stroke="#000" stroke-width="0.4"/>
      <path id="Контур_184-2" data-name="Контур 184" d="M0,.333C.563-.3,1.072.1,1.1.484S.61,1.046.61,1.046v.511" transform="translate(2.713 0)" fill="none" stroke="#000" stroke-width="0.4"/>
    </g>
    <g id="Сгруппировать_27" data-name="Сгруппировать 27" transform="translate(16637.166 5510.957)">
      <path id="Контур_183-3" data-name="Контур 183" d="M3.342,0,0,1.474v.207H6.559V1.39Z" transform="translate(-0.001 1.557)" fill="none" stroke="#000" stroke-width="0.4"/>
      <path id="Контур_184-3" data-name="Контур 184" d="M0,.333C.563-.3,1.072.1,1.1.484S.61,1.046.61,1.046v.511" transform="translate(2.713 0)" fill="none" stroke="#000" stroke-width="0.4"/>
    </g>
    <g id="Сгруппировать_28" data-name="Сгруппировать 28" transform="translate(16646.971 5510.957)">
      <path id="Контур_183-4" data-name="Контур 183" d="M3.342,0,0,1.474v.207H6.559V1.39Z" transform="translate(-0.001 1.557)" fill="none" stroke="#000" stroke-width="0.4"/>
      <path id="Контур_184-4" data-name="Контур 184" d="M0,.333C.563-.3,1.072.1,1.1.484S.61,1.046.61,1.046v.511" transform="translate(2.713 0)" fill="none" stroke="#000" stroke-width="0.4"/>
    </g>
    <path id="Контур_185" data-name="Контур 185" d="M0,0V47.415" transform="translate(16659.027 5518.002) rotate(90)" fill="none" stroke="#000" stroke-width="0.4"/>
    <g id="Контур_186" data-name="Контур 186" transform="translate(16480.221 5514) rotate(90)" fill="none">
      <path d="M6.156,0c2.824,0,4.951,3.116,5.8,7.037s.652,7.289-5.8,7.289S-.432,10.874.3,7.037,3.332,0,6.156,0Z" stroke="none"/>
      <path d="M 6.155849456787109 0.4000034332275391 C 4.617429256439209 0.4000034332275391 3.460429191589355 1.448884010314941 2.760729789733887 2.328783988952637 C 1.787818908691406 3.552264213562012 1.05518913269043 5.251243591308594 0.6977996826171875 7.112773895263672 C 0.3381891250610352 8.985803604125977 0.1152791976928711 11.07569408416748 1.188508987426758 12.3745641708374 C 2.051369667053223 13.41884422302246 3.676198959350586 13.92648410797119 6.155849456787109 13.92648410797119 C 8.684558868408203 13.92648410797119 10.32852935791016 13.41182327270508 11.18169975280762 12.35308361053467 C 12.24036979675293 11.03933334350586 11.9718189239502 8.971693992614746 11.56949901580811 7.122383594512939 C 11.14425945281982 5.167703628540039 10.42239952087402 3.498223304748535 9.481969833374023 2.294424057006836 C 8.806829452514648 1.430193901062012 7.681729316711426 0.4000034332275391 6.155849456787109 0.4000034332275391 M 6.155849456787109 3.814697265625e-06 C 8.979839324951172 3.814697265625e-06 11.10725975036621 3.115993499755859 11.96035957336426 7.037353992462158 C 12.8134593963623 10.95871353149414 12.61196899414062 14.32648372650146 6.155849456787109 14.32648372650146 C -0.3002805709838867 14.32648372650146 -0.4316806793212891 10.87429428100586 0.3049697875976562 7.037353992462158 C 1.041619300842285 3.200404167175293 3.331849098205566 3.814697265625e-06 6.155849456787109 3.814697265625e-06 Z" stroke="none" fill="#000"/>
    </g>
    <path id="Контур_187" data-name="Контур 187" d="M0,0V2.328H7.839V0" transform="translate(16466.777 5516.155) rotate(90)" fill="none" stroke="#000" stroke-width="0.4"/>
    <path id="Контур_188" data-name="Контур 188" d="M0,5.7V1.96A1.9,1.9,0,0,1,.56.592,1.772,1.772,0,0,1,1.906,0H13.866a1.861,1.861,0,0,1,1.3.59A2.038,2.038,0,0,1,15.77,1.96V6.024" transform="translate(16464.451 5512.17) rotate(90)" fill="none" stroke="#000" stroke-width="0.4"/>
    <g id="Контур_336" data-name="Контур 336" transform="translate(16459.268 5573.219)" fill="none">
      <path d="M0,0H52.684V22.83H0Z" stroke="none"/>
      <path d="M 0.3999977111816406 0.4000015258789062 L 0.3999977111816406 22.42966270446777 L 52.28384017944336 22.42966270446777 L 52.28384017944336 0.4000015258789062 L 0.3999977111816406 0.4000015258789062 M 0 1.9073486328125e-06 L 52.683837890625 1.9073486328125e-06 L 52.683837890625 22.82966232299805 L 0 22.82966232299805 L 0 1.9073486328125e-06 Z" stroke="none" fill="#000"/>
    </g>
    <g id="Контур_189" data-name="Контур 189" transform="translate(16463.221 5576.73)" fill="none">
      <path d="M34.025,16.244H3.073A3.073,3.073,0,0,1,0,13.171V3.073A3.073,3.073,0,0,1,3.073,0H34.245a3.107,3.107,0,0,1,.349.02,8.122,8.122,0,0,1,0,16.2,3.107,3.107,0,0,1-.349.02Z" stroke="none"/>
      <path d="M 34.24462509155273 15.84414005279541 C 34.34607315063477 15.84414005279541 34.4483757019043 15.8383903503418 34.5486946105957 15.82706069946289 L 34.56601333618164 15.82548046112061 C 36.51279449462891 15.69089031219482 38.32232284545898 14.82982063293457 39.6612663269043 13.40087985992432 C 41.00641632080078 11.9653205871582 41.74721527099609 10.09067058563232 41.74721527099609 8.122270584106445 C 41.74721527099609 6.153700351715088 41.00640487670898 4.278930187225342 39.6612663269043 2.843310356140137 C 38.32233428955078 1.414340257644653 36.5128059387207 0.5532503128051758 34.56601333618164 0.4186603128910065 L 34.54866409301758 0.4170803129673004 C 34.44844436645508 0.4057503044605255 34.34615325927734 0.4000003039836884 34.24462509155273 0.4000003039836884 L 3.073314666748047 0.4000003039836884 C 1.599244594573975 0.4000003039836884 0.4000045955181122 1.599240303039551 0.4000045955181122 3.073310375213623 L 0.4000045955181122 13.17083072662354 C 0.4000045955181122 14.64490032196045 1.599244594573975 15.84414005279541 3.073314666748047 15.84414005279541 L 34.24462509155273 15.84414005279541 M 34.24462509155273 16.244140625 L 3.073314666748047 16.244140625 C 1.375844597816467 16.244140625 4.583740064845188e-06 14.86830043792725 4.583740064845188e-06 13.17083072662354 L 4.583740064845188e-06 3.073310375213623 C 4.583740064845188e-06 1.375840306282043 1.375844597816467 3.12499992105586e-07 3.073314666748047 3.12499992105586e-07 L 34.24462509155273 3.12499992105586e-07 C 34.36261367797852 3.12499992105586e-07 34.47907638549805 0.006660312414169312 34.59360504150391 0.01961031183600426 C 38.81424331665039 0.3114003241062164 42.14721298217773 3.827480316162109 42.14721298217773 8.122270584106445 C 42.14721298217773 12.41668033599854 38.81424331665039 15.93274021148682 34.59360504150391 16.22453117370605 C 34.47907638549805 16.23747062683105 34.36261367797852 16.244140625 34.24462509155273 16.244140625 Z" stroke="none" fill="#000"/>
    </g>
    <path id="Контур_335" data-name="Контур 335" d="M.659,0A.659.659,0,1,1,0,.659.659.659,0,0,1,.659,0Z" transform="translate(16466.293 5584.195)" fill="none" stroke="#000" stroke-width="0.4"/>
    <g id="Сгруппировать_29" data-name="Сгруппировать 29" transform="translate(16460.146 5554.779) rotate(-90)">
      <path id="Контур_200" data-name="Контур 200" d="M.439,0H17.122a.439.439,0,0,1,.439.439V17.122a.439.439,0,0,1-.439.439H.439A.439.439,0,0,1,0,17.122V.439A.439.439,0,0,1,.439,0Z" fill="none" stroke="#000" stroke-width="0.4"/>
      <path id="Контур_190" data-name="Контур 190" d="M0,0H17.395" transform="translate(0 3.214)" fill="none" stroke="#000" stroke-width="0.4"/>
      <path id="Контур_199" data-name="Контур 199" d="M5.488,0A5.488,5.488,0,1,1,0,5.488,5.488,5.488,0,0,1,5.488,0Z" transform="translate(3.073 4.829)" fill="none" stroke="#000" stroke-width="0.4"/>
      <path id="Контур_198" data-name="Контур 198" d="M4.171,0A4.171,4.171,0,1,1,0,4.171,4.171,4.171,0,0,1,4.171,0Z" transform="translate(4.39 6.146)" fill="none" stroke="#000" stroke-width="0.4"/>
      <path id="Контур_191" data-name="Контур 191" d="M2.426,0,0,2.376" transform="translate(5.932 7.883)" fill="none" stroke="#000" stroke-width="0.4"/>
      <path id="Контур_193" data-name="Контур 193" d="M2.426,0,0,2.376" transform="translate(8.358 10.308)" fill="none" stroke="#000" stroke-width="0.4"/>
      <path id="Контур_192" data-name="Контур 192" d="M3.538,0,0,3.538" transform="translate(6.589 8.539)" fill="none" stroke="#000" stroke-width="0.4"/>
      <path id="Контур_197" data-name="Контур 197" d="M.439,0A.439.439,0,1,1,0,.439.439.439,0,0,1,.439,0Z" transform="translate(1.317 1.317)"/>
      <path id="Контур_196" data-name="Контур 196" d="M.439,0A.439.439,0,1,1,0,.439.439.439,0,0,1,.439,0Z" transform="translate(10.976 1.317)"/>
      <path id="Контур_195" data-name="Контур 195" d="M.439,0A.439.439,0,1,1,0,.439.439.439,0,0,1,.439,0Z" transform="translate(12.732 1.317)"/>
      <path id="Контур_194" data-name="Контур 194" d="M.439,0A.439.439,0,1,1,0,.439.439.439,0,0,1,.439,0Z" transform="translate(14.488 1.317)"/>
    </g>
    <path id="Контур_215" data-name="Контур 215" d="M.439,0H17.122a.439.439,0,0,1,.439.439V18a.439.439,0,0,1-.439.439H.439A.439.439,0,0,1,0,18V.439A.439.439,0,0,1,.439,0Z" transform="translate(16460.146 5554.779)" fill="none" stroke="#000" stroke-width="0.4"/>
    <path id="Контур_334" data-name="Контур 334" d="M.516,0a.516.516,0,0,1,.516.516V5.332A.516.516,0,0,1,0,5.332V.516A.516.516,0,0,1,.516,0Z" transform="translate(16466.777 5563.744) rotate(90)" fill="none" stroke="#000" stroke-width="0.4"/>
    <g id="Контур_333" data-name="Контур 333" transform="translate(16461.961 5562.024) rotate(90)" fill="none">
      <path d="M.688,0A.688.688,0,1,1,0,.688.688.688,0,0,1,.688,0Z" stroke="none"/>
      <path d="M 0.6880360245704651 0.3999960422515869 C 0.5292060375213623 0.3999960422515869 0.3999960422515869 0.5292060375213623 0.3999960422515869 0.6880360245704651 C 0.3999960422515869 0.8468660116195679 0.5292060375213623 0.9760760068893433 0.6880360245704651 0.9760760068893433 C 0.8468660116195679 0.9760760068893433 0.9760760068893433 0.8468660116195679 0.9760760068893433 0.6880360245704651 C 0.9760760068893433 0.5292060375213623 0.8468660116195679 0.3999960422515869 0.6880360245704651 0.3999960422515869 M 0.6880360245704651 -3.933906555175781e-06 C 1.068026065826416 -3.933906555175781e-06 1.376075983047485 0.3080459833145142 1.376075983047485 0.6880360245704651 C 1.376075983047485 1.068026065826416 1.068026065826416 1.376075983047485 0.6880360245704651 1.376075983047485 C 0.3080459833145142 1.376075983047485 -3.933906555175781e-06 1.068026065826416 -3.933906555175781e-06 0.6880360245704651 C -3.933906555175781e-06 0.3080459833145142 0.3080459833145142 -3.933906555175781e-06 0.6880360245704651 -3.933906555175781e-06 Z" stroke="none" fill="#000"/>
    </g>
    <g id="Контур_332" data-name="Контур 332" transform="translate(16461.961 5565.121) rotate(90)" fill="none">
      <path d="M.688,0A.688.688,0,1,1,0,.688.688.688,0,0,1,.688,0Z" stroke="none"/>
      <path d="M 0.6880360245704651 0.3999960422515869 C 0.5292060375213623 0.3999960422515869 0.3999960422515869 0.5292060375213623 0.3999960422515869 0.6880360245704651 C 0.3999960422515869 0.8468660116195679 0.5292060375213623 0.9760760068893433 0.6880360245704651 0.9760760068893433 C 0.8468660116195679 0.9760760068893433 0.9760760068893433 0.8468660116195679 0.9760760068893433 0.6880360245704651 C 0.9760760068893433 0.5292060375213623 0.8468660116195679 0.3999960422515869 0.6880360245704651 0.3999960422515869 M 0.6880360245704651 -3.933906555175781e-06 C 1.068026065826416 -3.933906555175781e-06 1.376075983047485 0.3080459833145142 1.376075983047485 0.6880360245704651 C 1.376075983047485 1.068026065826416 1.068026065826416 1.376075983047485 0.6880360245704651 1.376075983047485 C 0.3080459833145142 1.376075983047485 -3.933906555175781e-06 1.068026065826416 -3.933906555175781e-06 0.6880360245704651 C -3.933906555175781e-06 0.3080459833145142 0.3080459833145142 -3.933906555175781e-06 0.6880360245704651 -3.933906555175781e-06 Z" stroke="none" fill="#000"/>
    </g>
    <path id="Контур_214" data-name="Контур 214" d="M16329.9,4084v-5.825a.778.778,0,0,1,.209-.574.809.809,0,0,1,.541-.192l9.459.069a1.679,1.679,0,0,1,1.275.441,1.513,1.513,0,0,1,.475,1.165v10.7a1.752,1.752,0,0,1-.475,1.259,1.964,1.964,0,0,1-1.273.448l-9.434-.062a1.024,1.024,0,0,1-.57-.148.7.7,0,0,1-.217-.5l.01-5.644" transform="translate(133.283 1479.749)" fill="none" stroke="#000" stroke-width="0.4"/>
    <g id="Контур_331" data-name="Контур 331" transform="translate(16485.172 5536.34)" fill="none">
      <path d="M0,0H25.9V5.707H0Z" stroke="none"/>
      <path d="M 0.399993896484375 0.3999981880187988 L 0.399993896484375 5.307417869567871 L 25.50288391113281 5.307417869567871 L 25.50288391113281 0.3999981880187988 L 0.399993896484375 0.3999981880187988 M -5.7220458984375e-06 -1.9073486328125e-06 L 25.90288543701172 -1.9073486328125e-06 L 25.90288543701172 5.707417964935303 L -5.7220458984375e-06 5.707417964935303 L -5.7220458984375e-06 -1.9073486328125e-06 Z" stroke="none" fill="#000"/>
    </g>
    <path id="Контур_216" data-name="Контур 216" d="M16435.5,4114v22.885" transform="translate(73.599 1459.219)" fill="none" stroke="#000" stroke-width="0.4"/>
    <path id="Контур_217" data-name="Контур 217" d="M16360.143,3670.232h63.885" transform="translate(115.872 1707.955)" fill="none" stroke="#000" stroke-width="0.4"/>
    <path id="Контур_267" data-name="Контур 267" d="M16360.143,3670.232h37.9" transform="translate(245.08 1708.057)" fill="none" stroke="#000" stroke-width="0.4"/>
    <path id="Контур_268" data-name="Контур 268" d="M16360.143,3671.475h37.9" transform="translate(346.356 1707.188)" fill="none" stroke="#000" stroke-width="0.4"/>
    <path id="Контур_330" data-name="Контур 330" d="M3.951,0H46.537a3.951,3.951,0,0,1,3.951,3.951V19.317a3.951,3.951,0,0,1-3.951,3.951H3.951A3.951,3.951,0,0,1,0,19.317V3.951A3.951,3.951,0,0,1,3.951,0Z" transform="translate(16505.367 5388.387)" fill="none" stroke="#000" stroke-width="0.4"/>
    <path id="Контур_329" data-name="Контур 329" d="M44.035,20.042V6.485H3.242A3.242,3.242,0,0,1,3.242,0H47.262a3.227,3.227,0,0,1,3.227,3.227V20.042a3.227,3.227,0,1,1-6.454,0Z" transform="translate(16505.367 5388.387)" fill="none" stroke="#000" stroke-width="0.4"/>
    <g id="Сгруппировать_30" data-name="Сгруппировать 30" transform="translate(16549.051 5406.435) rotate(180)">
      <path id="Контур_218" data-name="Контур 218" d="M4.2,7.494A5.893,5.893,0,0,1,.427,5.465C-1.377,3.5,3.1,1.84,3.354,1.812s-.04-.8.448-1.344,3.286-1.253,6.248,2S12.431,7.4,12.14,8.014s-1.416.638-1.431.716-1.153,2.328-2.8,2.31S4.2,7.494,4.2,7.494Z" transform="translate(0.034 0)" fill="none" stroke="#000" stroke-width="0.4"/>
      <path id="Контур_219" data-name="Контур 219" d="M0,.233A3.752,3.752,0,0,1,1.368,0" transform="translate(3.116 1.672)" fill="none" stroke="#000" stroke-linecap="round" stroke-width="0.4"/>
      <path id="Контур_220" data-name="Контур 220" d="M0,.313A2.406,2.406,0,0,1,1.255,0" transform="translate(11.135 8.221) rotate(124)" fill="none" stroke="#000" stroke-linecap="round" stroke-width="0.4"/>
      <path id="Контур_221" data-name="Контур 221" d="M.034,0a2.38,2.38,0,0,0,.7,2.136A10.1,10.1,0,0,0,3.747,3.575,7.564,7.564,0,0,0,5.653,6.1a3.481,3.481,0,0,0,2.526.374" transform="translate(0 4.559)" fill="none" stroke="#000" stroke-width="0.4"/>
      <path id="Контур_222" data-name="Контур 222" d="M0,.562.545,0" transform="translate(3.698 7.485)" fill="none" stroke="#000" stroke-width="0.4"/>
    </g>
    <g id="Сгруппировать_32" data-name="Сгруппировать 32" transform="translate(16754.361 5446.656) rotate(180)">
      <path id="Контур_218-2" data-name="Контур 218" d="M4.2,7.494A5.893,5.893,0,0,1,.427,5.465C-1.377,3.5,3.1,1.84,3.354,1.812s-.04-.8.448-1.344,3.286-1.253,6.248,2S12.431,7.4,12.14,8.014s-1.416.638-1.431.716-1.153,2.328-2.8,2.31S4.2,7.494,4.2,7.494Z" transform="translate(0.034 0)" fill="none" stroke="#000" stroke-width="0.4"/>
      <path id="Контур_219-2" data-name="Контур 219" d="M0,.233A3.752,3.752,0,0,1,1.368,0" transform="translate(3.116 1.672)" fill="none" stroke="#000" stroke-linecap="round" stroke-width="0.4"/>
      <path id="Контур_220-2" data-name="Контур 220" d="M0,.313A2.406,2.406,0,0,1,1.255,0" transform="translate(11.135 8.221) rotate(124)" fill="none" stroke="#000" stroke-linecap="round" stroke-width="0.4"/>
      <path id="Контур_221-2" data-name="Контур 221" d="M.034,0a2.38,2.38,0,0,0,.7,2.136A10.1,10.1,0,0,0,3.747,3.575,7.564,7.564,0,0,0,5.653,6.1a3.481,3.481,0,0,0,2.526.374" transform="translate(0 4.559)" fill="none" stroke="#000" stroke-width="0.4"/>
      <path id="Контур_222-2" data-name="Контур 222" d="M0,.562.545,0" transform="translate(3.698 7.485)" fill="none" stroke="#000" stroke-width="0.4"/>
    </g>
    <g id="Сгруппировать_31" data-name="Сгруппировать 31" transform="translate(16507.215 5395.314)">
      <path id="Контур_218-3" data-name="Контур 218" d="M4.2,3.546A5.893,5.893,0,0,0,.427,5.576C-1.378,7.537,3.1,9.2,3.354,9.229s-.04.8.448,1.344,3.287,1.253,6.248-2,2.38-4.925,2.089-5.543-1.416-.638-1.431-.716S9.555-.018,7.908,0,4.2,3.546,4.2,3.546Z" transform="translate(0.035 0.08)" fill="none" stroke="#000" stroke-width="0.4"/>
      <path id="Контур_219-3" data-name="Контур 219" d="M0,0A3.752,3.752,0,0,0,1.369.231" transform="translate(3.116 9.216)" fill="none" stroke="#000" stroke-linecap="round" stroke-width="0.4"/>
      <path id="Контур_220-3" data-name="Контур 220" d="M0,0A2.406,2.406,0,0,0,1.255.31" transform="translate(10.876 3.074) rotate(-124)" fill="none" stroke="#000" stroke-linecap="round" stroke-width="0.4"/>
      <path id="Контур_221-3" data-name="Контур 221" d="M.035,6.561a2.38,2.38,0,0,1,.7-2.136A10.1,10.1,0,0,1,3.748,2.986,7.557,7.557,0,0,1,5.654.464,3.479,3.479,0,0,1,8.179.09" transform="translate(0 0)" fill="none" stroke="#000" stroke-width="0.4"/>
      <path id="Контур_222-3" data-name="Контур 222" d="M0,0,.545.562" transform="translate(3.698 3.074)" fill="none" stroke="#000" stroke-width="0.4"/>
    </g>
    <g id="Контур_328" data-name="Контур 328" transform="translate(16762.639 5510.048) rotate(180)" fill="none">
      <path d="M3.073,0H25.9a3.073,3.073,0,0,1,3.073,3.073V24.147A3.073,3.073,0,0,1,25.9,27.22H3.073A3.073,3.073,0,0,1,0,24.147V3.073A3.073,3.073,0,0,1,3.073,0Z" stroke="none"/>
      <path d="M 3.073226928710938 0.4000034332275391 C 1.599206924438477 0.4000034332275391 0.3999958038330078 1.599203109741211 0.3999958038330078 3.073223114013672 L 0.3999958038330078 24.14676284790039 C 0.3999958038330078 25.62078285217285 1.599206924438477 26.81998252868652 3.073226928710938 26.81998252868652 L 25.90288543701172 26.81998252868652 C 27.37690544128418 26.81998252868652 28.57611656188965 25.62078285217285 28.57611656188965 24.14676284790039 L 28.57611656188965 3.073223114013672 C 28.57611656188965 1.599203109741211 27.37690544128418 0.4000034332275391 25.90288543701172 0.4000034332275391 L 3.073226928710938 0.4000034332275391 M 3.073226928710938 3.814697265625e-06 L 25.90288543701172 3.814697265625e-06 C 27.60018539428711 3.814697265625e-06 28.97611618041992 1.375932693481445 28.97611618041992 3.073223114013672 L 28.97611618041992 24.14676284790039 C 28.97611618041992 25.84405326843262 27.60018539428711 27.2199821472168 25.90288543701172 27.2199821472168 L 3.073226928710938 27.2199821472168 C 1.375926971435547 27.2199821472168 -3.814697265625e-06 25.84405326843262 -3.814697265625e-06 24.14676284790039 L -3.814697265625e-06 3.073223114013672 C -3.814697265625e-06 1.375932693481445 1.375926971435547 3.814697265625e-06 3.073226928710938 3.814697265625e-06 Z" stroke="none" fill="#000"/>
    </g>
    <g id="Контур_327" data-name="Контур 327" transform="translate(16762.639 5483.267) rotate(180)" fill="none">
      <path d="M3.073,0H25.9a3.073,3.073,0,0,1,3.073,3.073V24.147A3.073,3.073,0,0,1,25.9,27.22H3.073A3.073,3.073,0,0,1,0,24.147V3.073A3.073,3.073,0,0,1,3.073,0Z" stroke="none"/>
      <path d="M 3.073226928710938 0.4000034332275391 C 1.599206924438477 0.4000034332275391 0.3999958038330078 1.599203109741211 0.3999958038330078 3.073223114013672 L 0.3999958038330078 24.14676284790039 C 0.3999958038330078 25.62078285217285 1.599206924438477 26.81998252868652 3.073226928710938 26.81998252868652 L 25.90288543701172 26.81998252868652 C 27.37690544128418 26.81998252868652 28.57611656188965 25.62078285217285 28.57611656188965 24.14676284790039 L 28.57611656188965 3.073223114013672 C 28.57611656188965 1.599203109741211 27.37690544128418 0.4000034332275391 25.90288543701172 0.4000034332275391 L 3.073226928710938 0.4000034332275391 M 3.073226928710938 3.814697265625e-06 L 25.90288543701172 3.814697265625e-06 C 27.60018539428711 3.814697265625e-06 28.97611618041992 1.375932693481445 28.97611618041992 3.073223114013672 L 28.97611618041992 24.14676284790039 C 28.97611618041992 25.84405326843262 27.60018539428711 27.2199821472168 25.90288543701172 27.2199821472168 L 3.073226928710938 27.2199821472168 C 1.375926971435547 27.2199821472168 -3.814697265625e-06 25.84405326843262 -3.814697265625e-06 24.14676284790039 L -3.814697265625e-06 3.073223114013672 C -3.814697265625e-06 1.375932693481445 1.375926971435547 3.814697265625e-06 3.073226928710938 3.814697265625e-06 Z" stroke="none" fill="#000"/>
    </g>
    <g id="Контур_326" data-name="Контур 326" transform="translate(16762.639 5456.486) rotate(180)" fill="none">
      <path d="M3.073,0H25.9a3.073,3.073,0,0,1,3.073,3.073V24.147A3.073,3.073,0,0,1,25.9,27.22H3.073A3.073,3.073,0,0,1,0,24.147V3.073A3.073,3.073,0,0,1,3.073,0Z" stroke="none"/>
      <path d="M 3.073226928710938 0.4000034332275391 C 1.599206924438477 0.4000034332275391 0.3999958038330078 1.599203109741211 0.3999958038330078 3.073223114013672 L 0.3999958038330078 24.14676284790039 C 0.3999958038330078 25.62078285217285 1.599206924438477 26.81998252868652 3.073226928710938 26.81998252868652 L 25.90288543701172 26.81998252868652 C 27.37690544128418 26.81998252868652 28.57611656188965 25.62078285217285 28.57611656188965 24.14676284790039 L 28.57611656188965 3.073223114013672 C 28.57611656188965 1.599203109741211 27.37690544128418 0.4000034332275391 25.90288543701172 0.4000034332275391 L 3.073226928710938 0.4000034332275391 M 3.073226928710938 3.814697265625e-06 L 25.90288543701172 3.814697265625e-06 C 27.60018539428711 3.814697265625e-06 28.97611618041992 1.375932693481445 28.97611618041992 3.073223114013672 L 28.97611618041992 24.14676284790039 C 28.97611618041992 25.84405326843262 27.60018539428711 27.2199821472168 25.90288543701172 27.2199821472168 L 3.073226928710938 27.2199821472168 C 1.375926971435547 27.2199821472168 -3.814697265625e-06 25.84405326843262 -3.814697265625e-06 24.14676284790039 L -3.814697265625e-06 3.073223114013672 C -3.814697265625e-06 1.375932693481445 1.375926971435547 3.814697265625e-06 3.073226928710938 3.814697265625e-06 Z" stroke="none" fill="#000"/>
    </g>
    <g id="Контур_319" data-name="Контур 319" transform="translate(16762.639 5510.048) rotate(180)" fill="none">
      <path d="M3.512,80.782H2.634A2.634,2.634,0,0,1,0,78.148V3.732q0-.055,0-.11t0-.11V2.634A2.634,2.634,0,0,1,2.634,0H19.756a2.634,2.634,0,0,1,2.634,2.634v.878a2.634,2.634,0,0,1-2.634,2.634H6.147V74.635H20.2A2.634,2.634,0,0,1,22.83,77.27v.878A2.634,2.634,0,0,1,20.2,80.782Z" stroke="none"/>
      <path d="M 20.19543266296387 80.3817138671875 C 21.42744445800781 80.3817138671875 22.42975616455078 79.37957763671875 22.42975616455078 78.14778137207031 L 22.42975616455078 77.26981353759766 C 22.42975616455078 76.03780364990234 21.42744445800781 75.03549194335938 20.19543266296387 75.03549194335938 L 5.746622562408447 75.03549194335938 L 5.746622562408447 5.74662446975708 L 19.75644493103027 5.74662446975708 C 20.98845481872559 5.74662446975708 21.99076652526855 4.74431324005127 21.99076652526855 3.512302160263062 L 21.99076652526855 2.634324312210083 C 21.99076652526855 1.402313232421875 20.98845481872559 0.4000021517276764 19.75644493103027 0.4000021517276764 L 2.63432240486145 0.4000021517276764 C 1.402311205863953 0.4000021517276764 0.400000125169754 1.402313232421875 0.400000125169754 2.634324312210083 L 0.400000125169754 3.512302160263062 C 0.400000125169754 3.543535470962524 0.4006445705890656 3.574557781219482 0.4019112288951874 3.605479955673218 L 0.402600109577179 3.621957778930664 L 0.4019112288951874 3.638435363769531 C 0.4006445705890656 3.669357776641846 0.400000125169754 3.700368881225586 0.400000125169754 3.731602191925049 L 0.400000125169754 78.14778137207031 C 0.400000125169754 79.37957763671875 1.402311205863953 80.3817138671875 2.63432240486145 80.3817138671875 L 20.19543266296387 80.3817138671875 M 20.19543266296387 80.78171539306641 L 2.63432240486145 80.78171539306641 C 1.179455637931824 80.78171539306641 1.137627521075046e-07 79.6026611328125 1.137627521075046e-07 78.14778137207031 L 1.137627521075046e-07 3.731602191925049 C 1.137627521075046e-07 3.694846630096436 0.0007556693162769079 3.658346652984619 0.002255669329315424 3.621957778930664 C 0.0007556693162769079 3.585568904876709 1.137627521075046e-07 3.549057722091675 1.137627521075046e-07 3.512302160263062 L 1.137627521075046e-07 2.634324312210083 C 1.137627521075046e-07 1.179457664489746 1.179455637931824 2.140977585440851e-06 2.63432240486145 2.140977585440851e-06 L 19.75644493103027 2.140977585440851e-06 C 21.21131134033203 2.140977585440851e-06 22.39076614379883 1.179457664489746 22.39076614379883 2.634324312210083 L 22.39076614379883 3.512302160263062 C 22.39076614379883 4.967168807983398 21.21131134033203 6.146624565124512 19.75644493103027 6.146624565124512 L 6.146622180938721 6.146624565124512 L 6.146622180938721 74.63549041748047 L 20.19543266296387 74.63549041748047 C 21.65028953552246 74.63549041748047 22.82975578308105 75.81494903564453 22.82975578308105 77.26981353759766 L 22.82975578308105 78.14778137207031 C 22.82975578308105 79.6026611328125 21.65028953552246 80.78171539306641 20.19543266296387 80.78171539306641 Z" stroke="none" fill="#000"/>
    </g>
    <path id="Контур_223" data-name="Контур 223" d="M0,0V69.069" transform="translate(16755.582 5504.379) rotate(180)" fill="none" stroke="#000" stroke-width="0.4"/>
    <g id="Сгруппировать_33" data-name="Сгруппировать 33" transform="translate(16755.584 5503.779) rotate(180)">
      <path id="Контур_218-4" data-name="Контур 218" d="M4.2,3.546A5.893,5.893,0,0,0,.428,5.576C-1.377,7.537,3.1,9.2,3.354,9.229s-.04.8.448,1.344,3.287,1.253,6.248-2,2.38-4.925,2.089-5.543-1.416-.638-1.431-.716S9.556-.018,7.908,0,4.2,3.546,4.2,3.546Z" transform="translate(0.034 0.08)" fill="none" stroke="#000" stroke-width="0.4"/>
      <path id="Контур_219-4" data-name="Контур 219" d="M0,0A3.752,3.752,0,0,0,1.369.231" transform="translate(3.117 9.216)" fill="none" stroke="#000" stroke-linecap="round" stroke-width="0.4"/>
      <path id="Контур_220-4" data-name="Контур 220" d="M0,0A2.406,2.406,0,0,0,1.255.31" transform="translate(10.876 3.074) rotate(-124)" fill="none" stroke="#000" stroke-linecap="round" stroke-width="0.4"/>
      <path id="Контур_221-4" data-name="Контур 221" d="M.034,6.561a2.38,2.38,0,0,1,.7-2.136A10.1,10.1,0,0,1,3.747,2.986,7.557,7.557,0,0,1,5.653.464,3.48,3.48,0,0,1,8.179.09" transform="translate(0 0)" fill="none" stroke="#000" stroke-width="0.4"/>
      <path id="Контур_222-4" data-name="Контур 222" d="M0,0,.545.562" transform="translate(3.698 3.074)" fill="none" stroke="#000" stroke-width="0.4"/>
    </g>
    <g id="Сгруппировать_34" data-name="Сгруппировать 34" transform="translate(16667.443 5449.238)">
      <g id="Контур_325" data-name="Контур 325" transform="translate(3.193)" fill="none">
        <path d="M0,0H1.286V41.14H0Z" stroke="none"/>
        <path d="M 0.4000020027160645 0.399993896484375 L 0.4000020027160645 40.73996353149414 L 0.8856220245361328 40.73996353149414 L 0.8856220245361328 0.399993896484375 L 0.4000020027160645 0.399993896484375 M 2.026557922363281e-06 -3.814697265625e-06 L 1.285622000694275 -3.814697265625e-06 L 1.285622000694275 41.13996505737305 L 2.026557922363281e-06 41.13996505737305 L 2.026557922363281e-06 -3.814697265625e-06 Z" stroke="none" fill="#000"/>
      </g>
      <path id="Контур_224" data-name="Контур 224" d="M15489.036,3762.584l-2.434,3.044V3799.9l2.426,3.3" transform="translate(-15485.676 -3762.334)" fill="none" stroke="#000" stroke-width="0.4"/>
      <path id="Контур_225" data-name="Контур 225" d="M15478.988,3791.828l2.34,1.794v12.133l-2.34,2.037" transform="translate(-15474.703 -3779.045)" fill="none" stroke="#000" stroke-width="0.4"/>
      <path id="Контур_226" data-name="Контур 226" d="M15483.133,3794.248l-.986.757v12.132l.98.854" transform="translate(-15482.146 -3780.428)" fill="none" stroke="#000" stroke-width="0.4"/>
    </g>
    <g id="Сгруппировать_50" data-name="Сгруппировать 50" transform="translate(16563.176 5430.82)">
      <g id="Контур_324" data-name="Контур 324" transform="translate(2.81)" fill="none">
        <path d="M0,0H1.131V36.2H0Z" stroke="none"/>
        <path d="M 0.4000041484832764 0.4000053405761719 L 0.4000041484832764 35.8025016784668 L 0.7313241958618164 35.8025016784668 L 0.7313241958618164 0.4000053405761719 L 0.4000041484832764 0.4000053405761719 M 4.172325134277344e-06 3.814697265625e-06 L 1.131324172019958 3.814697265625e-06 L 1.131324172019958 36.2025032043457 L 4.172325134277344e-06 36.2025032043457 L 4.172325134277344e-06 3.814697265625e-06 Z" stroke="none" fill="#000"/>
      </g>
      <path id="Контур_224-2" data-name="Контур 224" d="M15488.747,3762.584l-2.145,2.679v30.158l2.135,2.907" transform="translate(-15485.787 -3762.364)" fill="none" stroke="#000" stroke-width="0.4"/>
      <path id="Контур_225-2" data-name="Контур 225" d="M15478.988,3791.828l2.059,1.579v10.676l-2.059,1.792" transform="translate(-15475.217 -3780.58)" fill="none" stroke="#000" stroke-width="0.4"/>
      <path id="Контур_226-2" data-name="Контур 226" d="M15483.015,3794.248l-.868.666v10.677l.86.75" transform="translate(-15482.146 -3782.087)" fill="none" stroke="#000" stroke-width="0.4"/>
    </g>
    <g id="Контур_323" data-name="Контур 323" transform="translate(16665.613 5438.436)" fill="none">
      <path d="M0,0H12.732V64.538H0Z" stroke="none"/>
      <path d="M 0.4000043869018555 0.399993896484375 L 0.4000043869018555 64.13770294189453 L 12.33192348480225 64.13770294189453 L 12.33192348480225 0.399993896484375 L 0.4000043869018555 0.399993896484375 M 3.814697265625e-06 -7.62939453125e-06 L 12.73192405700684 -7.62939453125e-06 L 12.73192405700684 64.53770446777344 L 3.814697265625e-06 64.53770446777344 L 3.814697265625e-06 -7.62939453125e-06 Z" stroke="none" fill="#000"/>
    </g>
    <g id="Контур_322" data-name="Контур 322" transform="translate(16561.563 5421.313)" fill="none">
      <path d="M0,0H11.415V56.635H0Z" stroke="none"/>
      <path d="M 0.3999958038330078 0.3999977111816406 L 0.3999958038330078 56.23512649536133 L 11.01483631134033 56.23512649536133 L 11.01483631134033 0.3999977111816406 L 0.3999958038330078 0.3999977111816406 M -3.814697265625e-06 -3.814697265625e-06 L 11.41483592987061 -3.814697265625e-06 L 11.41483592987061 56.63512420654297 L -3.814697265625e-06 56.63512420654297 L -3.814697265625e-06 -3.814697265625e-06 Z" stroke="none" fill="#000"/>
    </g>
    <path id="Контур_227" data-name="Контур 227" d="M16892.768,3772h-42.986v69.969h42.986" transform="translate(-158.8 1662.974)" fill="none" stroke="#000" stroke-width="0.4"/>
    <g id="Контур_318" data-name="Контур 318" transform="translate(16701.955 5388.387)" fill="none">
      <path d="M60.684,37.757H46.335a10.246,10.246,0,0,0,.067-1.174V25.2A10.09,10.09,0,0,0,36.3,15.1H27.257A10.243,10.243,0,0,0,26,15.18V0H60.684Z" stroke="none"/>
      <path d="M 46.77402496337891 37.35691070556641 L 60.28372955322266 37.35650634765625 L 60.28372955322266 0.4000056385993958 L 26.40011978149414 0.4000056385993958 L 26.40011978149414 14.73718452453613 C 26.6848201751709 14.71421051025391 26.97159957885742 14.70261573791504 27.25700950622559 14.70261573791504 L 36.30429077148438 14.70261573791504 C 37.72130966186523 14.70261573791504 39.09615707397461 14.9802360534668 40.39062881469727 15.52777576446533 C 41.6407585144043 16.0565357208252 42.76339721679688 16.81342506408691 43.72737884521484 17.77741622924805 C 44.69138717651367 18.74140548706055 45.44828033447266 19.86405563354492 45.97702789306641 21.11417579650879 C 46.52457046508789 22.40867614746094 46.80218887329102 23.78352546691895 46.80218887329102 25.20052528381348 L 46.80218887329102 36.58339691162109 C 46.80218887329102 36.84089660644531 46.79274368286133 37.09971237182617 46.77402496337891 37.35691070556641 M 60.6837272644043 37.75692749023438 L 46.33470916748047 37.75692749023438 C 46.37933731079102 37.37125396728516 46.40218734741211 36.97659683227539 46.40218734741211 36.58339691162109 L 46.40218734741211 25.20052528381348 C 46.40218734741211 23.83733558654785 46.13518905639648 22.51490592956543 45.60862731933594 21.26999473571777 C 45.10004043579102 20.06754493713379 44.37192916870117 18.98763656616211 43.44453811645508 18.06025505065918 C 42.51715850830078 17.13286590576172 41.43724822998047 16.40476608276367 40.23480987548828 15.89617538452148 C 38.98989868164062 15.36960601806641 37.66748046875 15.10261535644531 36.30429077148438 15.10261535644531 L 27.25700950622559 15.10261535644531 C 26.83713912963867 15.10261535644531 26.41425895690918 15.12867546081543 26.00011825561523 15.18007564544678 L 26.00011825561523 5.652465915773064e-06 L 60.6837272644043 5.652465915773064e-06 L 60.6837272644043 37.75692749023438 Z" stroke="none" fill="#000"/>
    </g>
    <g id="Контур_321" data-name="Контур 321" transform="translate(16762.639 5533.707) rotate(90)" fill="none">
      <path d="M0,0H12.732V70.245H0Z" stroke="none"/>
      <path d="M 0.4000043869018555 0.4000015258789062 L 0.4000043869018555 69.84512329101562 L 12.33192348480225 69.84512329101562 L 12.33192348480225 0.4000015258789062 L 0.4000043869018555 0.4000015258789062 M 3.814697265625e-06 0 L 12.73192405700684 0 L 12.73192405700684 70.24512481689453 L 3.814697265625e-06 70.24512481689453 L 3.814697265625e-06 0 Z" stroke="none" fill="#000"/>
    </g>
    <g id="Контур_320" data-name="Контур 320" transform="translate(16659.467 5490.242) rotate(90)" fill="none">
      <path d="M0,0H12.732V47.854H0Z" stroke="none"/>
      <path d="M 0.4000043869018555 0.399993896484375 L 0.4000043869018555 47.45448303222656 L 12.33192348480225 47.45448303222656 L 12.33192348480225 0.399993896484375 L 0.4000043869018555 0.399993896484375 M 3.814697265625e-06 -7.62939453125e-06 L 12.73192405700684 -7.62939453125e-06 L 12.73192405700684 47.85448455810547 L 3.814697265625e-06 47.85448455810547 L 3.814697265625e-06 -7.62939453125e-06 Z" stroke="none" fill="#000"/>
    </g>
    <g id="Сгруппировать_35" data-name="Сгруппировать 35" transform="translate(16733.268 5537.911)">
      <path id="Контур_183-5" data-name="Контур 183" d="M3.342,0,0,1.474v.207H6.559V1.39Z" transform="translate(-0.001 1.557)" fill="none" stroke="#000" stroke-width="0.4"/>
      <path id="Контур_184-5" data-name="Контур 184" d="M0,.333C.563-.3,1.072.1,1.1.484S.61,1.046.61,1.046v.511" transform="translate(2.713 0)" fill="none" stroke="#000" stroke-width="0.4"/>
    </g>
    <g id="Сгруппировать_51" data-name="Сгруппировать 51" transform="translate(16630.094 5494.447)">
      <path id="Контур_183-6" data-name="Контур 183" d="M3.342,0,0,1.474v.207H6.559V1.39Z" transform="translate(-0.001 1.557)" fill="none" stroke="#000" stroke-width="0.4"/>
      <path id="Контур_184-6" data-name="Контур 184" d="M0,.333C.563-.3,1.072.1,1.1.484S.61,1.046.61,1.046v.511" transform="translate(2.713 0)" fill="none" stroke="#000" stroke-width="0.4"/>
    </g>
    <g id="Сгруппировать_36" data-name="Сгруппировать 36" transform="translate(16743.072 5537.911)">
      <path id="Контур_183-7" data-name="Контур 183" d="M3.342,0,0,1.474v.207H6.559V1.39Z" transform="translate(-0.001 1.557)" fill="none" stroke="#000" stroke-width="0.4"/>
      <path id="Контур_184-7" data-name="Контур 184" d="M0,.333C.563-.3,1.072.1,1.1.484S.61,1.046.61,1.046v.511" transform="translate(2.713 0)" fill="none" stroke="#000" stroke-width="0.4"/>
    </g>
    <g id="Сгруппировать_52" data-name="Сгруппировать 52" transform="translate(16639.9 5494.447)">
      <path id="Контур_183-8" data-name="Контур 183" d="M3.342,0,0,1.474v.207H6.559V1.39Z" transform="translate(-0.001 1.557)" fill="none" stroke="#000" stroke-width="0.4"/>
      <path id="Контур_184-8" data-name="Контур 184" d="M0,.333C.563-.3,1.072.1,1.1.484S.61,1.046.61,1.046v.511" transform="translate(2.713 0)" fill="none" stroke="#000" stroke-width="0.4"/>
    </g>
    <g id="Сгруппировать_37" data-name="Сгруппировать 37" transform="translate(16752.879 5537.911)">
      <path id="Контур_183-9" data-name="Контур 183" d="M3.342,0,0,1.474v.207H6.559V1.39Z" transform="translate(-0.001 1.557)" fill="none" stroke="#000" stroke-width="0.4"/>
      <path id="Контур_184-9" data-name="Контур 184" d="M0,.333C.563-.3,1.072.1,1.1.484S.61,1.046.61,1.046v.511" transform="translate(2.713 0)" fill="none" stroke="#000" stroke-width="0.4"/>
    </g>
    <g id="Сгруппировать_53" data-name="Сгруппировать 53" transform="translate(16649.707 5494.447)">
      <path id="Контур_183-10" data-name="Контур 183" d="M3.342,0,0,1.474v.207H6.559V1.39Z" transform="translate(-0.001 1.557)" fill="none" stroke="#000" stroke-width="0.4"/>
      <path id="Контур_184-10" data-name="Контур 184" d="M0,.333C.563-.3,1.072.1,1.1.484S.61,1.046.61,1.046v.511" transform="translate(2.713 0)" fill="none" stroke="#000" stroke-width="0.4"/>
    </g>
    <path id="Контур_228" data-name="Контур 228" d="M0,0V32.291" transform="translate(16762.441 5535.298) rotate(90)" fill="none" stroke="#000" stroke-width="0.4"/>
    <path id="Контур_265" data-name="Контур 265" d="M0,0V32.291" transform="translate(16659.268 5491.834) rotate(90)" fill="none" stroke="#000" stroke-width="0.4"/>
    <path id="Контур_229" data-name="Контур 229" d="M16939,4024v12.55" transform="translate(-208.849 1509.706)" fill="none" stroke="#000" stroke-width="0.4"/>
    <path id="Контур_230" data-name="Контур 230" d="M15404.21,3932.982a71.39,71.39,0,0,0-4.382,5.792" transform="translate(1325.621 1470.142)" fill="none" stroke="#000" stroke-width="0.4"/>
    <path id="Контур_231" data-name="Контур 231" d="M15423.865,3948.7c2.44-1.2,8.31-6,9.386-7.949s-6.2-7.959-6.2-7.959" transform="translate(1310.865 1470.261)" fill="none" stroke="#000" stroke-width="0.4"/>
    <path id="Контур_232" data-name="Контур 232" d="M15443.329,3943.042l2.884-.344s.552-.07.6.421a.529.529,0,0,1-.45.573l-2.229.344" transform="translate(1298.915 1464.179)" fill="none" stroke="#000" stroke-width="0.4"/>
    <path id="Контур_233" data-name="Контур 233" d="M15436.3,3964.393l2.2,2.241a.689.689,0,0,1,0,.9c-.4.417-.906,0-.906,0l-2.306-2.365" transform="translate(1303.85 1450.858)" fill="none" stroke="#000" stroke-width="0.4"/>
    <path id="Контур_234" data-name="Контур 234" d="M16923.352,3737.942s-.459,5.493,3.162,9.128,8.986,3.454,8.986,3.454" transform="translate(-200.025 1670.274)" fill="none" stroke="#000" stroke-width="0.4"/>
    <path id="Контур_235" data-name="Контур 235" d="M16920.707,3738.428s1.154.006,1.156.521a11.327,11.327,0,0,0,2.908,7.672,11.621,11.621,0,0,0,7.545,3.158c.48.069.5,1.165.5,1.165" transform="translate(-197.526 1670.001)" fill="none" stroke="#000" stroke-width="0.4"/>
    <path id="Контур_236" data-name="Контур 236" d="M16926.082,3739.76h1.689s.424,4.061,2.51,6.285,5.824,2.613,5.824,2.613l.273,1.927" transform="translate(-201.602 1669.156)" fill="none" stroke="#000" stroke-width="0.4"/>
    <path id="Контур_237" data-name="Контур 237" d="M15460.8,3899.695l2.958-2.61,9.194,10.408-3.06,2.616Z" transform="translate(1286.724 1493.39)" fill="none" stroke="#000" stroke-width="0.4"/>
    <path id="Контур_238" data-name="Контур 238" d="M15450.353,3905.177l10.585,12.294-3.833,3.153-10.54-12.191Z" transform="translate(1294.272 1488.46)" fill="none" stroke="#000" stroke-width="0.4"/>
    <path id="Контур_239" data-name="Контур 239" d="M16979.705,3702.982l9.064,10.37" transform="translate(-231.682 1689.787)" fill="none" stroke="#000" stroke-width="0.4"/>
    <path id="Контур_240" data-name="Контур 240" d="M16968.713,3707.893l7.639,8.762-2.5,2.136-7.535-8.839Z" transform="translate(-224.175 1687.032)" fill="none" stroke="#000" stroke-width="0.4"/>
    <path id="Контур_241" data-name="Контур 241" d="M16983.2,3724.672l1.262,1.448-2.5,2.06-1.219-1.413Z" transform="translate(-230.509 1679.681)" fill="none" stroke="#000" stroke-width="0.4"/>
    <g id="Сгруппировать_38" data-name="Сгруппировать 38" transform="matrix(0.966, -0.259, 0.259, 0.966, 16687.02, 5407.488)">
      <g id="Контур_317" data-name="Контур 317" transform="translate(0 0)" fill="none">
        <path d="M3.073,0H13.145a3.073,3.073,0,0,1,3.073,3.073V13.145a3.073,3.073,0,0,1-3.073,3.073H3.073A3.073,3.073,0,0,1,0,13.145V3.073A3.073,3.073,0,0,1,3.073,0Z" stroke="none"/>
        <path d="M 3.073224067687988 0.4000043869018555 C 1.599204063415527 0.4000043869018555 0.4000043869018555 1.599204063415527 0.4000043869018555 3.073224067687988 L 0.4000043869018555 13.14464473724365 C 0.4000043869018555 14.61866474151611 1.599204063415527 15.81786441802979 3.073224067687988 15.81786441802979 L 13.14464473724365 15.81786441802979 C 14.61866474151611 15.81786441802979 15.81786441802979 14.61866474151611 15.81786441802979 13.14464473724365 L 15.81786441802979 3.073224067687988 C 15.81786441802979 1.599204063415527 14.61866474151611 0.4000043869018555 13.14464473724365 0.4000043869018555 L 3.073224067687988 0.4000043869018555 M 3.073224067687988 3.814697265625e-06 L 13.14464473724365 3.814697265625e-06 C 14.84193420410156 3.814697265625e-06 16.21786499023438 1.375924110412598 16.21786499023438 3.073224067687988 L 16.21786499023438 13.14464473724365 C 16.21786499023438 14.84193420410156 14.84193420410156 16.21786499023438 13.14464473724365 16.21786499023438 L 3.073224067687988 16.21786499023438 C 1.375924110412598 16.21786499023438 3.814697265625e-06 14.84193420410156 3.814697265625e-06 13.14464473724365 L 3.814697265625e-06 3.073224067687988 C 3.814697265625e-06 1.375924110412598 1.375924110412598 3.814697265625e-06 3.073224067687988 3.814697265625e-06 Z" stroke="none" fill="#000"/>
      </g>
      <path id="Контур_242" data-name="Контур 242" d="M0,0V3.16" transform="translate(4.872 6.729)" fill="none" stroke="#000" stroke-width="0.4"/>
      <path id="Контур_245" data-name="Контур 245" d="M0,0V3.16" transform="translate(10.638 6.729)" fill="none" stroke="#000" stroke-width="0.4"/>
      <path id="Контур_243" data-name="Контур 243" d="M0,0V3.161" transform="translate(6.453 8.309) rotate(90)" fill="none" stroke="#000" stroke-width="0.4"/>
      <path id="Контур_244" data-name="Контур 244" d="M0,0V3.161" transform="translate(12.219 8.309) rotate(90)" fill="none" stroke="#000" stroke-width="0.4"/>
    </g>
    <g id="Сгруппировать_47" data-name="Сгруппировать 47" transform="matrix(0.966, -0.259, 0.259, 0.966, 16576.234, 5395.99)">
      <g id="Контур_316" data-name="Контур 316" transform="translate(0 0)" fill="none">
        <path d="M3.073,0h8.274A3.073,3.073,0,0,1,14.42,3.073v8.274a3.073,3.073,0,0,1-3.073,3.073H3.073A3.073,3.073,0,0,1,0,11.347V3.073A3.073,3.073,0,0,1,3.073,0Z" stroke="none"/>
        <path d="M 3.073219299316406 0.3999996185302734 C 1.599199295043945 0.3999996185302734 0.3999996185302734 1.599199295043945 0.3999996185302734 3.073219299316406 L 0.3999996185302734 11.34700965881348 C 0.3999996185302734 12.82102966308594 1.599199295043945 14.02023983001709 3.073219299316406 14.02023983001709 L 11.34700965881348 14.02023983001709 C 12.82102966308594 14.02023983001709 14.02023983001709 12.82102966308594 14.02023983001709 11.34700965881348 L 14.02023983001709 3.073219299316406 C 14.02023983001709 1.599199295043945 12.82102966308594 0.3999996185302734 11.34700965881348 0.3999996185302734 L 3.073219299316406 0.3999996185302734 M 3.073219299316406 0 L 11.34700965881348 0 C 13.04430961608887 0 14.42023944854736 1.375929832458496 14.42023944854736 3.073219299316406 L 14.42023944854736 11.34700965881348 C 14.42023944854736 13.04430961608887 13.04430961608887 14.42023944854736 11.34700965881348 14.42023944854736 L 3.073219299316406 14.42023944854736 C 1.375929832458496 14.42023944854736 0 13.04430961608887 0 11.34700965881348 L 0 3.073219299316406 C 0 1.375929832458496 1.375929832458496 0 3.073219299316406 0 Z" stroke="none" fill="#000"/>
      </g>
      <path id="Контур_242-2" data-name="Контур 242" d="M0,0V2.81" transform="translate(4.332 5.983)" fill="none" stroke="#000" stroke-width="0.4"/>
      <path id="Контур_245-2" data-name="Контур 245" d="M0,0V2.81" transform="translate(9.459 5.983)" fill="none" stroke="#000" stroke-width="0.4"/>
      <path id="Контур_243-2" data-name="Контур 243" d="M0,0V2.81" transform="translate(5.737 7.388) rotate(90)" fill="none" stroke="#000" stroke-width="0.4"/>
      <path id="Контур_244-2" data-name="Контур 244" d="M0,0V2.81" transform="translate(10.864 7.388) rotate(90)" fill="none" stroke="#000" stroke-width="0.4"/>
    </g>
    <g id="Сгруппировать_41" data-name="Сгруппировать 41" transform="translate(16664.322 5391.668)">
      <g id="Сгруппировать_39" data-name="Сгруппировать 39" transform="translate(8.544 0)">
        <path id="Контур_246" data-name="Контур 246" d="M15522.418,4049.083a12.083,12.083,0,0,0,.456-4.16,9.739,9.739,0,0,0-1.361-3.64,10.594,10.594,0,0,0,.905,7.8" transform="translate(-15521.147 -4039)" fill="none" stroke="#000" stroke-width="0.4"/>
        <path id="Контур_247" data-name="Контур 247" d="M1.271,8.064a12.89,12.89,0,0,0,.456-4.3A10.272,10.272,0,0,0,.365,0a11.294,11.294,0,0,0,.906,8.064" transform="translate(3.244 0) rotate(17)" fill="none" stroke="#000" stroke-width="0.4"/>
        <path id="Контур_248" data-name="Контур 248" d="M1.271,8.064a12.89,12.89,0,0,0,.456-4.3A10.272,10.272,0,0,0,.365,0a11.294,11.294,0,0,0,.906,8.064" transform="translate(6.454 2.833) rotate(45)" fill="none" stroke="#000" stroke-width="0.4"/>
        <path id="Контур_249" data-name="Контур 249" d="M1.155,9.508a20.381,20.381,0,0,0,.286-4.437A23.123,23.123,0,0,0,.03,0c-.08,1.57-.1,6.2,1.281,9.588" transform="matrix(0.454, 0.891, -0.891, 0.454, 9.421, 4.546)" fill="none" stroke="#000" stroke-width="0.4"/>
        <path id="Контур_250" data-name="Контур 250" d="M1.271,7.8a12.086,12.086,0,0,0,.456-4.16A9.746,9.746,0,0,0,.365,0a10.6,10.6,0,0,0,.906,7.8" transform="translate(9.814 7.77) rotate(81)" fill="none" stroke="#000" stroke-width="0.4"/>
        <path id="Контур_251" data-name="Контур 251" d="M1.155,9.508a20.381,20.381,0,0,0,.286-4.437A23.123,23.123,0,0,0,.03,0c-.08,1.57-.1,6.2,1.281,9.588" transform="translate(10.949 10.921) rotate(100)" fill="none" stroke="#000" stroke-width="0.4"/>
        <path id="Контур_252" data-name="Контур 252" d="M1.271,8.064a12.89,12.89,0,0,0,.456-4.3A10.272,10.272,0,0,0,.365,0a11.294,11.294,0,0,0,.906,8.064" transform="translate(10.642 13.196) rotate(115)" fill="none" stroke="#000" stroke-width="0.4"/>
        <path id="Контур_253" data-name="Контур 253" d="M1.271,8.064a12.89,12.89,0,0,0,.456-4.3A10.272,10.272,0,0,0,.365,0a11.294,11.294,0,0,0,.906,8.064" transform="translate(8.417 15.785) rotate(135)" fill="none" stroke="#000" stroke-width="0.4"/>
        <path id="Контур_254" data-name="Контур 254" d="M1.155,9.508a20.381,20.381,0,0,0,.286-4.437A23.123,23.123,0,0,0,.03,0c-.08,1.57-.1,6.2,1.281,9.588" transform="translate(7.826 19.504) rotate(150)" fill="none" stroke="#000" stroke-linejoin="round" stroke-width="0.4"/>
      </g>
      <g id="Сгруппировать_40" data-name="Сгруппировать 40" transform="matrix(-0.999, 0.035, -0.035, -0.999, 11.649, 20.923)">
        <path id="Контур_246-2" data-name="Контур 246" d="M1.271,7.8a12.086,12.086,0,0,0,.456-4.16A9.746,9.746,0,0,0,.365,0a10.6,10.6,0,0,0,.906,7.8" transform="translate(0 2.283)" fill="none" stroke="#000" stroke-width="0.4"/>
        <path id="Контур_247-2" data-name="Контур 247" d="M1.271,8.064a12.89,12.89,0,0,0,.456-4.3A10.272,10.272,0,0,0,.365,0a11.294,11.294,0,0,0,.906,8.064" transform="translate(3.244 0) rotate(17)" fill="none" stroke="#000" stroke-width="0.4"/>
        <path id="Контур_248-2" data-name="Контур 248" d="M1.271,8.064a12.89,12.89,0,0,0,.456-4.3A10.272,10.272,0,0,0,.365,0a11.294,11.294,0,0,0,.906,8.064" transform="translate(6.454 2.833) rotate(45)" fill="none" stroke="#000" stroke-width="0.4"/>
        <path id="Контур_249-2" data-name="Контур 249" d="M1.155,9.508a20.381,20.381,0,0,0,.286-4.437A23.123,23.123,0,0,0,.03,0c-.08,1.57-.1,6.2,1.281,9.588" transform="matrix(0.454, 0.891, -0.891, 0.454, 9.421, 4.546)" fill="none" stroke="#000" stroke-width="0.4"/>
        <path id="Контур_250-2" data-name="Контур 250" d="M1.271,7.8a12.086,12.086,0,0,0,.456-4.16A9.746,9.746,0,0,0,.365,0a10.6,10.6,0,0,0,.906,7.8" transform="translate(9.814 7.77) rotate(81)" fill="none" stroke="#000" stroke-width="0.4"/>
        <path id="Контур_251-2" data-name="Контур 251" d="M1.155,9.508a20.381,20.381,0,0,0,.286-4.437A23.123,23.123,0,0,0,.03,0c-.08,1.57-.1,6.2,1.281,9.588" transform="translate(10.949 10.921) rotate(100)" fill="none" stroke="#000" stroke-width="0.4"/>
        <path id="Контур_252-2" data-name="Контур 252" d="M1.271,8.064a12.89,12.89,0,0,0,.456-4.3A10.272,10.272,0,0,0,.365,0a11.294,11.294,0,0,0,.906,8.064" transform="translate(10.642 13.196) rotate(115)" fill="none" stroke="#000" stroke-width="0.4"/>
        <path id="Контур_253-2" data-name="Контур 253" d="M1.271,8.064a12.89,12.89,0,0,0,.456-4.3A10.272,10.272,0,0,0,.365,0a11.294,11.294,0,0,0,.906,8.064" transform="translate(8.417 15.785) rotate(135)" fill="none" stroke="#000" stroke-width="0.4"/>
        <path id="Контур_254-2" data-name="Контур 254" d="M1.155,9.508a20.381,20.381,0,0,0,.286-4.437A23.123,23.123,0,0,0,.03,0c-.08,1.57-.1,6.2,1.281,9.588" transform="translate(7.826 19.504) rotate(150)" fill="none" stroke="#000" stroke-linejoin="round" stroke-width="0.4"/>
      </g>
    </g>
    <g id="Сгруппировать_43" data-name="Сгруппировать 43" transform="translate(16742.244 5346.3)">
      <g id="Сгруппировать_39-2" data-name="Сгруппировать 39" transform="translate(8.84 0)">
        <path id="Контур_246-3" data-name="Контур 246" d="M15522.467,4049.353a12.506,12.506,0,0,0,.472-4.3,10.091,10.091,0,0,0-1.409-3.767,10.959,10.959,0,0,0,.938,8.07" transform="translate(-15521.151 -4038.921)" fill="none" stroke="#000" stroke-width="0.4"/>
        <path id="Контур_247-3" data-name="Контур 247" d="M1.315,8.343a13.335,13.335,0,0,0,.471-4.45A10.618,10.618,0,0,0,.378,0a11.685,11.685,0,0,0,.937,8.343" transform="translate(3.357 0) rotate(17)" fill="none" stroke="#000" stroke-width="0.4"/>
        <path id="Контур_248-3" data-name="Контур 248" d="M1.315,8.343a13.335,13.335,0,0,0,.471-4.45A10.618,10.618,0,0,0,.378,0a11.685,11.685,0,0,0,.937,8.343" transform="translate(6.678 2.931) rotate(45)" fill="none" stroke="#000" stroke-width="0.4"/>
        <path id="Контур_249-3" data-name="Контур 249" d="M1.195,9.837a21.046,21.046,0,0,0,.3-4.591A23.918,23.918,0,0,0,.031,0c-.083,1.624-.1,6.413,1.325,9.919" transform="matrix(0.454, 0.891, -0.891, 0.454, 9.747, 4.703)" fill="none" stroke="#000" stroke-width="0.4"/>
        <path id="Контур_250-3" data-name="Контур 250" d="M1.315,8.07a12.5,12.5,0,0,0,.471-4.3A10.074,10.074,0,0,0,.378,0a10.966,10.966,0,0,0,.937,8.07" transform="translate(10.153 8.039) rotate(81)" fill="none" stroke="#000" stroke-width="0.4"/>
        <path id="Контур_251-3" data-name="Контур 251" d="M1.195,9.837a21.046,21.046,0,0,0,.3-4.591A23.918,23.918,0,0,0,.031,0c-.083,1.624-.1,6.413,1.325,9.919" transform="translate(11.328 11.298) rotate(100)" fill="none" stroke="#000" stroke-width="0.4"/>
        <path id="Контур_252-3" data-name="Контур 252" d="M1.315,8.343a13.335,13.335,0,0,0,.471-4.45A10.618,10.618,0,0,0,.378,0a11.685,11.685,0,0,0,.937,8.343" transform="translate(11.01 13.653) rotate(115)" fill="none" stroke="#000" stroke-width="0.4"/>
        <path id="Контур_253-3" data-name="Контур 253" d="M1.315,8.343a13.335,13.335,0,0,0,.471-4.45A10.618,10.618,0,0,0,.378,0a11.685,11.685,0,0,0,.937,8.343" transform="translate(8.709 16.331) rotate(135)" fill="none" stroke="#000" stroke-width="0.4"/>
        <path id="Контур_254-3" data-name="Контур 254" d="M1.195,9.837a21.046,21.046,0,0,0,.3-4.591A23.918,23.918,0,0,0,.031,0c-.083,1.624-.1,6.413,1.325,9.919" transform="translate(8.097 20.178) rotate(150)" fill="none" stroke="#000" stroke-linejoin="round" stroke-width="0.4"/>
      </g>
      <g id="Сгруппировать_40-2" data-name="Сгруппировать 40" transform="matrix(-0.999, 0.035, -0.035, -0.999, 12.052, 21.647)">
        <path id="Контур_246-4" data-name="Контур 246" d="M1.315,8.07a12.5,12.5,0,0,0,.471-4.3A10.074,10.074,0,0,0,.378,0a10.966,10.966,0,0,0,.937,8.07" transform="translate(0 2.362)" fill="none" stroke="#000" stroke-width="0.4"/>
        <path id="Контур_247-4" data-name="Контур 247" d="M1.315,8.343a13.335,13.335,0,0,0,.471-4.45A10.618,10.618,0,0,0,.378,0a11.685,11.685,0,0,0,.937,8.343" transform="translate(3.356 0) rotate(17)" fill="none" stroke="#000" stroke-width="0.4"/>
        <path id="Контур_248-4" data-name="Контур 248" d="M1.315,8.343a13.335,13.335,0,0,0,.471-4.45A10.618,10.618,0,0,0,.378,0a11.685,11.685,0,0,0,.937,8.343" transform="translate(6.677 2.931) rotate(45)" fill="none" stroke="#000" stroke-width="0.4"/>
        <path id="Контур_249-4" data-name="Контур 249" d="M1.195,9.837a21.046,21.046,0,0,0,.3-4.591A23.918,23.918,0,0,0,.031,0c-.083,1.624-.1,6.413,1.325,9.919" transform="matrix(0.454, 0.891, -0.891, 0.454, 9.746, 4.703)" fill="none" stroke="#000" stroke-width="0.4"/>
        <path id="Контур_250-4" data-name="Контур 250" d="M1.315,8.07a12.5,12.5,0,0,0,.471-4.3A10.074,10.074,0,0,0,.378,0a10.966,10.966,0,0,0,.937,8.07" transform="translate(10.153 8.039) rotate(81)" fill="none" stroke="#000" stroke-width="0.4"/>
        <path id="Контур_251-4" data-name="Контур 251" d="M1.195,9.837a21.046,21.046,0,0,0,.3-4.591A23.918,23.918,0,0,0,.031,0c-.083,1.624-.1,6.413,1.325,9.919" transform="translate(11.328 11.298) rotate(100)" fill="none" stroke="#000" stroke-width="0.4"/>
        <path id="Контур_252-4" data-name="Контур 252" d="M1.315,8.343a13.335,13.335,0,0,0,.471-4.45A10.618,10.618,0,0,0,.378,0a11.685,11.685,0,0,0,.937,8.343" transform="translate(11.01 13.653) rotate(115)" fill="none" stroke="#000" stroke-width="0.4"/>
        <path id="Контур_253-4" data-name="Контур 253" d="M1.315,8.343a13.335,13.335,0,0,0,.471-4.45A10.618,10.618,0,0,0,.378,0a11.685,11.685,0,0,0,.937,8.343" transform="translate(8.708 16.331) rotate(135)" fill="none" stroke="#000" stroke-width="0.4"/>
        <path id="Контур_254-4" data-name="Контур 254" d="M1.195,9.837a21.046,21.046,0,0,0,.3-4.591A23.918,23.918,0,0,0,.031,0c-.083,1.624-.1,6.413,1.325,9.919" transform="translate(8.097 20.178) rotate(150)" fill="none" stroke="#000" stroke-linejoin="round" stroke-width="0.4"/>
      </g>
    </g>
    <g id="Сгруппировать_42" data-name="Сгруппировать 42" transform="translate(16563.541 5484.953)">
      <g id="Сгруппировать_39-3" data-name="Сгруппировать 39" transform="translate(5.671 0)">
        <path id="Контур_246-5" data-name="Контур 246" d="M15521.992,4046.46a8.03,8.03,0,0,0,.3-2.761,6.481,6.481,0,0,0-.9-2.416,7.022,7.022,0,0,0,.6,5.177" transform="translate(-15521.147 -4039.767)" fill="none" stroke="#000" stroke-width="0.4"/>
        <path id="Контур_247-5" data-name="Контур 247" d="M.844,5.352a8.557,8.557,0,0,0,.3-2.855A6.814,6.814,0,0,0,.242,0a7.5,7.5,0,0,0,.6,5.352" transform="translate(2.153 0) rotate(17)" fill="none" stroke="#000" stroke-width="0.4"/>
        <path id="Контур_248-5" data-name="Контур 248" d="M.844,5.352a8.557,8.557,0,0,0,.3-2.855A6.814,6.814,0,0,0,.242,0a7.5,7.5,0,0,0,.6,5.352" transform="translate(4.284 1.88) rotate(45)" fill="none" stroke="#000" stroke-width="0.4"/>
        <path id="Контур_249-5" data-name="Контур 249" d="M.767,6.311a13.521,13.521,0,0,0,.19-2.945A15.366,15.366,0,0,0,.02,0,16.874,16.874,0,0,0,.87,6.363" transform="matrix(0.454, 0.891, -0.891, 0.454, 6.253, 3.017)" fill="none" stroke="#000" stroke-width="0.4"/>
        <path id="Контур_250-5" data-name="Контур 250" d="M.844,5.177a8.022,8.022,0,0,0,.3-2.761A6.465,6.465,0,0,0,.242,0a7.034,7.034,0,0,0,.6,5.177" transform="translate(6.514 5.157) rotate(81)" fill="none" stroke="#000" stroke-width="0.4"/>
        <path id="Контур_251-5" data-name="Контур 251" d="M.767,6.311a13.521,13.521,0,0,0,.19-2.945A15.366,15.366,0,0,0,.02,0,16.874,16.874,0,0,0,.87,6.363" transform="translate(7.267 7.248) rotate(100)" fill="none" stroke="#000" stroke-width="0.4"/>
        <path id="Контур_252-5" data-name="Контур 252" d="M.844,5.352a8.557,8.557,0,0,0,.3-2.855A6.814,6.814,0,0,0,.242,0a7.5,7.5,0,0,0,.6,5.352" transform="translate(7.064 8.759) rotate(115)" fill="none" stroke="#000" stroke-width="0.4"/>
        <path id="Контур_253-5" data-name="Контур 253" d="M.844,5.352a8.557,8.557,0,0,0,.3-2.855A6.814,6.814,0,0,0,.242,0a7.5,7.5,0,0,0,.6,5.352" transform="translate(5.587 10.477) rotate(135)" fill="none" stroke="#000" stroke-width="0.4"/>
        <path id="Контур_254-5" data-name="Контур 254" d="M.767,6.311a13.521,13.521,0,0,0,.19-2.945A15.366,15.366,0,0,0,.02,0,16.874,16.874,0,0,0,.87,6.363" transform="translate(5.195 12.945) rotate(150)" fill="none" stroke="#000" stroke-linejoin="round" stroke-width="0.4"/>
      </g>
      <g id="Сгруппировать_40-3" data-name="Сгруппировать 40" transform="matrix(-0.999, 0.035, -0.035, -0.999, 7.732, 13.887)">
        <path id="Контур_246-6" data-name="Контур 246" d="M.844,5.177a8.022,8.022,0,0,0,.3-2.761A6.465,6.465,0,0,0,.242,0a7.034,7.034,0,0,0,.6,5.177" transform="translate(0 1.515)" fill="none" stroke="#000" stroke-width="0.4"/>
        <path id="Контур_247-6" data-name="Контур 247" d="M.844,5.352a8.557,8.557,0,0,0,.3-2.855A6.814,6.814,0,0,0,.242,0a7.5,7.5,0,0,0,.6,5.352" transform="translate(2.153 0) rotate(17)" fill="none" stroke="#000" stroke-width="0.4"/>
        <path id="Контур_248-6" data-name="Контур 248" d="M.844,5.352a8.557,8.557,0,0,0,.3-2.855A6.814,6.814,0,0,0,.242,0a7.5,7.5,0,0,0,.6,5.352" transform="translate(4.284 1.88) rotate(45)" fill="none" stroke="#000" stroke-width="0.4"/>
        <path id="Контур_249-6" data-name="Контур 249" d="M.767,6.311a13.521,13.521,0,0,0,.19-2.945A15.366,15.366,0,0,0,.02,0,16.874,16.874,0,0,0,.87,6.363" transform="matrix(0.454, 0.891, -0.891, 0.454, 6.253, 3.017)" fill="none" stroke="#000" stroke-width="0.4"/>
        <path id="Контур_250-6" data-name="Контур 250" d="M.844,5.177a8.022,8.022,0,0,0,.3-2.761A6.465,6.465,0,0,0,.242,0a7.034,7.034,0,0,0,.6,5.177" transform="translate(6.514 5.157) rotate(81)" fill="none" stroke="#000" stroke-width="0.4"/>
        <path id="Контур_251-6" data-name="Контур 251" d="M.767,6.311a13.521,13.521,0,0,0,.19-2.945A15.366,15.366,0,0,0,.02,0,16.874,16.874,0,0,0,.87,6.363" transform="translate(7.267 7.248) rotate(100)" fill="none" stroke="#000" stroke-width="0.4"/>
        <path id="Контур_252-6" data-name="Контур 252" d="M.844,5.352a8.557,8.557,0,0,0,.3-2.855A6.814,6.814,0,0,0,.242,0a7.5,7.5,0,0,0,.6,5.352" transform="translate(7.063 8.759) rotate(115)" fill="none" stroke="#000" stroke-width="0.4"/>
        <path id="Контур_253-6" data-name="Контур 253" d="M.844,5.352a8.557,8.557,0,0,0,.3-2.855A6.814,6.814,0,0,0,.242,0a7.5,7.5,0,0,0,.6,5.352" transform="translate(5.587 10.477) rotate(135)" fill="none" stroke="#000" stroke-width="0.4"/>
        <path id="Контур_254-6" data-name="Контур 254" d="M.767,6.311a13.521,13.521,0,0,0,.19-2.945A15.366,15.366,0,0,0,.02,0,16.874,16.874,0,0,0,.87,6.363" transform="translate(5.195 12.945) rotate(150)" fill="none" stroke="#000" stroke-linejoin="round" stroke-width="0.4"/>
      </g>
    </g>
    <g id="Сгруппировать_44" data-name="Сгруппировать 44" transform="translate(16735.412 5377.261) rotate(-150)">
      <g id="Контур_256" data-name="Контур 256" transform="translate(6.961 6.808)" fill="none">
        <path d="M8.259,16.517A8.259,8.259,0,1,1,8.259,0H17.7a2.36,2.36,0,0,1,2.36,2.359v11.8a2.36,2.36,0,0,1-2.36,2.359Z" stroke="none"/>
        <path d="M 17.69715690612793 16.11745452880859 C 18.77786636352539 16.11745452880859 19.65709686279297 15.23846530914307 19.65709686279297 14.15804481506348 L 19.65709686279297 2.359405279159546 C 19.65709686279297 1.278985142707825 18.77786636352539 0.4000051617622375 17.69715690612793 0.4000051617622375 L 8.258986473083496 0.4000051617622375 C 3.92552638053894 0.4000051617622375 0.3999963402748108 3.925525188446045 0.3999963402748108 8.25898551940918 C 0.3999963402748108 12.59216499328613 3.92552638053894 16.11745452880859 8.258986473083496 16.11745452880859 L 17.69715690612793 16.11745452880859 M 17.69715690612793 16.5174560546875 L 8.258986473083496 16.5174560546875 C 3.697326421737671 16.5174560546875 -3.666687007353175e-06 12.82012557983398 -3.666687007353175e-06 8.25898551940918 C -3.666687007353175e-06 3.697325229644775 3.697326421737671 5.166320988791995e-06 8.258986473083496 5.166320988791995e-06 L 17.69715690612793 5.166320988791995e-06 C 19.00056648254395 5.166320988791995e-06 20.05709648132324 1.056535124778748 20.05709648132324 2.359405279159546 L 20.05709648132324 14.15804481506348 C 20.05709648132324 15.46092510223389 19.00056648254395 16.5174560546875 17.69715690612793 16.5174560546875 Z" stroke="none" fill="#000"/>
      </g>
      <path id="Контур_255" data-name="Контур 255" d="M11.171,0a10.685,10.685,0,0,1,5.157,1.625,10.561,10.561,0,0,1,4.98,9.023,10.752,10.752,0,0,1-4.731,8.861,10.429,10.429,0,0,1-5.93,1.8A10.7,10.7,0,0,1,0,11.189" transform="translate(30.135 15.068) rotate(135)" fill="none" stroke="#000" stroke-width="0.4"/>
    </g>
    <g id="Сгруппировать_48" data-name="Сгруппировать 48" transform="translate(16602.023 5401.812)">
      <g id="Контур_315" data-name="Контур 315" transform="translate(0 15.46)" fill="none">
        <path d="M1.317,0H56.042a1.317,1.317,0,0,1,1.317,1.317V51.108a1.317,1.317,0,0,1-1.317,1.317H1.317A1.317,1.317,0,0,1,0,51.108V1.317A1.317,1.317,0,0,1,1.317,0Z" stroke="none"/>
        <path d="M 1.317092895507812 0.4000015258789062 C 0.8114013671875 0.4000015258789062 0.4000015258789062 0.8114013671875 0.4000015258789062 1.317092895507812 L 0.4000015258789062 51.10772323608398 C 0.4000015258789062 51.61341094970703 0.8114013671875 52.02482223510742 1.317092895507812 52.02482223510742 L 56.04183197021484 52.02482223510742 C 56.54752349853516 52.02482223510742 56.95892333984375 51.61341094970703 56.95892333984375 51.10772323608398 L 56.95892333984375 1.317092895507812 C 56.95892333984375 0.8114013671875 56.54752349853516 0.4000015258789062 56.04183197021484 0.4000015258789062 L 1.317092895507812 0.4000015258789062 M 1.317092895507812 0 L 56.04183197021484 0 C 56.76924133300781 0 57.35892105102539 0.5896835327148438 57.35892105102539 1.317092895507812 L 57.35892105102539 51.10772323608398 C 57.35892105102539 51.83513259887695 56.76924133300781 52.42482376098633 56.04183197021484 52.42482376098633 L 1.317092895507812 52.42482376098633 C 0.5896835327148438 52.42482376098633 3.814697265625e-06 51.83513259887695 3.814697265625e-06 51.10772323608398 L 3.814697265625e-06 1.317092895507812 C 3.814697265625e-06 0.5896835327148438 0.5896835327148438 0 1.317092895507812 0 Z" stroke="none" fill="#000"/>
      </g>
      <path id="Контур_257" data-name="Контур 257" d="M16087.263,3556h-36.876a1.576,1.576,0,0,0-1.012.329,1.664,1.664,0,0,0-.285,1.046l.026,46.993a1.609,1.609,0,0,0,.4,1.074,1.716,1.716,0,0,0,1.064.31l37-.009,5.391-5.489v-38.763Z" transform="translate(-16047.8 -3539.307)" fill="none" stroke="#000" stroke-width="0.4"/>
      <path id="Контур_258" data-name="Контур 258" d="M16119.08,3579.992h8.662a2.021,2.021,0,0,0,1.261-.354,1.582,1.582,0,0,0,.432-1.195l0-18.675a1.927,1.927,0,0,0-.408-1.313,2.231,2.231,0,0,0-1.473-.417l-9.026-.011a1.435,1.435,0,0,0-.914.263,1.208,1.208,0,0,0-.4.883v1.252" transform="translate(-16073.908 -3540.083)" fill="none" stroke="#000" stroke-width="0.4"/>
      <path id="Контур_259" data-name="Контур 259" d="M16116.159,3561.625h-4.611a1.451,1.451,0,0,1-.916-.3,1.622,1.622,0,0,1-.315-.951v-4.256" transform="translate(-16070.987 -3539.351)" fill="none" stroke="#000" stroke-width="0.4"/>
      <path id="Контур_260" data-name="Контур 260" d="M16116.159,3556.117h-4.611a1.449,1.449,0,0,0-.916.3,1.621,1.621,0,0,0-.315.95v4.257" transform="translate(-16070.987 -3495.178)" fill="none" stroke="#000" stroke-width="0.4"/>
      <path id="Контур_261" data-name="Контур 261" d="M16119.08,3558.026h8.662a2.02,2.02,0,0,1,1.261.354,1.581,1.581,0,0,1,.432,1.194l0,18.675a1.926,1.926,0,0,1-.408,1.313,2.233,2.233,0,0,1-1.473.418l-9.026.011a1.434,1.434,0,0,1-.914-.264,1.206,1.206,0,0,1-.4-.883v-1.252" transform="translate(-16073.908 -3514.795)" fill="none" stroke="#000" stroke-width="0.4"/>
      <g id="Сгруппировать_45" data-name="Сгруппировать 45" transform="translate(46.257 67.681)">
        <path id="Контур_262" data-name="Контур 262" d="M16125.948,3528.933v13.878a1.738,1.738,0,0,0,.4,1.186,1.562,1.562,0,0,0,1.146.392h7" transform="translate(-16123.512 -3528.933)" fill="none" stroke="#000" stroke-width="0.4"/>
        <path id="Контур_314" data-name="Контур 314" d="M4.934,0A4.934,4.934,0,1,1,0,4.934,4.934,4.934,0,0,1,4.934,0Z" transform="translate(0 1.85)" fill="none" stroke="#000" stroke-width="0.4"/>
        <path id="Контур_313" data-name="Контур 313" d="M1.234,0A1.234,1.234,0,1,1,0,1.234,1.234,1.234,0,0,1,1.234,0Z" transform="translate(3.701 5.551)" fill="none" stroke="#000" stroke-width="0.4"/>
      </g>
      <g id="Сгруппировать_46" data-name="Сгруппировать 46" transform="translate(46.257)">
        <path id="Контур_262-2" data-name="Контур 262" d="M16125.948,3544.394v-13.878a1.739,1.739,0,0,1,.4-1.187,1.562,1.562,0,0,1,1.146-.392h7" transform="translate(-16123.512 -3528.934)" fill="none" stroke="#000" stroke-width="0.4"/>
        <path id="Контур_312" data-name="Контур 312" d="M4.934,0A4.934,4.934,0,1,1,0,4.934,4.934,4.934,0,0,1,4.934,0Z" transform="translate(0 3.741)" fill="none" stroke="#000" stroke-width="0.4"/>
        <path id="Контур_311" data-name="Контур 311" d="M1.234,0A1.234,1.234,0,1,1,0,1.234,1.234,1.234,0,0,1,1.234,0Z" transform="translate(3.701 7.442)" fill="none" stroke="#000" stroke-width="0.4"/>
      </g>
    </g>
    <path id="Контур_263" data-name="Контур 263" d="M0,0V7.37s5.472,2.918,14.224,2.918S28.332,7.37,28.332,7.37V0" transform="translate(16562.002 5417.21) rotate(-90)" fill="none" stroke="#000" stroke-width="0.4"/>
    <path id="Контур_264" data-name="Контур 264" d="M0,0H25.417V1.955H0Z" transform="translate(16562.258 5415.894) rotate(-90)" fill="none" stroke="#000" stroke-width="0.4"/>
    <g id="Сгруппировать_49" data-name="Сгруппировать 49" transform="translate(16568.912 5351.805) rotate(-30)">
      <g id="Контур_256-2" data-name="Контур 256" transform="translate(6.961 6.808)" fill="none">
        <path d="M8.259,16.517A8.259,8.259,0,1,1,8.259,0H17.7a2.36,2.36,0,0,1,2.36,2.359v11.8a2.36,2.36,0,0,1-2.36,2.359Z" stroke="none"/>
        <path d="M 17.69715690612793 16.11745452880859 C 18.77786636352539 16.11745452880859 19.65709686279297 15.23846530914307 19.65709686279297 14.15804481506348 L 19.65709686279297 2.359405279159546 C 19.65709686279297 1.278985142707825 18.77786636352539 0.4000051617622375 17.69715690612793 0.4000051617622375 L 8.258986473083496 0.4000051617622375 C 3.92552638053894 0.4000051617622375 0.3999963402748108 3.925525188446045 0.3999963402748108 8.25898551940918 C 0.3999963402748108 12.59216499328613 3.92552638053894 16.11745452880859 8.258986473083496 16.11745452880859 L 17.69715690612793 16.11745452880859 M 17.69715690612793 16.5174560546875 L 8.258986473083496 16.5174560546875 C 3.697326421737671 16.5174560546875 -3.666687007353175e-06 12.82012557983398 -3.666687007353175e-06 8.25898551940918 C -3.666687007353175e-06 3.697325229644775 3.697326421737671 5.166320988791995e-06 8.258986473083496 5.166320988791995e-06 L 17.69715690612793 5.166320988791995e-06 C 19.00056648254395 5.166320988791995e-06 20.05709648132324 1.056535124778748 20.05709648132324 2.359405279159546 L 20.05709648132324 14.15804481506348 C 20.05709648132324 15.46092510223389 19.00056648254395 16.5174560546875 17.69715690612793 16.5174560546875 Z" stroke="none" fill="#000"/>
      </g>
      <path id="Контур_255-2" data-name="Контур 255" d="M11.171,0a10.685,10.685,0,0,1,5.157,1.625,10.561,10.561,0,0,1,4.98,9.023,10.752,10.752,0,0,1-4.731,8.861,10.429,10.429,0,0,1-5.93,1.8A10.7,10.7,0,0,1,0,11.189" transform="translate(30.135 15.068) rotate(135)" fill="none" stroke="#000" stroke-width="0.4"/>
    </g>
    <path id="Контур_266" data-name="Контур 266" d="M16704,3925.312v12.353" transform="translate(-77.021 1565.067)" fill="none" stroke="#000" stroke-width="0.4"/>
  </g>
</svg>
