<svg xmlns="http://www.w3.org/2000/svg" width="483" height="590.991" viewBox="0 0 483 590.991">
  <g id="Сгруппировать_662" data-name="Сгруппировать 662" transform="translate(0 0)">
    <path id="Контур_692" data-name="Контур 692" d="M13774.885,2472.255v-67.9l-59.758-35.97h-110.1l-55.787,34.155v88.337l2.273,416.967H14012.2l-.777-428.085H13762.4Z" transform="translate(-13539 -2360.595)" fill="#e6e6e6"/>
    <g id="Сгруппировать_58" data-name="Сгруппировать 58" transform="translate(14 462.743)">
      <g id="Сгруппировать_141" data-name="Сгруппировать 141" transform="translate(40 0)">
        <path id="Контур_693" data-name="Контур 693" d="M13598.166,2452.9v-80.257" transform="translate(-13588.527 -2372.438)" fill="none" stroke="#707070" stroke-width="0.5"/>
        <path id="Контур_694" data-name="Контур 694" d="M13598.166,2435.712v-63.071" transform="translate(-13577.942 -2371.315)" fill="none" stroke="#707070" stroke-width="0.5"/>
        <path id="Контур_695" data-name="Контур 695" d="M13598.166,2435.712v-63.071" transform="translate(-13567.359 -2372.641)" fill="none" stroke="#707070" stroke-width="0.5"/>
        <path id="Контур_696" data-name="Контур 696" d="M13598.166,2435.712v-63.071" transform="translate(-13556.775 -2371.315)" fill="none" stroke="#707070" stroke-width="0.5"/>
        <path id="Контур_697" data-name="Контур 697" d="M13598.166,2435.712v-63.071" transform="translate(-13546.19 -2372.641)" fill="none" stroke="#707070" stroke-width="0.5"/>
        <path id="Контур_698" data-name="Контур 698" d="M13598.166,2435.712v-63.071" transform="translate(-13535.606 -2372.641)" fill="none" stroke="#707070" stroke-width="0.5"/>
        <path id="Контур_699" data-name="Контур 699" d="M13598.166,2435.712v-63.071" transform="translate(-13525.171 -2372.641)" fill="none" stroke="#707070" stroke-width="0.5"/>
        <path id="Контур_700" data-name="Контур 700" d="M13598.166,2435.712v-63.072" transform="translate(-13515.533 -2371.315)" fill="none" stroke="#707070" stroke-width="0.5"/>
        <path id="Контур_701" data-name="Контур 701" d="M0,82.633V0" transform="translate(82.633 9.453) rotate(90)" fill="none" stroke="#707070" stroke-width="0.5"/>
        <path id="Контур_702" data-name="Контур 702" d="M0,82.633V0" transform="translate(82.994 18.638) rotate(90)" fill="none" stroke="#707070" stroke-width="0.5"/>
        <path id="Контур_703" data-name="Контур 703" d="M0,82.633V0" transform="translate(82.994 27.843) rotate(90)" fill="none" stroke="#707070" stroke-width="0.5"/>
        <path id="Контур_704" data-name="Контур 704" d="M0,82.633V0" transform="translate(82.633 37.028) rotate(90)" fill="none" stroke="#707070" stroke-width="0.5"/>
        <path id="Контур_705" data-name="Контур 705" d="M0,82.633V0" transform="translate(82.633 46.028) rotate(90)" fill="none" stroke="#707070" stroke-width="0.5"/>
        <path id="Контур_706" data-name="Контур 706" d="M0,82.633V0" transform="translate(82.633 55.212) rotate(90)" fill="none" stroke="#707070" stroke-width="0.5"/>
        <path id="Контур_707" data-name="Контур 707" d="M0,15.949V0" transform="translate(16.023 64.397) rotate(90)" fill="none" stroke="#707070" stroke-width="0.5"/>
        <path id="Контур_708" data-name="Контур 708" d="M0,16.023V0" transform="translate(16.023 72.405) rotate(90)" fill="none" stroke="#707070" stroke-width="0.5"/>
      </g>
      <path id="Контур_389" data-name="Контур 389" d="M1,42H39a1,1,0,0,0,1-1V1a1,1,0,0,0-1-1H1A1,1,0,0,0,0,1V41A1,1,0,0,0,1,42Z" transform="translate(0 0.269)" fill="#fff" stroke="#000" stroke-width="0.5"/>
      <path id="Контур_390" data-name="Контур 390" d="M1.175,13.321a1.175,1.175,0,0,0,1.175-1.175V1.175A1.175,1.175,0,0,0,0,1.175v10.97A1.175,1.175,0,0,0,1.175,13.321Z" transform="translate(1.785 21.851) rotate(-90)" fill="none" stroke="#000" stroke-width="0.5"/>
      <g id="Контур_391" data-name="Контур 391" transform="translate(1 25.769) rotate(-90)" fill="none">
        <path d="M1.567,3.134A1.567,1.567,0,1,0,0,1.567,1.567,1.567,0,0,0,1.567,3.134Z" stroke="none"/>
        <path d="M 1.567166447639465 2.63433575630188 C 2.155606508255005 2.63433575630188 2.634336471557617 2.155605792999268 2.634336471557617 1.567165851593018 C 2.634336471557617 0.9787258505821228 2.155606508255005 0.4999958574771881 1.567166447639465 0.4999958574771881 C 0.9787264466285706 0.4999958574771881 0.4999964535236359 0.9787258505821228 0.4999964535236359 1.567165851593018 C 0.4999964535236359 2.155605792999268 0.9787264466285706 2.63433575630188 1.567166447639465 2.63433575630188 M 1.567166447639465 3.13433575630188 C 0.7016464471817017 3.13433575630188 -3.552360567482538e-06 2.432685852050781 -3.552360567482538e-06 1.567165851593018 C -3.552360567482538e-06 0.7016458511352539 0.7016464471817017 -4.148406787862768e-06 1.567166447639465 -4.148406787862768e-06 C 2.432686328887939 -4.148406787862768e-06 3.134336471557617 0.7016458511352539 3.134336471557617 1.567165851593018 C 3.134336471557617 2.432685852050781 2.432686328887939 3.13433575630188 1.567166447639465 3.13433575630188 Z" stroke="none" fill="#000"/>
      </g>
      <g id="Контур_392" data-name="Контур 392" transform="translate(1 18.716) rotate(-90)" fill="none">
        <path d="M1.567,3.134A1.567,1.567,0,1,0,0,1.567,1.567,1.567,0,0,0,1.567,3.134Z" stroke="none"/>
        <path d="M 1.567166447639465 2.63433575630188 C 2.155606508255005 2.63433575630188 2.634336471557617 2.155605792999268 2.634336471557617 1.567165851593018 C 2.634336471557617 0.9787258505821228 2.155606508255005 0.4999958574771881 1.567166447639465 0.4999958574771881 C 0.9787264466285706 0.4999958574771881 0.4999964535236359 0.9787258505821228 0.4999964535236359 1.567165851593018 C 0.4999964535236359 2.155605792999268 0.9787264466285706 2.63433575630188 1.567166447639465 2.63433575630188 M 1.567166447639465 3.13433575630188 C 0.7016464471817017 3.13433575630188 -3.552360567482538e-06 2.432685852050781 -3.552360567482538e-06 1.567165851593018 C -3.552360567482538e-06 0.7016458511352539 0.7016464471817017 -4.148406787862768e-06 1.567166447639465 -4.148406787862768e-06 C 2.432686328887939 -4.148406787862768e-06 3.134336471557617 0.7016458511352539 3.134336471557617 1.567165851593018 C 3.134336471557617 2.432685852050781 2.432686328887939 3.13433575630188 1.567166447639465 3.13433575630188 Z" stroke="none" fill="#000"/>
      </g>
      <path id="Контур_393" data-name="Контур 393" d="M16329.912,4094.468v13.268a1.769,1.769,0,0,0,.474,1.309,1.83,1.83,0,0,0,1.23.436l21.546-.155a3.835,3.835,0,0,0,2.906-1,3.438,3.438,0,0,0,1.076-2.652v-24.376a4,4,0,0,0-1.076-2.868,4.471,4.471,0,0,0-2.9-1.021l-21.488.142a2.34,2.34,0,0,0-1.3.336,1.592,1.592,0,0,0-.49,1.13l.021,12.854" transform="translate(-16323 -4072.617)" fill="none" stroke="#000" stroke-width="0.5"/>
    </g>
    <g id="Сгруппировать_141-2" data-name="Сгруппировать 141" transform="translate(11.664 334.596)">
      <path id="Контур_693-2" data-name="Контур 693" d="M13598.166,2452.9v-80.257" transform="translate(-13546.191 -2372.439)" fill="none" stroke="#707070" stroke-width="0.5"/>
      <path id="Контур_709" data-name="Контур 709" d="M13598.166,2452.9v-80.257" transform="translate(-13598.166 -2372.439)" fill="none" stroke="#707070" stroke-width="0.5"/>
      <path id="Контур_694-2" data-name="Контур 694" d="M13598.166,2442.478v-69.837" transform="translate(-13535.606 -2371.315)" fill="none" stroke="#707070" stroke-width="0.5"/>
      <path id="Контур_710" data-name="Контур 710" d="M13598.166,2442.478v-69.837" transform="translate(-13587.581 -2371.315)" fill="none" stroke="#707070" stroke-width="0.5"/>
      <path id="Контур_695-2" data-name="Контур 695" d="M13598.166,2442.478v-69.837" transform="translate(-13525.023 -2372.641)" fill="none" stroke="#707070" stroke-width="0.5"/>
      <path id="Контур_711" data-name="Контур 711" d="M13598.166,2442.478v-69.837" transform="translate(-13576.998 -2372.641)" fill="none" stroke="#707070" stroke-width="0.5"/>
      <path id="Контур_696-2" data-name="Контур 696" d="M13598.166,2442.478v-69.837" transform="translate(-13514.438 -2371.315)" fill="none" stroke="#707070" stroke-width="0.5"/>
      <path id="Контур_712" data-name="Контур 712" d="M13598.166,2442.478v-69.837" transform="translate(-13566.413 -2371.315)" fill="none" stroke="#707070" stroke-width="0.5"/>
      <path id="Контур_697-2" data-name="Контур 697" d="M13598.166,2442.478v-69.837" transform="translate(-13503.854 -2372.641)" fill="none" stroke="#707070" stroke-width="0.5"/>
      <path id="Контур_713" data-name="Контур 713" d="M13598.166,2442.478v-69.837" transform="translate(-13555.828 -2372.641)" fill="none" stroke="#707070" stroke-width="0.5"/>
      <path id="Контур_698-2" data-name="Контур 698" d="M13598.166,2442.478v-69.837" transform="translate(-13493.269 -2372.641)" fill="none" stroke="#707070" stroke-width="0.5"/>
      <path id="Контур_699-2" data-name="Контур 699" d="M13598.166,2442.478v-69.837" transform="translate(-13482.833 -2372.641)" fill="none" stroke="#707070" stroke-width="0.5"/>
      <path id="Контур_700-2" data-name="Контур 700" d="M13598.166,2441.153v-68.512" transform="translate(-13473.197 -2371.315)" fill="none" stroke="#707070" stroke-width="0.5"/>
      <path id="Контур_701-2" data-name="Контур 701" d="M0,122.891V0" transform="translate(124.969 9.453) rotate(90)" fill="none" stroke="#707070" stroke-width="0.5"/>
      <path id="Контур_702-2" data-name="Контур 702" d="M0,122.891V0" transform="translate(125.33 18.638) rotate(90)" fill="none" stroke="#707070" stroke-width="0.5"/>
      <path id="Контур_703-2" data-name="Контур 703" d="M0,122.891V0" transform="translate(125.33 27.843) rotate(90)" fill="none" stroke="#707070" stroke-width="0.5"/>
      <path id="Контур_704-2" data-name="Контур 704" d="M0,122.891V0" transform="translate(124.969 37.027) rotate(90)" fill="none" stroke="#707070" stroke-width="0.5"/>
      <path id="Контур_705-2" data-name="Контур 705" d="M0,122.891V0" transform="translate(124.969 46.027) rotate(90)" fill="none" stroke="#707070" stroke-width="0.5"/>
      <path id="Контур_706-2" data-name="Контур 706" d="M0,122.891V0" transform="translate(124.969 55.212) rotate(90)" fill="none" stroke="#707070" stroke-width="0.5"/>
      <path id="Контур_707-2" data-name="Контур 707" d="M0,122.816V0" transform="translate(124.969 64.396) rotate(90)" fill="none" stroke="#707070" stroke-width="0.5"/>
      <path id="Контур_708-2" data-name="Контур 708" d="M0,16.023V0" transform="translate(58.359 72.405) rotate(90)" fill="none" stroke="#707070" stroke-width="0.5"/>
    </g>
    <path id="Контур_389-2" data-name="Контур 389" d="M1,42H39a1,1,0,0,0,1-1V1a1,1,0,0,0-1-1H1A1,1,0,0,0,0,1V41A1,1,0,0,0,1,42Z" transform="translate(14 463.012)" fill="#fff" stroke="#000" stroke-width="0.5"/>
    <path id="Контур_390-2" data-name="Контур 390" d="M1.175,13.321a1.175,1.175,0,0,0,1.175-1.175V1.175A1.175,1.175,0,0,0,0,1.175v10.97A1.175,1.175,0,0,0,1.175,13.321Z" transform="translate(15.785 484.594) rotate(-90)" fill="none" stroke="#000" stroke-width="0.5"/>
    <g id="Контур_391-2" data-name="Контур 391" transform="translate(15 488.512) rotate(-90)" fill="none">
      <path d="M1.567,3.134A1.567,1.567,0,1,0,0,1.567,1.567,1.567,0,0,0,1.567,3.134Z" stroke="none"/>
      <path d="M 1.567166447639465 2.63433575630188 C 2.155606508255005 2.63433575630188 2.634336471557617 2.155605792999268 2.634336471557617 1.567165851593018 C 2.634336471557617 0.9787258505821228 2.155606508255005 0.4999958574771881 1.567166447639465 0.4999958574771881 C 0.9787264466285706 0.4999958574771881 0.4999964535236359 0.9787258505821228 0.4999964535236359 1.567165851593018 C 0.4999964535236359 2.155605792999268 0.9787264466285706 2.63433575630188 1.567166447639465 2.63433575630188 M 1.567166447639465 3.13433575630188 C 0.7016464471817017 3.13433575630188 -3.552360567482538e-06 2.432685852050781 -3.552360567482538e-06 1.567165851593018 C -3.552360567482538e-06 0.7016458511352539 0.7016464471817017 -4.148406787862768e-06 1.567166447639465 -4.148406787862768e-06 C 2.432686328887939 -4.148406787862768e-06 3.134336471557617 0.7016458511352539 3.134336471557617 1.567165851593018 C 3.134336471557617 2.432685852050781 2.432686328887939 3.13433575630188 1.567166447639465 3.13433575630188 Z" stroke="none" fill="#000"/>
    </g>
    <g id="Контур_392-2" data-name="Контур 392" transform="translate(15 481.459) rotate(-90)" fill="none">
      <path d="M1.567,3.134A1.567,1.567,0,1,0,0,1.567,1.567,1.567,0,0,0,1.567,3.134Z" stroke="none"/>
      <path d="M 1.567166447639465 2.63433575630188 C 2.155606508255005 2.63433575630188 2.634336471557617 2.155605792999268 2.634336471557617 1.567165851593018 C 2.634336471557617 0.9787258505821228 2.155606508255005 0.4999958574771881 1.567166447639465 0.4999958574771881 C 0.9787264466285706 0.4999958574771881 0.4999964535236359 0.9787258505821228 0.4999964535236359 1.567165851593018 C 0.4999964535236359 2.155605792999268 0.9787264466285706 2.63433575630188 1.567166447639465 2.63433575630188 M 1.567166447639465 3.13433575630188 C 0.7016464471817017 3.13433575630188 -3.552360567482538e-06 2.432685852050781 -3.552360567482538e-06 1.567165851593018 C -3.552360567482538e-06 0.7016458511352539 0.7016464471817017 -4.148406787862768e-06 1.567166447639465 -4.148406787862768e-06 C 2.432686328887939 -4.148406787862768e-06 3.134336471557617 0.7016458511352539 3.134336471557617 1.567165851593018 C 3.134336471557617 2.432685852050781 2.432686328887939 3.13433575630188 1.567166447639465 3.13433575630188 Z" stroke="none" fill="#000"/>
    </g>
    <path id="Контур_393-2" data-name="Контур 393" d="M16329.912,4094.468v13.268a1.769,1.769,0,0,0,.474,1.309,1.83,1.83,0,0,0,1.23.436l21.546-.155a3.835,3.835,0,0,0,2.906-1,3.438,3.438,0,0,0,1.076-2.652v-24.376a4,4,0,0,0-1.076-2.868,4.471,4.471,0,0,0-2.9-1.021l-21.488.142a2.34,2.34,0,0,0-1.3.336,1.592,1.592,0,0,0-.49,1.13l.021,12.854" transform="translate(-16309 -3609.874)" fill="none" stroke="#000" stroke-width="0.5"/>
    <path id="Контур_342" data-name="Контур 342" d="M0,445.868H14V0H0Z" transform="translate(469 111.132)"/>
    <path id="Контур_347" data-name="Контур 347" d="M0,268.185H14V0H0Z" transform="translate(213.409 557) rotate(-90)"/>
    <path id="Контур_348" data-name="Контур 348" d="M0,148.093H14V0H0Z" transform="translate(0 557) rotate(-90)"/>
    <path id="Контур_345" data-name="Контур 345" d="M0,445.868H14V0H0Z" transform="translate(0 111.132)"/>
    <path id="Контур_343" data-name="Контур 343" d="M16738.844,3663.372v7.479h5.109v22.284h43.664V3670.3h4.43v-6.925Z" transform="translate(-16310.453 -3552.24)"/>
    <path id="Контур_346" data-name="Контур 346" d="M16792.047,3663.372v7.479h-5.109v22.284h-43.664V3670.3h-4.43v-6.925Z" transform="translate(-16738.844 -3552.24)"/>
    <path id="Контур_344" data-name="Контур 344" d="M16738.844,3663.372v6.925h5.109v22.838h82.764V3670.3h4.428v-6.925Z" transform="translate(-16545.5 -3552.24)"/>
    <path id="Контур_349" data-name="Контур 349" d="M0,147.213H9V0H0Z" transform="translate(243.994 429) rotate(180)"/>
    <path id="Контур_350" data-name="Контур 350" d="M0,55.161H9V0H0Z" transform="translate(243.994 546) rotate(180)"/>
    <path id="Контур_351" data-name="Контур 351" d="M0,19.716H9V0H0Z" transform="translate(136.994 546) rotate(180)"/>
    <path id="Контур_352" data-name="Контур 352" d="M0,53.446H9V0H0Z" transform="translate(136.994 463.012) rotate(180)"/>
    <path id="Контур_373" data-name="Контур 373" d="M0,7.645H9V0H0Z" transform="translate(136.994 346.866) rotate(180)"/>
    <path id="Контур_355" data-name="Контур 355" d="M0,23.161H9V0H0Z" transform="translate(243.994 337.866) rotate(90)"/>
    <path id="Контур_356" data-name="Контур 356" d="M0,30.783H9V0H0Z" transform="translate(158.777 334.721) rotate(90)"/>
    <path id="Контур_354" data-name="Контур 354" d="M0,51.434H9V0H0Z" transform="translate(243.994 190) rotate(180)"/>
    <path id="Контур_353" data-name="Контур 353" d="M0,125.541H9V0H0Z" transform="translate(11.453 413.066) rotate(-90)"/>
    <path id="Контур_357" data-name="Контур 357" d="M0,86.733H9.275V0H0Z" transform="translate(243.995 126.013) rotate(180)"/>
    <path id="Контур_362" data-name="Контур 362" d="M0,13.3H75V0H0Z" transform="translate(13.299 39.281) rotate(90)"/>
    <path id="Контур_363" data-name="Контур 363" d="M175.454,37.794H68.542L4.409,0,0,7.794l64.686,39H178.331L244,7.794,239.586,0Z" transform="translate(243.995 46.794) rotate(180)"/>
    <path id="Контур_365" data-name="Контур 365" d="M16711.117,3663.372v6.614h7.232V3691.8h156.406v-21.812h6.268v-6.614Z" transform="translate(-16437.645 -3551.577)" fill="none" stroke="#000" stroke-width="0.5"/>
    <path id="Контур_366" data-name="Контур 366" d="M16360.146,3670.232h166.433" transform="translate(-16083.198 -3551.961)" fill="none" stroke="#000" stroke-width="0.5"/>
    <path id="Контур_367" data-name="Контур 367" d="M16831.145,3663.372v6.759h-5.109v22.288h-110.49v-22.288h-4.428v-6.759Z" transform="translate(-16709.596 -3551.524)" fill="none" stroke="#000" stroke-width="0.5"/>
    <path id="Контур_368" data-name="Контур 368" d="M16446.473,3671.475h-86.328" transform="translate(-16326.05 -3552.863)" fill="none" stroke="#000" stroke-width="0.5"/>
    <path id="Контур_369" data-name="Контур 369" d="M0,110H9V0H0Z" transform="translate(13.494 334.721) rotate(-90)"/>
    <path id="Контур_372" data-name="Контур 372" d="M0,120.994H9V0H0Z" transform="translate(7 297.721) rotate(-90)"/>
    <path id="Контур_370" data-name="Контур 370" d="M0,37H9V0H0Z" transform="translate(118.994 297.721)"/>
    <path id="Контур_371" data-name="Контур 371" d="M16326.518,3934.979h95.574v15.146l-2.99-12.11Z" transform="translate(-16308.506 -3629.383)"/>
    <path id="Контур_374" data-name="Контур 374" d="M0,0H3V62H0Z" transform="translate(192.237 588.869) rotate(135)"/>
    <path id="Контур_375" data-name="Контур 375" d="M91.229,37.569A45.536,45.536,0,0,1,92,46,46.058,46.058,0,0,1,70.428,84.949" transform="translate(120.409 505.431)" fill="none" stroke="#000" stroke-width="0.5"/>
    <path id="Контур_376" data-name="Контур 376" d="M0,0H3V58H0Z" transform="translate(190.96 294.832) rotate(-31)"/>
    <path id="Контур_377" data-name="Контур 377" d="M0,0A42.506,42.506,0,0,1,28.918,40.371a42.921,42.921,0,0,1-1.949,12.775" transform="translate(161.467 344.746) rotate(-121)" fill="none" stroke="#000" stroke-width="0.5"/>
    <path id="Контур_378" data-name="Контур 378" d="M0,0H3V62H0Z" transform="translate(173.864 484.241) rotate(45)"/>
    <path id="Контур_380" data-name="Контур 380" d="M0,56.813H2.749V0H0Z" transform="translate(129.242 344.353) rotate(-45)"/>
    <path id="Контур_379" data-name="Контур 379" d="M20.8,0a45.536,45.536,0,0,1,.771,8.431A46.058,46.058,0,0,1,0,47.38" transform="translate(127.994 485.641) rotate(-90)" fill="none" stroke="#000" stroke-width="0.5"/>
    <path id="Контур_381" data-name="Контур 381" d="M19.061,43.416a41.726,41.726,0,0,0,.706-7.725A42.2,42.2,0,0,0,0,0" transform="translate(170.799 383.243) rotate(90)" fill="none" stroke="#000" stroke-width="0.5"/>
    <g id="Сгруппировать_57" data-name="Сгруппировать 57" transform="translate(14 352.451)">
      <g id="Контур_382" data-name="Контур 382" transform="translate(17.007 31.753) rotate(-90)" fill="#fff">
        <path d="M 14.02140808105469 32.38198471069336 C 11.03915786743164 32.38198471069336 8.186138153076172 30.77650451660156 5.770787715911865 27.73909378051758 C 3.489517688751221 24.87031364440918 1.7739577293396 20.89860343933105 0.9401577711105347 16.55560493469238 C 0.3812677562236786 13.64456462860107 0.1704477667808533 11.42214393615723 0.2767077684402466 9.561524391174316 C 0.4093077480792999 7.239664077758789 1.03759777545929 5.428604125976562 2.197467803955078 4.024864196777344 C 4.296277523040771 1.484774231910706 8.163928031921387 0.2500042617321014 14.02140808105469 0.2500042617321014 C 19.99398803710938 0.2500042617321014 23.90690803527832 1.502834320068359 25.98375701904297 4.080094337463379 C 27.10971832275391 5.477344036102295 27.70397758483887 7.269064426422119 27.80047798156738 9.557614326477051 C 27.88011741638184 11.44614410400391 27.62521743774414 13.66789436340332 26.99828720092773 16.54959487915039 C 26.00870704650879 21.09834480285645 24.3212776184082 24.99312400817871 22.11842727661133 27.81289482116699 C 19.78328704833984 30.80202484130859 16.98337745666504 32.38198471069336 14.02140808105469 32.38198471069336 Z" stroke="none"/>
        <path d="M 14.02140808105469 32.13198471069336 C 16.90360832214355 32.13198471069336 19.6353874206543 30.58524513244629 21.92141723632812 27.65899467468262 C 24.10127830505371 24.86865425109863 25.77235794067383 21.00870513916016 26.75400733947754 16.4964542388916 C 27.37625694274902 13.63622379302979 27.62941741943359 11.4347038269043 27.55070686340332 9.568154335021973 C 27.45652770996094 7.334934234619141 26.88030815124512 5.591084480285645 25.78909683227539 4.236954212188721 C 23.76274681091309 1.722374320030212 19.91350746154785 0.5000042915344238 14.02140808105469 0.5000042915344238 C 8.243147850036621 0.5000042915344238 4.438547611236572 1.705084204673767 2.390187740325928 4.184104442596436 C 1.265437722206116 5.545334339141846 0.6557577848434448 7.308964252471924 0.5263077616691589 9.575774192810059 C 0.4212477505207062 11.41528415679932 0.6307677626609802 13.61819458007812 1.185667753219604 16.50847434997559 C 2.012007713317871 20.81254386901855 3.709857702255249 24.74573516845703 5.966457843780518 27.58349418640137 C 8.332707405090332 30.55914497375488 11.11805820465088 32.13198471069336 14.02140808105469 32.13198471069336 M 14.02140808105469 32.63198471069336 C 7.589077949523926 32.63198471069336 2.372537851333618 25.34230422973633 0.6946377754211426 16.60274505615234 C -0.9832622408866882 7.863184452056885 -0.6839622259140015 4.262695256329607e-06 14.02140808105469 4.262695256329607e-06 C 28.72677803039551 4.262695256329607e-06 29.18572807312012 7.670914173126221 27.24257850646973 16.60274505615234 C 25.2994384765625 25.53458404541016 20.45373725891113 32.63198471069336 14.02140808105469 32.63198471069336 Z" stroke="none" fill="#000"/>
      </g>
      <path id="Контур_383" data-name="Контур 383" d="M0,5.3V0H17.855V5.3" transform="translate(13.718 26.845) rotate(-90)" fill="none" stroke="#000" stroke-width="0.5"/>
      <path id="Контур_384" data-name="Контур 384" d="M0,0V9.256a4.335,4.335,0,0,0,1.272,3.116,4.037,4.037,0,0,0,3.066,1.344h27.24a4.239,4.239,0,0,0,2.958-1.344,4.643,4.643,0,0,0,1.38-3.116V0" transform="translate(0 35.92) rotate(-90)" fill="#fff" stroke="#000" stroke-width="0.5"/>
    </g>
    <g id="Контур_385" data-name="Контур 385" transform="translate(13.494 411.012)" fill="#fff">
      <path d="M 116.2793045043945 51.75002670288086 L 0.2500055730342865 51.75002670288086 L 0.2500055730342865 0.2499990612268448 L 116.2793045043945 0.2499990612268448 L 116.2793045043945 51.75002670288086 Z" stroke="none"/>
      <path d="M 116.029296875 51.50003051757812 L 116.029296875 0.4999979734420776 L 0.5000022649765015 0.4999979734420776 L 0.5000022649765015 51.50003051757812 L 116.029296875 51.50003051757812 M 116.529296875 52.00003051757812 L 2.283653884660453e-06 52.00003051757812 L 2.283653884660453e-06 -2.03317495106603e-06 L 116.529296875 -2.03317495106603e-06 L 116.529296875 52.00003051757812 Z" stroke="none" fill="#000"/>
    </g>
    <g id="Контур_386" data-name="Контур 386" transform="translate(19.023 418.012)" fill="none">
      <path d="M77.5,0H7A7,7,0,0,0,0,7V30a7,7,0,0,0,7,7H78a7.076,7.076,0,0,0,.795-.045A18.5,18.5,0,0,0,78.8.045,7.076,7.076,0,0,0,78,0Z" stroke="none"/>
      <path d="M 7.000205993652344 0.4999961853027344 C 3.415977478027344 0.4999961853027344 0.5 3.415973663330078 0.5 7.000198364257812 L 0.5 29.99971008300781 C 0.5 33.58393478393555 3.415977478027344 36.49990844726562 7.000205993652344 36.49990844726562 L 78.00030517578125 36.49990844726562 C 78.24684143066406 36.49990844726562 78.49537658691406 36.48594665527344 78.739013671875 36.45842361450195 L 78.76066589355469 36.45644760131836 C 83.29888916015625 36.14269638061523 87.51699066162109 34.13552093505859 90.637939453125 30.80467224121094 C 93.77347564697266 27.45824813842773 95.50030517578125 23.08819770812988 95.50030517578125 18.49950981140137 C 95.50030517578125 13.91120910644531 93.77347564697266 9.541421890258789 90.637939453125 6.195135116577148 C 87.51695251464844 2.864360809326172 83.29885101318359 0.8572349548339844 78.76066589355469 0.5434837341308594 L 78.73899078369141 0.5415115356445312 C 78.49533081054688 0.5139617919921875 78.24680328369141 0.4999961853027344 78.00030517578125 0.4999961853027344 L 7.000205993652344 0.4999961853027344 M 7.000205993652344 -3.814697265625e-06 L 78.00030517578125 -3.814697265625e-06 C 78.26902770996094 -3.814697265625e-06 78.5343017578125 0.01518630981445312 78.79515075683594 0.04467391967773438 C 88.40867614746094 0.7093086242675781 96.00030517578125 8.717971801757812 96.00030517578125 18.49950981140137 C 96.00030517578125 28.28190994262695 88.40867614746094 36.29062271118164 78.79515075683594 36.95526123046875 C 78.5343017578125 36.98473358154297 78.26902770996094 36.99990844726562 78.00030517578125 36.99990844726562 L 7.000205993652344 36.99990844726562 C 3.1337890625 36.99990844726562 0 33.86611175537109 0 29.99971008300781 L 0 7.000198364257812 C 0 3.133796691894531 3.1337890625 -3.814697265625e-06 7.000205993652344 -3.814697265625e-06 Z" stroke="none" fill="#000"/>
    </g>
    <path id="Контур_387" data-name="Контур 387" d="M1.5,3A1.5,1.5,0,1,0,0,1.5,1.5,1.5,0,0,0,1.5,3Z" transform="translate(26.023 435.012)" fill="none" stroke="#000" stroke-width="0.5"/>
    <path id="Контур_388" data-name="Контур 388" d="M16435.5,4166.127V4114" transform="translate(-16311.977 -3703.115)" fill="none" stroke="#000" stroke-width="0.5"/>
    <g id="Сгруппировать_59" data-name="Сгруппировать 59" transform="translate(54 505.03) rotate(90)">
      <path id="Контур_200" data-name="Контур 200" d="M.961,40H37.48a.981.981,0,0,0,.961-1V1a.981.981,0,0,0-.961-1H.961A.981.981,0,0,0,0,1V39A.981.981,0,0,0,.961,40Z" fill="#fff" stroke="#000" stroke-width="0.5"/>
      <path id="Контур_190" data-name="Контур 190" d="M0,0H39.62" transform="translate(0 32.679)" fill="none" stroke="#000" stroke-width="0.5"/>
      <path id="Контур_199" data-name="Контур 199" d="M12.5,25A12.5,12.5,0,1,0,0,12.5,12.5,12.5,0,0,0,12.5,25Z" transform="translate(7 4)" fill="none" stroke="#000" stroke-width="0.5"/>
      <path id="Контур_198" data-name="Контур 198" d="M9.5,19A9.5,9.5,0,1,0,0,9.5,9.5,9.5,0,0,0,9.5,19Z" transform="translate(10 7)" fill="none" stroke="#000" stroke-width="0.5"/>
      <path id="Контур_191" data-name="Контур 191" d="M5.524,5.411,0,0" transform="translate(13.511 16.634)" fill="none" stroke="#000" stroke-width="0.5"/>
      <path id="Контур_193" data-name="Контур 193" d="M5.524,5.411,0,0" transform="translate(19.036 11.11)" fill="none" stroke="#000" stroke-width="0.5"/>
      <path id="Контур_192" data-name="Контур 192" d="M8.058,8.06,0,0" transform="translate(15.006 12.491)" fill="none" stroke="#000" stroke-width="0.5"/>
      <path id="Контур_197" data-name="Контур 197" d="M1,2A1,1,0,1,0,0,1,1,1,0,0,0,1,2Z" transform="translate(3 35)"/>
      <path id="Контур_196" data-name="Контур 196" d="M1,2A1,1,0,1,0,0,1,1,1,0,0,0,1,2Z" transform="translate(25 35)"/>
      <path id="Контур_195" data-name="Контур 195" d="M1,2A1,1,0,1,0,0,1,1,1,0,0,0,1,2Z" transform="translate(29 35)"/>
      <path id="Контур_194" data-name="Контур 194" d="M1,2A1,1,0,1,0,0,1,1,1,0,0,0,1,2Z" transform="translate(33 35)"/>
    </g>
    <g id="Контур_394" data-name="Контур 394" transform="translate(70.023 526.285)" fill="#fff">
      <path d="M 58.75 16.66797828674316 L 0.25 16.66797828674316 L 0.25 0.249999150633812 L 58.75 0.249999150633812 L 58.75 16.66797828674316 Z" stroke="none"/>
      <path d="M 58.5 16.41797828674316 L 58.5 0.4999991357326508 L 0.5 0.4999991357326508 L 0.5 16.41797828674316 L 58.5 16.41797828674316 M 59 16.91797828674316 L -3.552713678800501e-15 16.91797828674316 L -3.552713678800501e-15 -8.566283895561355e-07 L 59 -8.566283895561355e-07 L 59 16.91797828674316 Z" stroke="none" fill="#000"/>
    </g>
    <g id="Сгруппировать_60" data-name="Сгруппировать 60" transform="translate(338.351 265.638)">
      <g id="Контур_315" data-name="Контур 315" transform="translate(0 34.75)" fill="#fff">
        <path d="M 127.6486282348633 119.1600646972656 L 3.000010251998901 119.1600646972656 C 1.483660340309143 119.1600646972656 0.2500103116035461 117.9264144897461 0.2500103116035461 116.4100646972656 L 0.2500103116035461 3.000015735626221 C 0.2500103116035461 1.483649015426636 1.483660340309143 0.2499990165233612 3.000010251998901 0.2499990165233612 L 127.6486282348633 0.2499990165233612 C 129.1649780273438 0.2499990165233612 130.3986206054688 1.483649015426636 130.3986206054688 3.000015735626221 L 130.3986206054688 116.4100646972656 C 130.3986206054688 117.9264144897461 129.1649780273438 119.1600646972656 127.6486282348633 119.1600646972656 Z" stroke="none"/>
        <path d="M 127.6486282348633 118.9100646972656 C 129.0271301269531 118.9100646972656 130.1486206054688 117.7885665893555 130.1486206054688 116.4100646972656 L 130.1486206054688 3.000015735626221 C 130.1486206054688 1.621499061584473 129.0271301269531 0.4999990165233612 127.6486282348633 0.4999990165233612 L 3.000010251998901 0.4999990165233612 C 1.62151026725769 0.4999990165233612 0.5000103116035461 1.621499061584473 0.5000103116035461 3.000015735626221 L 0.5000103116035461 116.4100646972656 C 0.5000103116035461 117.7885665893555 1.62151026725769 118.9100646972656 3.000010251998901 118.9100646972656 L 127.6486282348633 118.9100646972656 M 127.6486282348633 119.4100646972656 L 3.000010251998901 119.4100646972656 C 1.343143582344055 119.4100646972656 1.030273415381089e-05 118.0669174194336 1.030273415381089e-05 116.4100646972656 L 1.030273415381089e-05 3.000015735626221 C 1.030273415381089e-05 1.343149065971375 1.343143582344055 -9.847004776020185e-07 3.000010251998901 -9.847004776020185e-07 L 127.6486282348633 -9.847004776020185e-07 C 129.3054809570312 -9.847004776020185e-07 130.6486206054688 1.343149065971375 130.6486206054688 3.000015735626221 L 130.6486206054688 116.4100646972656 C 130.6486206054688 118.0669174194336 129.3054809570312 119.4100646972656 127.6486282348633 119.4100646972656 Z" stroke="none" fill="#000"/>
      </g>
      <path id="Контур_257" data-name="Контур 257" d="M16136.038,3669.326h-83.992a3.58,3.58,0,0,1-2.3-.749,3.811,3.811,0,0,1-.651-2.382l.063-107.039a3.672,3.672,0,0,1,.9-2.447,3.912,3.912,0,0,1,2.425-.706l84.29.02,12.277,12.5v88.293Z" transform="translate(-16046.153 -3517.978)" fill="none" stroke="#000" stroke-width="0.5"/>
      <path id="Контур_258" data-name="Контур 258" d="M16121.466,3558.03h19.73a4.6,4.6,0,0,1,2.873.806,3.607,3.607,0,0,1,.984,2.721l.012,42.537a4.379,4.379,0,0,1-.934,2.99c-1.068,1.09-3.357.951-3.357.951l-20.555.026a3.279,3.279,0,0,1-2.084-.6,2.752,2.752,0,0,1-.922-2.012V3602.6" transform="translate(-16018.576 -3459.56)" fill="none" stroke="#000" stroke-width="0.5"/>
      <path id="Контур_259" data-name="Контур 259" d="M16123.625,3556.117h-10.5a3.293,3.293,0,0,0-2.084.688,3.7,3.7,0,0,0-.721,2.164v9.7" transform="translate(-16020.734 -3417.478)" fill="none" stroke="#000" stroke-width="0.5"/>
      <path id="Контур_260" data-name="Контур 260" d="M16123.625,3568.665h-10.5a3.292,3.292,0,0,1-2.084-.687,3.7,3.7,0,0,1-.721-2.164v-9.7" transform="translate(-16020.734 -3518.093)" fill="none" stroke="#000" stroke-width="0.5"/>
      <path id="Контур_261" data-name="Контур 261" d="M16121.466,3608.063h19.73a4.6,4.6,0,0,0,2.873-.806,3.607,3.607,0,0,0,.984-2.721l.012-42.538a4.379,4.379,0,0,0-.934-2.99c-1.068-1.09-3.357-.951-3.357-.951l-20.555-.026a3.275,3.275,0,0,0-2.084.6,2.751,2.751,0,0,0-.922,2.011v2.852" transform="translate(-16018.576 -3517.158)" fill="none" stroke="#000" stroke-width="0.5"/>
      <g id="Сгруппировать_45" data-name="Сгруппировать 45" transform="translate(105.361 0)">
        <path id="Контур_262" data-name="Контур 262" d="M16125.949,3564.147v-31.611a3.949,3.949,0,0,1,.908-2.7,3.567,3.567,0,0,1,2.615-.894h15.949" transform="translate(-16120.399 -3528.934)" fill="#fff" stroke="#000" stroke-width="0.5"/>
        <path id="Контур_314" data-name="Контур 314" d="M11.239,22.477A11.239,11.239,0,1,0,0,11.239,11.239,11.239,0,0,0,11.239,22.477Z" transform="translate(0 8.522)" fill="#fff" stroke="#000" stroke-width="0.5"/>
        <path id="Контур_313" data-name="Контур 313" d="M2.81,5.619A2.81,2.81,0,1,0,0,2.81,2.81,2.81,0,0,0,2.81,5.619Z" transform="translate(8.429 16.951)" fill="#fff" stroke="#000" stroke-width="0.5"/>
      </g>
      <g id="Сгруппировать_46" data-name="Сгруппировать 46" transform="translate(105.361 154.16)">
        <path id="Контур_262-2" data-name="Контур 262" d="M16125.949,3528.934v31.611a3.951,3.951,0,0,0,.908,2.7,3.567,3.567,0,0,0,2.615.893h15.949" transform="translate(-16120.399 -3528.934)" fill="#fff" stroke="#000" stroke-width="0.5"/>
        <path id="Контур_312" data-name="Контур 312" d="M11.239,22.477A11.239,11.239,0,1,0,0,11.239,11.239,11.239,0,0,0,11.239,22.477Z" transform="translate(0 4.215)" fill="#fff" stroke="#000" stroke-width="0.5"/>
        <path id="Контур_311" data-name="Контур 311" d="M2.81,5.619A2.81,2.81,0,1,0,0,2.81,2.81,2.81,0,0,0,2.81,5.619Z" transform="translate(8.429 12.644)" fill="#fff" stroke="#000" stroke-width="0.5"/>
      </g>
    </g>
    <g id="Контур_410" data-name="Контур 410" transform="translate(243.994 282)" fill="#fff">
      <path d="M 28.75 146.7500610351562 L 0.25 146.7500610351562 L 0.25 0.2500199675559998 L 28.75 0.2500199675559998 L 28.75 146.7500610351562 Z" stroke="none"/>
      <path d="M 28.5 146.5000610351562 L 28.5 0.5000181198120117 L 0.5 0.5000181198120117 L 0.5 146.5000610351562 L 28.5 146.5000610351562 M 29 147.0000610351562 L -1.77635683940025e-15 147.0000610351562 L -1.77635683940025e-15 1.81469731614925e-05 L 29 1.81469731614925e-05 L 29 147.0000610351562 Z" stroke="none" fill="#000"/>
    </g>
    <g id="Сгруппировать_64" data-name="Сгруппировать 64" transform="translate(379.643 139.566)">
      <g id="Контур_397" data-name="Контур 397" transform="translate(-15.124 0)" fill="#fff">
        <path d="M 72.59589385986328 85.75045013427734 C 72.67875671386719 84.94915771484375 72.720703125 84.13547515869141 72.720703125 83.32744598388672 L 72.720703125 57.40024566650391 C 72.720703125 54.26158905029297 72.10592651367188 51.21669006347656 70.89344787597656 48.35012054443359 C 69.72240447998047 45.58146667480469 68.04598236083984 43.09500122070312 65.91074371337891 40.95978927612305 C 63.77554702758789 38.82457733154297 61.28908157348633 37.14815521240234 58.52041244506836 35.97708892822266 C 55.65385818481445 34.76461029052734 52.60895919799805 34.14983367919922 49.47031402587891 34.14983367919922 L 28.908447265625 33.80931091308594 L 26.2984676361084 33.80928039550781 L 26.2504711151123 0.2500215768814087 L 104.7503128051758 0.2500215768814087 L 104.7503128051758 85.74946594238281 L 72.59589385986328 85.75045013427734 Z" stroke="none"/>
        <path d="M 72.87143707275391 85.50043487548828 L 104.5003128051758 85.49947357177734 L 104.5003128051758 0.5000215768814087 L 26.50082969665527 0.5000215768814087 L 26.54811096191406 33.55927658081055 L 28.9125804901123 33.55934524536133 L 49.47461700439453 33.89983367919922 C 52.64546966552734 33.90036392211914 55.72150802612305 34.52177810668945 58.61780166625977 35.74684524536133 C 61.41626739501953 36.93051147460938 63.92944717407227 38.62491989135742 66.0875244140625 40.78300857543945 C 68.24563598632812 42.94110107421875 69.94004821777344 45.45427703857422 71.12368774414062 48.25273132324219 C 72.34928131103516 51.15027618408203 72.970703125 54.22795486450195 72.970703125 57.40024566650391 L 72.970703125 83.32744598388672 C 72.970703125 84.05147552490234 72.93737030029297 84.78009796142578 72.87143707275391 85.50043487548828 M 105.0003128051758 86.00045776367188 L 72.3170166015625 86.00045776367188 C 72.41865539550781 85.12200164794922 72.470703125 84.22304534912109 72.470703125 83.32744598388672 L 72.470703125 57.40024566650391 C 72.470703125 54.29523086547852 71.86257171630859 51.28310012817383 70.66319274902344 48.447509765625 C 69.50474548339844 45.70864486694336 67.8463134765625 43.2488899230957 65.73397064208984 41.13656616210938 C 63.62163543701172 39.02422332763672 61.16188049316406 37.36579895019531 58.42302322387695 36.20734405517578 C 55.58744812011719 35.00796508789062 52.57532501220703 34.39983367919922 49.47031402587891 34.39983367919922 L 28.9043025970459 34.05927658081055 C 27.94794654846191 34.05927658081055 26.04882431030273 34.05927658081055 26.04882431030273 34.05927658081055 L 26.00011444091797 2.158542156394105e-05 L 105.0003128051758 2.158542156394105e-05 L 105.0003128051758 86.00045776367188 Z" stroke="none" fill="#000"/>
      </g>
      <path id="Контур_398" data-name="Контур 398" d="M15409.807,3932.982s-8.4,10.2-9.979,13.192" transform="translate(-15394.662 -3899.414)" fill="#fff" stroke="#000" stroke-width="0.5"/>
      <path id="Контур_399" data-name="Контур 399" d="M15423.866,3969.024c5.559-2.723,18.927-13.659,21.381-18.106s-14.126-18.13-14.126-18.13" transform="translate(-15397.562 -3899.391)" fill="none" stroke="#000" stroke-width="0.5"/>
      <path id="Контур_400" data-name="Контур 400" d="M15443.329,3943.487l6.569-.784s1.258-.16,1.377.957a1.207,1.207,0,0,1-1.027,1.308l-5.076.783" transform="translate(-15399.908 -3900.585)" fill="#fff" stroke="#000" stroke-width="0.5"/>
      <path id="Контур_401" data-name="Контур 401" d="M15437.6,3964.393l5.007,5.1a1.578,1.578,0,0,1,0,2.053c-.9.948-2.064,0-2.064,0l-5.251-5.389" transform="translate(-15398.939 -3903.202)" fill="#fff" stroke="#000" stroke-width="0.5"/>
      <path id="Контур_402" data-name="Контур 402" d="M16923.377,3737.942s-1.045,12.512,7.2,20.79,20.473,7.87,20.473,7.87" transform="translate(-16923.047 -3692.777)" fill="none" stroke="#000" stroke-width="0.5"/>
      <path id="Контур_403" data-name="Контур 403" d="M16920.707,3738.429s2.625.011,2.629,1.185c.008,2.953.65,11.438,6.629,17.476,5.846,5.9,13.547,6.978,17.184,7.194,1.094.158,1.137,2.654,1.137,2.654" transform="translate(-16920.707 -3692.777)" fill="none" stroke="#000" stroke-width="0.5"/>
      <path id="Контур_404" data-name="Контур 404" d="M16926.082,3739.761h3.846s.967,9.249,5.713,14.316,13.271,5.952,13.271,5.952l.619,4.39" transform="translate(-16923.125 -3693)" fill="none" stroke="#000" stroke-width="0.5"/>
      <path id="Контур_405" data-name="Контур 405" d="M15460.8,3903.03l6.738-5.946,20.943,23.706-6.97,5.959Z" transform="translate(-15405.354 -3892.328)" fill="#fff" stroke="#000" stroke-width="0.5"/>
      <path id="Контур_406" data-name="Контур 406" d="M15455.194,3905.177l24.109,28-8.729,7.182-24.011-27.768Z" transform="translate(-15406.352 -3893.217)" fill="#fff" stroke="#000" stroke-width="0.5"/>
      <path id="Контур_407" data-name="Контур 407" d="M16979.707,3702.981l20.643,23.62" transform="translate(-16923.125 -3693)" fill="#fff" stroke="#000" stroke-width="0.5"/>
      <path id="Контур_408" data-name="Контур 408" d="M16971.773,3707.894l17.4,19.958-5.691,4.865-17.162-20.133Z" transform="translate(-16923.125 -3693)" fill="#fff" stroke="#000" stroke-width="0.5"/>
      <path id="Контур_409" data-name="Контур 409" d="M16986.344,3724.672l2.881,3.3-5.7,4.691-2.781-3.219Z" transform="translate(-16919.125 -3688.304)" fill="#fff" stroke="#000" stroke-width="0.5"/>
    </g>
    <g id="Сгруппировать_83" data-name="Сгруппировать 83" transform="translate(13.298 139.566)">
      <g id="Контур_397-2" data-name="Контур 397" transform="translate(203.568 0)" fill="#fff">
        <path d="M 58.4044303894043 85.75051879882812 L 26.2501220703125 85.74953460693359 L 26.2501220703125 0.2500201165676117 L 174.38232421875 0.2500201165676117 L 174.3169097900391 33.78772735595703 C 174.0106506347656 33.78248977661133 173.3502655029297 33.7777099609375 171.8860778808594 33.7777099609375 C 161.5158996582031 33.7777099609375 124.4835205078125 34.01047515869141 108.6700134277344 34.1098747253418 C 104.8398513793945 34.13394927978516 102.3095016479492 34.14985656738281 102.1371612548828 34.14985656738281 L 81.52992248535156 34.14985656738281 C 78.39130401611328 34.14985656738281 75.34641265869141 34.7646369934082 72.47986602783203 35.97713088989258 C 69.71119689941406 37.14820098876953 67.22473907470703 38.82461929321289 65.08953857421875 40.95981979370117 C 62.95432281494141 43.09502029418945 61.27792358398438 45.58149337768555 60.10686874389648 48.35018539428711 C 58.89439392089844 51.21676635742188 58.27961349487305 54.26167297363281 58.27961349487305 57.40029144287109 L 58.27961349487305 83.32752990722656 C 58.27961349487305 84.13548278808594 58.32156753540039 84.94918060302734 58.4044303894043 85.75051879882812 Z" stroke="none"/>
        <path d="M 58.12888717651367 85.50051879882812 C 58.06293869018555 84.78007507324219 58.02960586547852 84.05153656005859 58.02960586547852 83.32753753662109 L 58.02960586547852 57.40029525756836 C 58.02960586547852 54.22803497314453 58.65102767944336 51.15035629272461 59.87660598754883 48.25277328491211 C 61.06024551391602 45.4543342590332 62.75466918945312 42.94115447998047 64.91276550292969 40.78305435180664 C 67.07082366943359 38.62497329711914 69.583984375 36.9305534362793 72.38246917724609 35.74687576293945 C 75.28000640869141 34.52127456665039 78.35765075683594 33.89985275268555 81.52993011474609 33.89985275268555 L 102.1371688842773 33.89985275268555 C 102.3087310791016 33.89985275268555 104.8387451171875 33.88395309448242 108.6683883666992 33.8598747253418 C 124.4822692871094 33.76047515869141 161.5154876708984 33.52769470214844 171.886474609375 33.52769470214844 C 173.0307312011719 33.52769470214844 173.6862640380859 33.53051376342773 174.0673980712891 33.53438186645508 L 174.1318359375 0.5000146627426147 L 26.50010681152344 0.5000146627426147 L 26.50010681152344 85.49954986572266 L 58.12888717651367 85.50051879882812 M 58.68330764770508 86.00053405761719 L 26.00210762023926 85.99953460693359 L 26.00010681152344 86.00053405761719 L 26.00010681152344 1.465820332668955e-05 L 174.6328125 1.465820332668955e-05 L 174.56640625 34.04641342163086 C 173.6231384277344 33.92938613891602 103.093505859375 34.39985275268555 102.1371688842773 34.39985275268555 L 81.52993011474609 34.39985275268555 C 78.4249267578125 34.39985275268555 75.41280364990234 35.00799560546875 72.57724761962891 36.20737457275391 C 69.83838653564453 37.3658332824707 67.37864685058594 39.02425384521484 65.26632690429688 41.13661575317383 C 63.15398788452148 43.24893569946289 61.49554824829102 45.70869445800781 60.33710861206055 48.44755554199219 C 59.13774871826172 51.28315353393555 58.52960586547852 54.29529571533203 58.52960586547852 57.40029525756836 L 58.52960586547852 83.32753753662109 C 58.52960586547852 84.22313690185547 58.58166885375977 85.12207794189453 58.68330764770508 86.00053405761719 Z" stroke="none" fill="#000"/>
      </g>
      <path id="Контур_398-2" data-name="Контур 398" d="M15399.829,3932.982s8.4,10.2,9.979,13.192" transform="translate(-15095.529 -3899.414)" fill="#fff" stroke="#000" stroke-width="0.5"/>
      <path id="Контур_399-2" data-name="Контур 399" d="M15445.494,3969.024c-5.559-2.723-18.927-13.659-21.381-18.106s14.126-18.13,14.126-18.13" transform="translate(-15152.354 -3899.39)" fill="none" stroke="#000" stroke-width="0.5"/>
      <path id="Контур_400-2" data-name="Контур 400" d="M15451.283,3943.487l-6.569-.784s-1.258-.16-1.377.957a1.207,1.207,0,0,0,1.027,1.308l5.076.783" transform="translate(-15175.26 -3900.585)" fill="#fff" stroke="#000" stroke-width="0.5"/>
      <path id="Контур_401-2" data-name="Контур 401" d="M15440.7,3964.393l-5.007,5.1a1.578,1.578,0,0,0,0,2.053c.9.948,2.064,0,2.064,0l5.251-5.39" transform="translate(-15159.918 -3903.202)" fill="#fff" stroke="#000" stroke-width="0.5"/>
      <path id="Контур_402-2" data-name="Контур 402" d="M16951.006,3737.942s1.045,12.512-7.2,20.79-20.473,7.87-20.473,7.87" transform="translate(-16631.891 -3692.777)" fill="none" stroke="#000" stroke-width="0.5"/>
      <path id="Контур_403-2" data-name="Контур 403" d="M16948.285,3738.429s-2.625.011-2.629,1.185c-.008,2.953-.65,11.438-6.629,17.476-5.846,5.9-13.547,6.978-17.184,7.194-1.094.158-1.137,2.654-1.137,2.654" transform="translate(-16628.84 -3692.777)" fill="none" stroke="#000" stroke-width="0.5"/>
      <path id="Контур_404-2" data-name="Контур 404" d="M16949.531,3739.761h-3.846s-.967,9.249-5.713,14.316-13.271,5.952-13.271,5.952l-.619,4.39" transform="translate(-16633.043 -3693)" fill="none" stroke="#000" stroke-width="0.5"/>
      <path id="Контур_405-2" data-name="Контур 405" d="M15488.484,3903.03l-6.738-5.946-20.943,23.706,6.97,5.959Z" transform="translate(-15224.49 -3892.327)" fill="#fff" stroke="#000" stroke-width="0.5"/>
      <path id="Контур_406-2" data-name="Контур 406" d="M15470.674,3905.177l-24.109,28,8.729,7.182,24.011-27.768Z" transform="translate(-15200.072 -3893.217)" fill="#fff" stroke="#000" stroke-width="0.5"/>
      <path id="Контур_407-2" data-name="Контур 407" d="M17000.348,3702.981l-20.643,23.62" transform="translate(-16737.484 -3693)" fill="#fff" stroke="#000" stroke-width="0.5"/>
      <path id="Контур_416" data-name="Контур 416" d="M13654.023,2626.976V2680.5h-51.712v94.25H13552.3v-147.77h101.725" transform="translate(-13552.299 -2625.647)" fill="#fff" stroke="#000" stroke-width="0.5"/>
      <path id="Контур_408-2" data-name="Контур 408" d="M16983.719,3707.893l-17.4,19.958,5.691,4.866,17.162-20.133Z" transform="translate(-16712.922 -3693)" fill="#fff" stroke="#000" stroke-width="0.5"/>
      <path id="Контур_409-2" data-name="Контур 409" d="M16983.621,3724.672l-2.881,3.3,5.7,4.691,2.781-3.219Z" transform="translate(-16731.395 -3688.304)" fill="#fff" stroke="#000" stroke-width="0.5"/>
    </g>
    <g id="Сгруппировать_65" data-name="Сгруппировать 65" transform="translate(248.162 310.688)">
      <g id="Контур_325" data-name="Контур 325" transform="translate(7.273 0)" fill="none">
        <path d="M0,93.706H2.928V0H0Z" stroke="none"/>
        <path d="M 2.428319931030273 93.20610809326172 L 2.428319931030273 0.500011682510376 L 0.4999949634075165 0.500011682510376 L 0.4999949634075165 93.20610809326172 L 2.428319931030273 93.20610809326172 M 2.928319931030273 93.70610809326172 L -5.037879873270867e-06 93.70610809326172 L -5.037879873270867e-06 1.167602567875292e-05 L 2.928319931030273 1.167602567875292e-05 L 2.928319931030273 93.70610809326172 Z" stroke="none" fill="#000"/>
      </g>
      <path id="Контур_224" data-name="Контур 224" d="M15492.151,3855.106l-5.549-6.935v-78.061l5.526-7.526" transform="translate(-15484.491 -3761.971)" fill="none" stroke="#000" stroke-width="0.5"/>
      <path id="Контур_225" data-name="Контур 225" d="M15478.989,3828.188l5.331-4.087v-27.635l-5.331-4.638" transform="translate(-15469.229 -3763.597)" fill="none" stroke="#000" stroke-width="0.5"/>
      <path id="Контур_226" data-name="Контур 226" d="M15484.4,3825.551l-2.249-1.724v-27.635l2.233-1.943" transform="translate(-15482.146 -3763.322)" fill="none" stroke="#000" stroke-width="0.5"/>
    </g>
    <g id="Сгруппировать_66" data-name="Сгруппировать 66" transform="translate(157.221 42.556)">
      <g id="Сгруппировать_39" data-name="Сгруппировать 39" transform="translate(19.463 2.421)">
        <path id="Контур_246" data-name="Контур 246" d="M15524.045,4041.283a27.543,27.543,0,0,1,1.038,9.476,22.191,22.191,0,0,1-3.1,8.29c-.605-2.1-2.291-10.3,2.064-17.766" transform="translate(-15521.149 -4018.143)" fill="none" stroke="#000" stroke-width="0.5"/>
        <path id="Контур_247" data-name="Контур 247" d="M2.9,0A29.377,29.377,0,0,1,3.934,9.8a23.389,23.389,0,0,1-3.1,8.571C.226,16.2-1.46,7.72,2.9,0" transform="translate(2.019 28.542) rotate(-17)" fill="none" stroke="#000" stroke-width="0.5"/>
        <path id="Контур_248" data-name="Контур 248" d="M2.9,0A29.377,29.377,0,0,1,3.935,9.8a23.389,23.389,0,0,1-3.1,8.571C.227,16.2-1.459,7.72,2.9,0" transform="translate(1.714 26.667) rotate(-45)" fill="none" stroke="#000" stroke-width="0.5"/>
        <path id="Контур_249" data-name="Контур 249" d="M2.632.181a46.406,46.406,0,0,1,.652,10.107C2.911,14.771.07,21.838.07,21.838-.113,18.263-.159,7.72,2.987,0" transform="matrix(0.454, -0.891, 0.891, 0.454, 2, 25.839)" fill="none" stroke="#000" stroke-width="0.5"/>
        <path id="Контур_250" data-name="Контур 250" d="M2.9,0A27.543,27.543,0,0,1,3.934,9.475a22.191,22.191,0,0,1-3.1,8.29C.226,15.665-1.46,7.468,2.9,0" transform="translate(4.806 25.629) rotate(-81)" fill="none" stroke="#000" stroke-width="0.5"/>
        <path id="Контур_251" data-name="Контур 251" d="M2.631.181a46.406,46.406,0,0,1,.652,10.107C2.91,14.771.069,21.838.069,21.838-.114,18.263-.16,7.72,2.986,0" transform="matrix(-0.174, -0.985, 0.985, -0.174, 3.434, 25.024)" fill="none" stroke="#000" stroke-width="0.5"/>
        <path id="Контур_252" data-name="Контур 252" d="M2.9,0A29.377,29.377,0,0,1,3.935,9.8a23.389,23.389,0,0,1-3.1,8.571C.227,16.2-1.459,7.72,2.9,0" transform="translate(7.594 23.812) rotate(-115)" fill="none" stroke="#000" stroke-width="0.5"/>
        <path id="Контур_253" data-name="Контур 253" d="M2.9,0A29.377,29.377,0,0,1,3.935,9.8a23.389,23.389,0,0,1-3.1,8.571C.227,16.2-1.459,7.72,2.9,0" transform="translate(6.185 23.14) rotate(-135)" fill="none" stroke="#000" stroke-width="0.5"/>
        <path id="Контур_254" data-name="Контур 254" d="M2.631.182a46.406,46.406,0,0,1,.652,10.107C2.91,14.771.069,21.838.069,21.838-.114,18.263-.16,7.72,2.986,0" transform="translate(6.908 20.594) rotate(-150)" fill="none" stroke="#000" stroke-linejoin="round" stroke-width="0.5"/>
      </g>
      <g id="Сгруппировать_40" data-name="Сгруппировать 40" transform="matrix(-0.999, -0.035, 0.035, -0.999, 24.926, 46.949)">
        <path id="Контур_246-2" data-name="Контур 246" d="M2.9,0A27.543,27.543,0,0,1,3.934,9.476a22.191,22.191,0,0,1-3.1,8.29C.226,15.666-1.46,7.468,2.9,0" transform="translate(0 23.141)" fill="none" stroke="#000" stroke-width="0.5"/>
        <path id="Контур_247-2" data-name="Контур 247" d="M2.9,0A29.377,29.377,0,0,1,3.934,9.8a23.389,23.389,0,0,1-3.1,8.571C.226,16.2-1.46,7.72,2.9,0" transform="translate(2.019 28.542) rotate(-17)" fill="none" stroke="#000" stroke-width="0.5"/>
        <path id="Контур_248-2" data-name="Контур 248" d="M2.9,0A29.377,29.377,0,0,1,3.934,9.8a23.389,23.389,0,0,1-3.1,8.571C.226,16.2-1.46,7.72,2.9,0" transform="translate(1.714 26.667) rotate(-45)" fill="none" stroke="#000" stroke-width="0.5"/>
        <path id="Контур_249-2" data-name="Контур 249" d="M2.631.182a46.406,46.406,0,0,1,.652,10.107C2.91,14.771.069,21.838.069,21.838-.114,18.263-.16,7.72,2.986,0" transform="matrix(0.454, -0.891, 0.891, 0.454, 2, 25.839)" fill="none" stroke="#000" stroke-width="0.5"/>
        <path id="Контур_250-2" data-name="Контур 250" d="M2.9,0A27.543,27.543,0,0,1,3.935,9.476a22.191,22.191,0,0,1-3.1,8.29C.227,15.666-1.459,7.468,2.9,0" transform="translate(4.806 25.629) rotate(-81)" fill="none" stroke="#000" stroke-width="0.5"/>
        <path id="Контур_251-2" data-name="Контур 251" d="M2.632.181a46.406,46.406,0,0,1,.652,10.107C2.911,14.771.07,21.838.07,21.838-.113,18.263-.159,7.72,2.987,0" transform="matrix(-0.174, -0.985, 0.985, -0.174, 3.434, 25.024)" fill="none" stroke="#000" stroke-width="0.5"/>
        <path id="Контур_252-2" data-name="Контур 252" d="M2.9,0A29.377,29.377,0,0,1,3.934,9.8a23.389,23.389,0,0,1-3.1,8.571C.226,16.2-1.46,7.72,2.9,0" transform="translate(7.594 23.812) rotate(-115)" fill="none" stroke="#000" stroke-width="0.5"/>
        <path id="Контур_253-2" data-name="Контур 253" d="M2.895,0A29.377,29.377,0,0,1,3.933,9.8a23.389,23.389,0,0,1-3.1,8.571C.225,16.2-1.461,7.72,2.895,0" transform="translate(6.185 23.14) rotate(-135)" fill="none" stroke="#000" stroke-width="0.5"/>
        <path id="Контур_254-2" data-name="Контур 254" d="M2.63.181a46.406,46.406,0,0,1,.652,10.107C2.909,14.771.068,21.838.068,21.838-.115,18.263-.161,7.72,2.985,0" transform="translate(6.908 20.594) rotate(-150)" fill="none" stroke="#000" stroke-linejoin="round" stroke-width="0.5"/>
      </g>
    </g>
    <g id="Сгруппировать_68" data-name="Сгруппировать 68" transform="translate(32.437 59.351) rotate(-30)">
      <path id="Контур_255" data-name="Контур 255" d="M25.444,48.536a24.338,24.338,0,0,0,11.747-3.7A24.055,24.055,0,0,0,48.535,24.283,24.49,24.49,0,0,0,37.759,4.1,23.755,23.755,0,0,0,24.252,0,24.376,24.376,0,0,0,0,23.052" transform="translate(34.318 68.64) rotate(-135)" fill="#fff" stroke="#000" stroke-width="0.5"/>
      <g id="Контур_256" data-name="Контур 256" transform="translate(15.854 15.509)" fill="#fff">
        <path d="M 40.30949020385742 37.37244415283203 L 18.81181907653809 37.37244415283203 C 16.3056697845459 37.37244415283203 13.87469959259033 36.88174438476562 11.58645915985107 35.91397476196289 C 9.376118659973145 34.97916412353516 7.391029357910156 33.64081573486328 5.686329364776611 31.93611526489258 C 3.981629133224487 30.23141670227051 2.643289089202881 28.2463264465332 1.708469152450562 26.03599548339844 C 0.740709125995636 23.74774551391602 0.2500091195106506 21.31677627563477 0.2500091195106506 18.81062507629395 C 0.2500091195106506 16.30476570129395 0.740709125995636 13.87403583526611 1.708479166030884 11.58596611022949 C 2.643299102783203 9.375785827636719 3.98163914680481 7.390815734863281 5.686338901519775 5.686195850372314 C 7.391048908233643 3.981555938720703 9.376138687133789 2.643255949020386 11.58645915985107 1.708465933799744 C 13.87472915649414 0.7407059073448181 16.30568885803223 0.2500059008598328 18.81182861328125 0.2500059008598328 L 40.30949783325195 0.2500059008598328 C 43.1356086730957 0.2500059008598328 45.43481826782227 2.548675775527954 45.43481826782227 5.374115943908691 L 45.43481063842773 32.24832534790039 C 45.43481063842773 35.07377624511719 43.13559722900391 37.37244415283203 40.30949020385742 37.37244415283203 Z" stroke="none"/>
        <path d="M 18.81182861328125 0.5000076293945312 C 16.33932876586914 0.5000076293945312 13.94112968444824 0.9840545654296875 11.683837890625 1.938716888427734 C 9.503318786621094 2.860897064208984 7.544940948486328 4.181217193603516 5.863109588623047 5.86297607421875 C 4.181289672851562 7.544715881347656 2.860927581787109 9.502975463867188 1.938720703125 11.6833553314209 C 0.9840507507324219 13.94044494628906 0.5 16.33840560913086 0.5 18.81062507629395 C 0.5 21.28313636779785 0.9840583801269531 23.68133544921875 1.938720703125 25.93860626220703 C 2.860927581787109 28.11913681030273 4.181289672851562 30.07751655578613 5.863109588623047 31.75933647155762 C 7.544929504394531 33.44115447998047 9.503307342529297 34.76151657104492 11.683837890625 35.6837272644043 C 13.94110870361328 36.63838577270508 16.33930969238281 37.12244415283203 18.81181907653809 37.12244415283203 L 40.30949020385742 37.1224365234375 C 42.99774932861328 37.1224365234375 45.18481063842773 34.93591690063477 45.18481063842773 32.24832534790039 L 45.18481063842773 5.374114990234375 C 45.18481063842773 4.072357177734375 44.67771911621094 2.848426818847656 43.75693893432617 1.927787780761719 C 42.83607864379883 1.007064819335938 41.61174774169922 0.5000076293945312 40.30949020385742 0.5000076293945312 L 18.81182861328125 0.5000076293945312 M 18.81182861328125 7.62939453125e-06 L 40.30949020385742 7.62939453125e-06 C 43.2783203125 7.62939453125e-06 45.68481826782227 2.406505584716797 45.68481063842773 5.374114990234375 L 45.68481063842773 32.24832534790039 C 45.68481063842773 35.21593475341797 43.2783088684082 37.6224365234375 40.30949020385742 37.6224365234375 L 18.81181907653809 37.62244415283203 C 8.421539306640625 37.62244415283203 0 29.20090484619141 0 18.81062507629395 C 0 8.42155647277832 8.421550750732422 7.62939453125e-06 18.81182861328125 7.62939453125e-06 Z" stroke="none" fill="#000"/>
      </g>
    </g>
    <g id="Сгруппировать_74" data-name="Сгруппировать 74" transform="translate(243.994 490.839)">
      <g id="Контур_413" data-name="Контур 413" transform="translate(0 55.005) rotate(-90)" fill="#fff">
        <path d="M 54.75490951538086 108.75 L 0.2499938011169434 108.75 L 0.2499938011169434 0.25 L 54.75490951538086 0.25 L 54.75490951538086 108.75 Z" stroke="none"/>
        <path d="M 54.50490951538086 108.5 L 54.50490951538086 0.5 L 0.4999938011169434 0.5 L 0.4999938011169434 108.5 L 54.50490951538086 108.5 M 55.00490951538086 109 L -6.199863946676487e-06 109 L -6.199863946676487e-06 0 L 55.00490951538086 0 L 55.00490951538086 109 Z" stroke="none" fill="#000"/>
      </g>
      <g id="Контур_423" data-name="Контур 423" transform="translate(108 55.005) rotate(-90)" fill="#fff">
        <path d="M 54.75489807128906 118.4482421875 L 0.2500047981739044 118.4482421875 L 0.2500047981739044 0.2499980181455612 L 54.75489807128906 0.2499980181455612 L 54.75489807128906 118.4482421875 Z" stroke="none"/>
        <path d="M 54.50489807128906 118.1982421875 L 54.50489807128906 0.4999980032444 L 0.500004768371582 0.4999980032444 L 0.500004768371582 118.1982421875 L 54.50489807128906 118.1982421875 M 55.00489807128906 118.6982421875 L 4.789147169503849e-06 118.6982421875 L 4.789147169503849e-06 -1.983172978725634e-06 L 55.00489807128906 -1.983172978725634e-06 L 55.00489807128906 118.6982421875 Z" stroke="none" fill="#000"/>
      </g>
      <g id="Сгруппировать_69" data-name="Сгруппировать 69" transform="translate(35.864 24.95)">
        <path id="Контур_183" data-name="Контур 183" d="M7.61,3.829,0,.471V0H14.939V.664Z" transform="translate(-0.001 0)" fill="#fff" stroke="#000" stroke-width="0.5"/>
        <path id="Контур_184" data-name="Контур 184" d="M0,2.789c1.279,1.444,2.438.535,2.492-.345S1.388,1.163,1.388,1.163V0" transform="translate(6.182 3.829)" fill="#fff" stroke="#000" stroke-width="0.5"/>
      </g>
      <g id="Сгруппировать_70" data-name="Сгруппировать 70" transform="translate(13.524 24.95)">
        <path id="Контур_183-2" data-name="Контур 183" d="M7.61,3.829,0,.471V0H14.939V.664Z" transform="translate(-0.001 0)" fill="#fff" stroke="#000" stroke-width="0.5"/>
        <path id="Контур_184-2" data-name="Контур 184" d="M0,2.789c1.279,1.444,2.438.535,2.492-.345S1.388,1.163,1.388,1.163V0" transform="translate(6.182 3.829)" fill="#fff" stroke="#000" stroke-width="0.5"/>
      </g>
      <g id="Сгруппировать_71" data-name="Сгруппировать 71" transform="translate(58.202 24.95)">
        <path id="Контур_183-3" data-name="Контур 183" d="M7.61,3.829,0,.471V0H14.939V.664Z" transform="translate(-0.001 0)" fill="#fff" stroke="#000" stroke-width="0.5"/>
        <path id="Контур_184-3" data-name="Контур 184" d="M0,2.789c1.279,1.444,2.438.535,2.492-.345S1.388,1.163,1.388,1.163V0" transform="translate(6.182 3.829)" fill="#fff" stroke="#000" stroke-width="0.5"/>
      </g>
      <g id="Сгруппировать_72" data-name="Сгруппировать 72" transform="translate(80.538 24.95)">
        <path id="Контур_183-4" data-name="Контур 183" d="M7.61,3.829,0,.471V0H14.939V.664Z" transform="translate(-0.001 0)" fill="#fff" stroke="#000" stroke-width="0.5"/>
        <path id="Контур_184-4" data-name="Контур 184" d="M0,2.789c1.279,1.444,2.438.535,2.492-.345S1.388,1.163,1.388,1.163V0" transform="translate(6.182 3.829)" fill="#fff" stroke="#000" stroke-width="0.5"/>
      </g>
      <path id="Контур_414" data-name="Контур 414" d="M0,108V0" transform="translate(0 3.371) rotate(-90)" fill="#fff" stroke="#000" stroke-width="0.5"/>
      <path id="Контур_424" data-name="Контур 424" d="M0,117.7V0" transform="translate(108 3.371) rotate(-90)" fill="#fff" stroke="#000" stroke-width="0.5"/>
    </g>
    <g id="Сгруппировать_75" data-name="Сгруппировать 75" transform="translate(55.698 144.985)">
      <path id="Контур_175" data-name="Контур 175" d="M16402.32,3880.108h18.885v39.273H16367.2v-39.273h31.468" transform="translate(-16367.198 -3874.367)" fill="none" stroke="#000" stroke-width="0.5"/>
      <path id="Контур_276" data-name="Контур 276" d="M1.5,17A1.5,1.5,0,0,0,3,15.5V1.5a1.5,1.5,0,1,0-3,0v14A1.5,1.5,0,0,0,1.5,17Z" transform="translate(31.802 1)" fill="none" stroke="#000" stroke-width="0.5"/>
      <g id="Контур_340" data-name="Контур 340" transform="translate(26.802 0)" fill="none">
        <path d="M2,4A2,2,0,1,0,0,2,2,2,0,0,0,2,4Z" stroke="none"/>
        <path d="M 2 3.500000715255737 C 2.827100038528442 3.500000715255737 3.5 2.82710075378418 3.5 2.000000715255737 C 3.5 1.172900676727295 2.827100038528442 0.5000007152557373 2 0.5000007152557373 C 1.172899961471558 0.5000007152557373 0.5 1.172900676727295 0.5 2.000000715255737 C 0.5 2.82710075378418 1.172899961471558 3.500000715255737 2 3.500000715255737 M 2 4.000000953674316 C 0.8954300284385681 4.000000953674316 0 3.104570627212524 0 2.000000715255737 C 0 0.8954307436943054 0.8954300284385681 7.152557373046875e-07 2 7.152557373046875e-07 C 3.104569911956787 7.152557373046875e-07 4 0.8954307436943054 4 2.000000715255737 C 4 3.104570627212524 3.104569911956787 4.000000953674316 2 4.000000953674316 Z" stroke="none" fill="#000"/>
      </g>
      <g id="Контур_339" data-name="Контур 339" transform="translate(35.802 0)" fill="none">
        <path d="M2,4A2,2,0,1,0,0,2,2,2,0,0,0,2,4Z" stroke="none"/>
        <path d="M 2 3.500000715255737 C 2.827100038528442 3.500000715255737 3.5 2.82710075378418 3.5 2.000000715255737 C 3.5 1.172900676727295 2.827100038528442 0.5000007152557373 2 0.5000007152557373 C 1.172899961471558 0.5000007152557373 0.5 1.172900676727295 0.5 2.000000715255737 C 0.5 2.82710075378418 1.172899961471558 3.500000715255737 2 3.500000715255737 M 2 4.000000953674316 C 0.8954300284385681 4.000000953674316 0 3.104570627212524 0 2.000000715255737 C 0 0.8954307436943054 0.8954300284385681 7.152557373046875e-07 2 7.152557373046875e-07 C 3.104569911956787 7.152557373046875e-07 4 0.8954307436943054 4 2.000000715255737 C 4 3.104570627212524 3.104569911956787 4.000000953674316 2 4.000000953674316 Z" stroke="none" fill="#000"/>
      </g>
      <g id="Контур_338" data-name="Контур 338" transform="translate(31.302 25.378)" fill="none">
        <path d="M2,4A2,2,0,1,0,0,2,2,2,0,0,0,2,4Z" stroke="none"/>
        <path d="M 2 3.500000715255737 C 2.827100038528442 3.500000715255737 3.5 2.82710075378418 3.5 2.000000715255737 C 3.5 1.172900676727295 2.827100038528442 0.5000007152557373 2 0.5000007152557373 C 1.172899961471558 0.5000007152557373 0.5 1.172900676727295 0.5 2.000000715255737 C 0.5 2.82710075378418 1.172899961471558 3.500000715255737 2 3.500000715255737 M 2 4.000000953674316 C 0.8954300284385681 4.000000953674316 0 3.104570627212524 0 2.000000715255737 C 0 0.8954307436943054 0.8954300284385681 7.152557373046875e-07 2 7.152557373046875e-07 C 3.104569911956787 7.152557373046875e-07 4 0.8954307436943054 4 2.000000715255737 C 4 3.104570627212524 3.104569911956787 4.000000953674316 2 4.000000953674316 Z" stroke="none" fill="#000"/>
      </g>
      <path id="Контур_201" data-name="Контур 201" d="M16400.125,3880.109h16.973v34.97h-33.231v-34.97h12.974" transform="translate(-16365.209 -3872.203)" fill="none" stroke="#000" stroke-width="0.5"/>
      <path id="Контур_202" data-name="Контур 202" d="M-.193,35h14L13.732.185h-14Z" transform="translate(2.507 7.815)" fill="none" stroke="#000" stroke-width="0.5"/>
      <path id="Контур_203" data-name="Контур 203" d="M16369.438,3881.172h13.965" transform="translate(-16367.144 -3841.344)" fill="none" stroke="#000" stroke-width="0.5"/>
      <path id="Контур_208" data-name="Контур 208" d="M16369.438,3881.172h13.965" transform="translate(-16367.198 -3850.344)" fill="none" stroke="#000" stroke-width="0.5"/>
      <path id="Контур_211" data-name="Контур 211" d="M16369.438,3881.172h13.965" transform="translate(-16367.116 -3859.344)" fill="none" stroke="#000" stroke-width="0.5"/>
      <path id="Контур_204" data-name="Контур 204" d="M16369.438,3881.172h13.965" transform="translate(-16367.198 -3844.344)" fill="none" stroke="#000" stroke-width="0.5"/>
      <path id="Контур_207" data-name="Контур 207" d="M16369.438,3881.172h13.965" transform="translate(-16367.253 -3853.344)" fill="none" stroke="#000" stroke-width="0.5"/>
      <path id="Контур_210" data-name="Контур 210" d="M16369.438,3881.172h13.965" transform="translate(-16367.171 -3862.344)" fill="none" stroke="#000" stroke-width="0.5"/>
      <path id="Контур_205" data-name="Контур 205" d="M16369.438,3881.172h13.965" transform="translate(-16367.198 -3847.344)" fill="none" stroke="#000" stroke-width="0.5"/>
      <path id="Контур_206" data-name="Контур 206" d="M16369.438,3881.172h13.965" transform="translate(-16367.253 -3856.344)" fill="none" stroke="#000" stroke-width="0.5"/>
      <path id="Контур_209" data-name="Контур 209" d="M16369.438,3881.172h13.965" transform="translate(-16367.171 -3865.344)" fill="none" stroke="#000" stroke-width="0.5"/>
      <path id="Контур_212" data-name="Контур 212" d="M16369.438,3881.172h13.965" transform="translate(-16367.253 -3868.344)" fill="none" stroke="#000" stroke-width="0.5"/>
      <path id="Контур_213" data-name="Контур 213" d="M16369.438,3881.172h13.965" transform="translate(-16367.198 -3871.344)" fill="none" stroke="#000" stroke-width="0.5"/>
    </g>
    <g id="Сгруппировать_76" data-name="Сгруппировать 76" transform="translate(18.012 199.467)">
      <path id="Контур_275" data-name="Контур 275" d="M1,40H39a1,1,0,0,0,1-1V1a1,1,0,0,0-1-1H1A1,1,0,0,0,0,1V39A1,1,0,0,0,1,40Z" transform="translate(0 0)" fill="none" stroke="#000" stroke-width="0.5"/>
      <path id="Контур_274" data-name="Контур 274" d="M4,8A4,4,0,1,0,0,4,4,4,0,0,0,4,8Z" transform="translate(5 27)" fill="none" stroke="#000" stroke-width="0.5"/>
      <path id="Контур_273" data-name="Контур 273" d="M4,8A4,4,0,1,0,0,4,4,4,0,0,0,4,8Z" transform="translate(25 6)" fill="none" stroke="#000" stroke-width="0.5"/>
      <path id="Контур_272" data-name="Контур 272" d="M7,14A7,7,0,1,0,0,7,7,7,0,0,0,7,14Z" transform="translate(5 4)" fill="none" stroke="#000" stroke-width="0.5"/>
      <path id="Контур_271" data-name="Контур 271" d="M7,14A7,7,0,1,0,0,7,7,7,0,0,0,7,14Z" transform="translate(19 21)" fill="none" stroke="#000" stroke-width="0.5"/>
      <path id="Контур_270" data-name="Контур 270" d="M5,10A5,5,0,1,0,0,5,5,5,0,0,0,5,10Z" transform="translate(7 6)" fill="none" stroke="#000" stroke-width="0.5"/>
      <path id="Контур_269" data-name="Контур 269" d="M5,10A5,5,0,1,0,0,5,5,5,0,0,0,5,10Z" transform="translate(21 23)" fill="none" stroke="#000" stroke-width="0.5"/>
    </g>
    <g id="Контур_415" data-name="Контур 415" transform="translate(146.121 171.541)" fill="#fff">
      <path d="M 60 85.75003051757812 L 4 85.75003051757812 C 1.932244420051575 85.75003051757812 0.25 84.06778717041016 0.25 82.00003051757812 L 0.25 4.000011920928955 C 0.25 1.93225622177124 1.932244420051575 0.2500117719173431 4 0.2500117719173431 L 60 0.2500117719173431 C 62.06775665283203 0.2500117719173431 63.75 1.93225622177124 63.75 4.000011920928955 L 63.75 82.00003051757812 C 63.75 84.06778717041016 62.06775665283203 85.75003051757812 60 85.75003051757812 Z" stroke="none"/>
      <path d="M 60 85.50003051757812 C 61.92991256713867 85.50003051757812 63.5 83.92994689941406 63.5 82.00003051757812 L 63.5 4.000011920928955 C 63.5 2.070100784301758 61.92991256713867 0.5000118017196655 60 0.5000118017196655 L 4 0.5000118017196655 C 2.070088863372803 0.5000118017196655 0.5 2.070100784301758 0.5 4.000011920928955 L 0.5 82.00003051757812 C 0.5 83.92994689941406 2.070088863372803 85.50003051757812 4 85.50003051757812 L 60 85.50003051757812 M 60 86.00003051757812 L 4 86.00003051757812 C 1.790866613388062 86.00003051757812 0 84.20917510986328 0 82.00003051757812 L 0 4.000011920928955 C 0 1.790867328643799 1.790866613388062 1.17770723591093e-05 4 1.17770723591093e-05 L 60 1.17770723591093e-05 C 62.20914459228516 1.17770723591093e-05 64 1.790867328643799 64 4.000011920928955 L 64 82.00003051757812 C 64 84.20917510986328 62.20914459228516 86.00003051757812 60 86.00003051757812 Z" stroke="none" fill="#000"/>
    </g>
    <g id="Сгруппировать_77" data-name="Сгруппировать 77" transform="translate(161.346 159.943)">
      <path id="Контур_181" data-name="Контур 181" d="M11.6,33.329,0,35.742V0L11.6,1.663" transform="translate(35.741) rotate(90)" fill="#fff" stroke="#000" stroke-width="0.5"/>
      <path id="Контур_182" data-name="Контур 182" d="M0,35.286V0" transform="translate(35.794 1.516) rotate(90)" fill="#fff" stroke="#000" stroke-width="0.5"/>
    </g>
    <g id="Сгруппировать_78" data-name="Сгруппировать 78" transform="translate(160.222 257.541)">
      <path id="Контур_181-2" data-name="Контур 181" d="M11.6,2.413,0,0V35.744l11.6-1.663" transform="translate(0 11.604) rotate(-90)" fill="#fff" stroke="#000" stroke-width="0.5"/>
      <path id="Контур_182-2" data-name="Контур 182" d="M0,0V35.288" transform="translate(0.509 10.088) rotate(-90)" fill="#fff" stroke="#000" stroke-width="0.5"/>
    </g>
    <path id="Контур_417" data-name="Контур 417" d="M13602.312,2721.246h-52.522" transform="translate(-13539 -2526.851)" fill="none" stroke="#000" stroke-width="0.5"/>
    <path id="Контур_418" data-name="Контур 418" d="M13602.312,2721.246h-52.522" transform="translate(-13539 -2476.706)" fill="none" stroke="#000" stroke-width="0.5"/>
    <g id="Сгруппировать_79" data-name="Сгруппировать 79" transform="translate(385.018 507.303) rotate(90)">
      <path id="Контур_419" data-name="Контур 419" d="M0,14.179v2.673H16.633V0H0V2.776" transform="translate(2.448)" fill="none" stroke="#000" stroke-width="0.5"/>
      <path id="Контур_420" data-name="Контур 420" d="M0,10.467,2.131,12.6,9.878,9.2,6.669,5.988,9.393,3.264,2.131,0,0,2.13Z" transform="translate(0 1.795)" fill="none" stroke="#000" stroke-width="0.5"/>
      <path id="Контур_421" data-name="Контур 421" d="M0,0,6.313,3.965,0,8.523" transform="translate(0.264 3.879)" fill="none" stroke="#000" stroke-width="0.5"/>
      <path id="Контур_422" data-name="Контур 422" d="M0,0H11.8" transform="translate(7.046 7.826)" fill="none" stroke="#000" stroke-width="0.5"/>
    </g>
    <g id="Сгруппировать_80" data-name="Сгруппировать 80" transform="translate(408.058 507.222) rotate(90)">
      <path id="Контур_419-2" data-name="Контур 419" d="M0,14.179v2.673H16.633V0H0V2.776" transform="translate(2.448)" fill="none" stroke="#000" stroke-width="0.5"/>
      <path id="Контур_420-2" data-name="Контур 420" d="M0,10.467,2.131,12.6,9.878,9.2,6.669,5.988,9.393,3.264,2.131,0,0,2.13Z" transform="translate(0 1.795)" fill="none" stroke="#000" stroke-width="0.5"/>
      <path id="Контур_421-2" data-name="Контур 421" d="M0,0,6.313,3.965,0,8.523" transform="translate(0.264 3.879)" fill="none" stroke="#000" stroke-width="0.5"/>
      <path id="Контур_422-2" data-name="Контур 422" d="M0,0H11.8" transform="translate(7.046 7.826)" fill="none" stroke="#000" stroke-width="0.5"/>
    </g>
    <g id="Сгруппировать_81" data-name="Сгруппировать 81" transform="translate(431.097 507.303) rotate(90)">
      <path id="Контур_419-3" data-name="Контур 419" d="M0,14.179v2.673H16.633V0H0V2.776" transform="translate(2.448)" fill="none" stroke="#000" stroke-width="0.5"/>
      <path id="Контур_420-3" data-name="Контур 420" d="M0,10.467,2.131,12.6,9.878,9.2,6.669,5.988,9.393,3.264,2.131,0,0,2.13Z" transform="translate(0 1.795)" fill="none" stroke="#000" stroke-width="0.5"/>
      <path id="Контур_421-3" data-name="Контур 421" d="M0,0,6.313,3.965,0,8.523" transform="translate(0.264 3.879)" fill="none" stroke="#000" stroke-width="0.5"/>
      <path id="Контур_422-3" data-name="Контур 422" d="M0,0H11.8" transform="translate(7.046 7.826)" fill="none" stroke="#000" stroke-width="0.5"/>
    </g>
    <g id="Сгруппировать_82" data-name="Сгруппировать 82" transform="translate(454.137 507.204) rotate(90)">
      <path id="Контур_419-4" data-name="Контур 419" d="M0,14.179v2.673H16.633V0H0V2.776" transform="translate(2.448)" fill="none" stroke="#000" stroke-width="0.5"/>
      <path id="Контур_420-4" data-name="Контур 420" d="M0,10.467,2.131,12.6,9.878,9.2,6.669,5.988,9.393,3.264,2.131,0,0,2.13Z" transform="translate(0 1.795)" fill="none" stroke="#000" stroke-width="0.5"/>
      <path id="Контур_421-4" data-name="Контур 421" d="M0,0,6.313,3.965,0,8.523" transform="translate(0.264 3.879)" fill="none" stroke="#000" stroke-width="0.5"/>
      <path id="Контур_422-4" data-name="Контур 422" d="M0,0H11.8" transform="translate(7.046 7.826)" fill="none" stroke="#000" stroke-width="0.5"/>
    </g>
    <path id="Контур_2078" data-name="Контур 2078" d="M4.769-1.751V-9.562l-3.2,1.147v-1.878l5.041-1.793V-1.751H9.469V0H1.734V-1.751Zm14.646-8.7L14.263,0h-2.15L17.2-10.158H11.237V-11.9h8.177Zm3.239,7.692a1.42,1.42,0,0,1,1.037.442,1.42,1.42,0,0,1,.442,1.037A1.448,1.448,0,0,1,23.69-.238a1.407,1.407,0,0,1-1.037.451,1.425,1.425,0,0,1-1.037-.451,1.434,1.434,0,0,1-.451-1.046,1.411,1.411,0,0,1,.451-1.033A1.432,1.432,0,0,1,22.653-2.763ZM30.031-12.1a4.292,4.292,0,0,1,1.4.225,3.781,3.781,0,0,1,1.232.714,4.643,4.643,0,0,1,.99,1.2,6.185,6.185,0,0,1,.654,1.738,10.115,10.115,0,0,1,.238,2.278,10.8,10.8,0,0,1-.238,2.372,6.068,6.068,0,0,1-.65,1.751,4.186,4.186,0,0,1-.995,1.16A3.8,3.8,0,0,1,31.429,0a4.647,4.647,0,0,1-1.4.2A4.854,4.854,0,0,1,28.615,0a3.772,3.772,0,0,1-1.25-.667,4.3,4.3,0,0,1-1.011-1.164,6.06,6.06,0,0,1-.667-1.751,10.442,10.442,0,0,1-.247-2.372,10.442,10.442,0,0,1,.247-2.371,6.122,6.122,0,0,1,.667-1.755,4.216,4.216,0,0,1,1.011-1.165,3.812,3.812,0,0,1,1.25-.663A4.854,4.854,0,0,1,30.031-12.1Zm0,1.768a2.553,2.553,0,0,0-.82.127,2.055,2.055,0,0,0-.727.446,2.768,2.768,0,0,0-.595.808A4.786,4.786,0,0,0,27.5-7.7a9.5,9.5,0,0,0-.145,1.751A9.5,9.5,0,0,0,27.5-4.2a4.786,4.786,0,0,0,.391,1.254,2.768,2.768,0,0,0,.595.807,2.055,2.055,0,0,0,.727.446,2.553,2.553,0,0,0,.82.128,2.422,2.422,0,0,0,.795-.128,2,2,0,0,0,.71-.446,2.729,2.729,0,0,0,.578-.807A4.928,4.928,0,0,0,32.491-4.2a9.784,9.784,0,0,0,.14-1.751,5.9,5.9,0,0,0-.744-3.294A2.192,2.192,0,0,0,30.031-10.336ZM50.942,0H49.1V-6.807q-.166.515-.506,1.519L46.676,0h-1.71L43.015-5.3q-.158-.432-.506-1.519V0H40.94V-8.5h2.507L45.4-3.254q.208.573.531,1.585l.531-1.552L48.369-8.5h2.573Zm1.838-11.9A2.631,2.631,0,0,1,55-13.06a2.274,2.274,0,0,1,1.683.617,2.183,2.183,0,0,1,.617,1.614,2.219,2.219,0,0,1-.079.6,2.184,2.184,0,0,1-.231.538,4.155,4.155,0,0,1-.285.424q-.134.171-.327.384l-1.74,1.864h2.851V-6H53.044v-.843L55.552-9.51a1.953,1.953,0,0,0,.62-1.324,1.19,1.19,0,0,0-.325-.865,1.169,1.169,0,0,0-.88-.335,1.47,1.47,0,0,0-.793.2,2.7,2.7,0,0,0-.625.573Z" transform="translate(317.183 269.842)"/>
    <path id="Контур_2077" data-name="Контур 2077" d="M7.769-4.063H9.588v1.751H7.769V0H5.925V-2.312H.612v-1.42l4.454-8.152H7.157L2.831-4.063H5.925v-3.2H7.769Zm4.684,1.3a1.42,1.42,0,0,1,1.037.442,1.42,1.42,0,0,1,.442,1.037A1.448,1.448,0,0,1,13.49-.238a1.407,1.407,0,0,1-1.037.451,1.425,1.425,0,0,1-1.037-.451,1.434,1.434,0,0,1-.45-1.046,1.411,1.411,0,0,1,.45-1.033A1.432,1.432,0,0,1,12.453-2.763ZM19.831-12.1a4.292,4.292,0,0,1,1.4.225,3.781,3.781,0,0,1,1.232.714,4.643,4.643,0,0,1,.99,1.2,6.185,6.185,0,0,1,.654,1.738,10.115,10.115,0,0,1,.238,2.278,10.8,10.8,0,0,1-.238,2.372,6.068,6.068,0,0,1-.65,1.751,4.185,4.185,0,0,1-.995,1.16A3.8,3.8,0,0,1,21.229,0a4.647,4.647,0,0,1-1.4.2A4.854,4.854,0,0,1,18.415,0a3.772,3.772,0,0,1-1.25-.667,4.3,4.3,0,0,1-1.011-1.164,6.06,6.06,0,0,1-.667-1.751,10.442,10.442,0,0,1-.247-2.372,10.442,10.442,0,0,1,.247-2.371,6.122,6.122,0,0,1,.667-1.755,4.216,4.216,0,0,1,1.011-1.165,3.812,3.812,0,0,1,1.25-.663A4.854,4.854,0,0,1,19.831-12.1Zm0,1.768a2.553,2.553,0,0,0-.82.127,2.055,2.055,0,0,0-.727.446,2.768,2.768,0,0,0-.595.808A4.786,4.786,0,0,0,17.3-7.7a9.5,9.5,0,0,0-.145,1.751A9.5,9.5,0,0,0,17.3-4.2a4.786,4.786,0,0,0,.391,1.254,2.768,2.768,0,0,0,.595.807,2.055,2.055,0,0,0,.727.446,2.553,2.553,0,0,0,.82.128,2.422,2.422,0,0,0,.795-.128,2,2,0,0,0,.71-.446,2.729,2.729,0,0,0,.578-.807A4.928,4.928,0,0,0,22.291-4.2a9.785,9.785,0,0,0,.14-1.751,5.9,5.9,0,0,0-.744-3.294A2.192,2.192,0,0,0,19.831-10.336ZM40.742,0H38.9V-6.807q-.166.515-.506,1.519L36.476,0h-1.71L32.815-5.3q-.158-.432-.506-1.519V0H30.74V-8.5h2.507L35.2-3.254q.208.573.531,1.585l.531-1.552L38.169-8.5h2.573Zm1.838-11.9A2.631,2.631,0,0,1,44.8-13.06a2.275,2.275,0,0,1,1.683.617,2.183,2.183,0,0,1,.617,1.614,2.219,2.219,0,0,1-.079.6,2.184,2.184,0,0,1-.231.538,4.155,4.155,0,0,1-.285.424q-.134.171-.327.384l-1.74,1.864h2.851V-6H42.844v-.843L45.352-9.51a1.953,1.953,0,0,0,.62-1.324,1.19,1.19,0,0,0-.325-.865,1.169,1.169,0,0,0-.88-.335,1.47,1.47,0,0,0-.793.2,2.7,2.7,0,0,0-.625.573Z" transform="translate(113.222 104.834)"/>
    <path id="Контур_2076" data-name="Контур 2076" d="M2.971-11.709a5.548,5.548,0,0,1,2.138-.4,5.548,5.548,0,0,1,2.138.4,3.535,3.535,0,0,1,1.534,1.181A3,3,0,0,1,9.359-8.7,2.822,2.822,0,0,1,7.531-6,3.692,3.692,0,0,1,9.065-4.939,2.579,2.579,0,0,1,9.639-3.23a2.9,2.9,0,0,1-.616,1.836A3.794,3.794,0,0,1,7.387-.2,6.142,6.142,0,0,1,5.109.2,6.142,6.142,0,0,1,2.831-.2,3.794,3.794,0,0,1,1.194-1.394,2.9,2.9,0,0,1,.578-3.23a2.583,2.583,0,0,1,.578-1.713A3.647,3.647,0,0,1,2.686-6,2.822,2.822,0,0,1,.859-8.7a3,3,0,0,1,.578-1.823A3.535,3.535,0,0,1,2.971-11.709ZM6.945-4.688a3.234,3.234,0,0,0-1.836-.489,3.255,3.255,0,0,0-1.84.489,1.542,1.542,0,0,0-.735,1.356,1.525,1.525,0,0,0,.735,1.343,3.277,3.277,0,0,0,1.84.485,3.256,3.256,0,0,0,1.836-.485,1.527,1.527,0,0,0,.731-1.343A1.544,1.544,0,0,0,6.945-4.688ZM6.758-9.915a2.749,2.749,0,0,0-1.649-.472,2.729,2.729,0,0,0-1.645.472,1.523,1.523,0,0,0-.65,1.3,1.567,1.567,0,0,0,.65,1.343,2.712,2.712,0,0,0,1.645.476,2.731,2.731,0,0,0,1.649-.476,1.563,1.563,0,0,0,.655-1.343A1.519,1.519,0,0,0,6.758-9.915Zm5.7,7.153a1.42,1.42,0,0,1,1.037.442,1.42,1.42,0,0,1,.442,1.037A1.448,1.448,0,0,1,13.49-.238a1.407,1.407,0,0,1-1.037.451,1.425,1.425,0,0,1-1.037-.451,1.434,1.434,0,0,1-.45-1.046,1.411,1.411,0,0,1,.45-1.033A1.432,1.432,0,0,1,12.453-2.763ZM19.831-12.1a4.292,4.292,0,0,1,1.4.225,3.781,3.781,0,0,1,1.232.714,4.643,4.643,0,0,1,.99,1.2,6.185,6.185,0,0,1,.654,1.738,10.115,10.115,0,0,1,.238,2.278,10.8,10.8,0,0,1-.238,2.372,6.068,6.068,0,0,1-.65,1.751,4.185,4.185,0,0,1-.995,1.16A3.8,3.8,0,0,1,21.229,0a4.647,4.647,0,0,1-1.4.2A4.854,4.854,0,0,1,18.415,0a3.772,3.772,0,0,1-1.25-.667,4.3,4.3,0,0,1-1.011-1.164,6.06,6.06,0,0,1-.667-1.751,10.442,10.442,0,0,1-.247-2.372,10.442,10.442,0,0,1,.247-2.371,6.122,6.122,0,0,1,.667-1.755,4.216,4.216,0,0,1,1.011-1.165,3.812,3.812,0,0,1,1.25-.663A4.854,4.854,0,0,1,19.831-12.1Zm0,1.768a2.553,2.553,0,0,0-.82.127,2.055,2.055,0,0,0-.727.446,2.768,2.768,0,0,0-.595.808A4.786,4.786,0,0,0,17.3-7.7a9.5,9.5,0,0,0-.145,1.751A9.5,9.5,0,0,0,17.3-4.2a4.786,4.786,0,0,0,.391,1.254,2.768,2.768,0,0,0,.595.807,2.055,2.055,0,0,0,.727.446,2.553,2.553,0,0,0,.82.128,2.422,2.422,0,0,0,.795-.128,2,2,0,0,0,.71-.446,2.729,2.729,0,0,0,.578-.807A4.928,4.928,0,0,0,22.291-4.2a9.785,9.785,0,0,0,.14-1.751,5.9,5.9,0,0,0-.744-3.294A2.192,2.192,0,0,0,19.831-10.336ZM40.742,0H38.9V-6.807q-.166.515-.506,1.519L36.476,0h-1.71L32.815-5.3q-.158-.432-.506-1.519V0H30.74V-8.5h2.507L35.2-3.254q.208.573.531,1.585l.531-1.552L38.169-8.5h2.573Zm1.838-11.9A2.631,2.631,0,0,1,44.8-13.06a2.275,2.275,0,0,1,1.683.617,2.183,2.183,0,0,1,.617,1.614,2.219,2.219,0,0,1-.079.6,2.184,2.184,0,0,1-.231.538,4.155,4.155,0,0,1-.285.424q-.134.171-.327.384l-1.74,1.864h2.851V-6H42.844v-.843L45.352-9.51a1.953,1.953,0,0,0,.62-1.324,1.19,1.19,0,0,0-.325-.865,1.169,1.169,0,0,0-.88-.335,1.47,1.47,0,0,0-.793.2,2.7,2.7,0,0,0-.625.573Z" transform="translate(84.494 242.567)"/>
    <path id="Контур_2075" data-name="Контур 2075" d="M4.777-12.1a4.412,4.412,0,0,1,2.928.935A3.056,3.056,0,0,1,8.823-8.7a2.771,2.771,0,0,1-.48,1.619A3.2,3.2,0,0,1,7.013-6,3.6,3.6,0,0,1,8.538-4.9,2.614,2.614,0,0,1,9.1-3.239a3.2,3.2,0,0,1-.353,1.513A2.979,2.979,0,0,1,7.795-.642a4.583,4.583,0,0,1-1.339.629A5.578,5.578,0,0,1,4.888.2,6.079,6.079,0,0,1,2.516-.238,4.386,4.386,0,0,1,.791-1.5L1.972-2.729a3.69,3.69,0,0,0,1.292.9,4.031,4.031,0,0,0,1.581.319A2.807,2.807,0,0,0,6.52-1.976a1.554,1.554,0,0,0,.646-1.347,1.527,1.527,0,0,0-.731-1.343A3.272,3.272,0,0,0,4.59-5.151H3.154V-6.843H4.582A2.855,2.855,0,0,0,6.247-7.3,1.5,1.5,0,0,0,6.9-8.611a1.532,1.532,0,0,0-.646-1.3,2.6,2.6,0,0,0-1.6-.48,2.711,2.711,0,0,0-1.4.365,3.132,3.132,0,0,0-1,.918L.927-10.234A3.882,3.882,0,0,1,2.448-11.59,4.972,4.972,0,0,1,4.777-12.1Zm7.676,9.342a1.42,1.42,0,0,1,1.037.442,1.42,1.42,0,0,1,.442,1.037A1.448,1.448,0,0,1,13.49-.238a1.407,1.407,0,0,1-1.037.451,1.425,1.425,0,0,1-1.037-.451,1.434,1.434,0,0,1-.45-1.046,1.411,1.411,0,0,1,.45-1.033A1.432,1.432,0,0,1,12.453-2.763Zm10.744-7.4H18.224l-.059,2.873h1.564a5.194,5.194,0,0,1,1.806.293,3.4,3.4,0,0,1,1.284.795,3.414,3.414,0,0,1,.739,1.135,3.626,3.626,0,0,1,.251,1.347,4.111,4.111,0,0,1-.34,1.7,3.369,3.369,0,0,1-.918,1.241,4.148,4.148,0,0,1-1.326.735,4.893,4.893,0,0,1-1.589.255,5.061,5.061,0,0,1-4.14-1.9l1.224-1.2a3.649,3.649,0,0,0,1.313.982,3.822,3.822,0,0,0,1.594.361A2.266,2.266,0,0,0,21.3-2.134a1.934,1.934,0,0,0,.587-1.42,2.054,2.054,0,0,0-.132-.748,1.769,1.769,0,0,0-.429-.629,2.009,2.009,0,0,0-.85-.451,4.731,4.731,0,0,0-1.318-.161H16.422l.111-6.358H23.2ZM40.742,0H38.9V-6.807q-.166.515-.506,1.519L36.476,0h-1.71L32.815-5.3q-.158-.432-.506-1.519V0H30.74V-8.5h2.507L35.2-3.254q.208.573.531,1.585l.531-1.552L38.169-8.5h2.573Zm1.838-11.9A2.631,2.631,0,0,1,44.8-13.06a2.275,2.275,0,0,1,1.683.617,2.183,2.183,0,0,1,.617,1.614,2.219,2.219,0,0,1-.079.6,2.184,2.184,0,0,1-.231.538,4.155,4.155,0,0,1-.285.424q-.134.171-.327.384l-1.74,1.864h2.851V-6H42.844v-.843L45.352-9.51a1.953,1.953,0,0,0,.62-1.324,1.19,1.19,0,0,0-.325-.865,1.169,1.169,0,0,0-.88-.335,1.47,1.47,0,0,0-.793.2,2.7,2.7,0,0,0-.625.573Z" transform="translate(165.409 433.012)"/>
    <path id="Контур_2074" data-name="Контур 2074" d="M4.769-1.751V-9.562l-3.2,1.147v-1.878l5.041-1.793V-1.751H9.469V0H1.734V-1.751Zm7.684-1.011a1.42,1.42,0,0,1,1.037.442,1.42,1.42,0,0,1,.442,1.037A1.448,1.448,0,0,1,13.49-.238a1.407,1.407,0,0,1-1.037.451,1.425,1.425,0,0,1-1.037-.451,1.434,1.434,0,0,1-.45-1.046,1.411,1.411,0,0,1,.45-1.033A1.432,1.432,0,0,1,12.453-2.763Zm10.013-1.3h1.819v1.751H22.465V0H20.621V-2.312H15.309v-1.42l4.454-8.152h2.091l-4.326,7.82h3.094v-3.2h1.844ZM40.742,0H38.9V-6.807q-.166.515-.506,1.519L36.476,0h-1.71L32.815-5.3q-.158-.432-.506-1.519V0H30.74V-8.5h2.507L35.2-3.254q.208.573.531,1.585l.531-1.552L38.169-8.5h2.573Zm1.838-11.9A2.631,2.631,0,0,1,44.8-13.06a2.275,2.275,0,0,1,1.683.617,2.183,2.183,0,0,1,.617,1.614,2.219,2.219,0,0,1-.079.6,2.184,2.184,0,0,1-.231.538,4.155,4.155,0,0,1-.285.424q-.134.171-.327.384l-1.74,1.864h2.851V-6H42.844v-.843L45.352-9.51a1.953,1.953,0,0,0,.62-1.324,1.19,1.19,0,0,0-.325-.865,1.169,1.169,0,0,0-.88-.335,1.47,1.47,0,0,0-.793.2,2.7,2.7,0,0,0-.625.573Z" transform="translate(79.994 378.186)"/>
    <path id="Контур_2073" data-name="Контур 2073" d="M1-10.115A4.511,4.511,0,0,1,4.8-12.1a3.9,3.9,0,0,1,2.886,1.058A3.742,3.742,0,0,1,8.747-8.279a3.8,3.8,0,0,1-.136,1.024,3.744,3.744,0,0,1-.4.922,7.123,7.123,0,0,1-.489.727q-.23.293-.561.659l-2.984,3.2H9.069V0H1.454V-1.445l4.3-4.573a3.348,3.348,0,0,0,1.063-2.27A2.041,2.041,0,0,0,6.26-9.771a2,2,0,0,0-1.509-.574,2.52,2.52,0,0,0-1.36.336,4.62,4.62,0,0,0-1.071.982Zm11.45,7.353a1.42,1.42,0,0,1,1.037.442,1.42,1.42,0,0,1,.442,1.037A1.448,1.448,0,0,1,13.49-.238a1.407,1.407,0,0,1-1.037.451,1.425,1.425,0,0,1-1.037-.451,1.434,1.434,0,0,1-.45-1.046,1.411,1.411,0,0,1,.45-1.033A1.432,1.432,0,0,1,12.453-2.763Zm11.458-7.692L18.76,0h-2.15l5.083-10.158H15.734V-11.9h8.177ZM40.742,0H38.9V-6.807q-.166.515-.506,1.519L36.476,0h-1.71L32.815-5.3q-.158-.432-.506-1.519V0H30.74V-8.5h2.507L35.2-3.254q.208.573.531,1.585l.531-1.552L38.169-8.5h2.573Zm1.838-11.9A2.631,2.631,0,0,1,44.8-13.06a2.275,2.275,0,0,1,1.683.617,2.183,2.183,0,0,1,.617,1.614,2.219,2.219,0,0,1-.079.6,2.184,2.184,0,0,1-.231.538,4.155,4.155,0,0,1-.285.424q-.134.171-.327.384l-1.74,1.864h2.851V-6H42.844v-.843L45.352-9.51a1.953,1.953,0,0,0,.62-1.324,1.19,1.19,0,0,0-.325-.865,1.169,1.169,0,0,0-.88-.335,1.47,1.47,0,0,0-.793.2,2.7,2.7,0,0,0-.625.573Z" transform="translate(79.994 501.012)"/>
  </g>
</svg>
