<svg xmlns="http://www.w3.org/2000/svg" width="87.557" height="107.234" viewBox="0 0 87.557 107.234">
  <g id="Сгруппировать_630" data-name="Сгруппировать 630" transform="translate(-2611.736 -3937.314) rotate(180)">
    <g id="Сгруппировать_512" data-name="Сгруппировать 512" transform="translate(-3202.293 -4465.193)">
      <path id="Контур_595" data-name="Контур 595" d="M88.706,22.9H3.646v79.283H44.593V115.21l12.263,7.316H77.79l10.916-6.415Z" transform="translate(500.594 405.272)" fill="#CFB821"/>
      <path id="Контур_342" data-name="Контур 342" d="M2.538,0H0V80.826H2.538Z" transform="translate(503 426.908)"/>
      <path id="Контур_347" data-name="Контур 347" d="M0,48.616H2.538V0H0Z" transform="translate(551.87 426.908) rotate(90)"/>
      <path id="Контур_348" data-name="Контур 348" d="M0,26.846H2.538V0H0Z" transform="translate(590.557 426.908) rotate(90)"/>
      <path id="Контур_345" data-name="Контур 345" d="M2.538,0H0V80.826H2.538Z" transform="translate(588.019 426.908)"/>
      <path id="Контур_343" data-name="Контур 343" d="M16748.49,3668.767v-1.356h-.928v-4.04h-7.914v4.14h-.8v1.255Z" transform="translate(-16235.59 -3161.034)"/>
      <path id="Контур_346" data-name="Контур 346" d="M16738.844,3668.767v-1.356h.928v-4.04h7.914v4.14h.8v1.255Z" transform="translate(-16157.934 -3161.034)"/>
      <path id="Контур_344" data-name="Контур 344" d="M16755.576,3668.767v-1.255h-.926v-4.14h-15v4.14h-.8v1.255Z" transform="translate(-16200.066 -3161.034)"/>
      <path id="Контур_349" data-name="Контур 349" d="M0,26.686H1.631V0H0Z" transform="translate(546.326 450.111)"/>
      <path id="Контур_350" data-name="Контур 350" d="M0,10H1.631V0H0Z" transform="translate(546.326 428.902)"/>
      <path id="Контур_351" data-name="Контур 351" d="M0,3.574H1.631V0H0Z" transform="translate(565.723 428.902)"/>
      <path id="Контур_352" data-name="Контур 352" d="M0,9.688H1.631V0H0Z" transform="translate(565.723 443.945)"/>
      <path id="Контур_373" data-name="Контур 373" d="M0,1.386H1.631V0H0Z" transform="translate(565.723 465)"/>
      <path id="Контур_355" data-name="Контур 355" d="M0,4.2H1.631V0H0Z" transform="translate(546.326 466.631) rotate(-90)"/>
      <path id="Контур_356" data-name="Контур 356" d="M0,5.58H1.631V0H0Z" transform="translate(561.774 467.202) rotate(-90)"/>
      <path id="Контур_354" data-name="Контур 354" d="M0,9.324H1.631V0H0Z" transform="translate(546.326 493.436)"/>
      <path id="Контур_353" data-name="Контур 353" d="M0,22.758H1.631V0H0Z" transform="translate(588.48 453) rotate(90)"/>
      <path id="Контур_357" data-name="Контур 357" d="M0,15.723H1.622V0H0Z" transform="translate(546.326 505.036)"/>
      <path id="Контур_362" data-name="Контур 362" d="M0,2.538H13.6V0H0Z" transform="translate(588.019 520.758) rotate(-90)"/>
      <path id="Контур_363" data-name="Контур 363" d="M34.494,6.851H14.712L3.82.051,3,1.464,14,8.483H35.026l12.15-7.07L46.361,0Z" transform="translate(543.38 519.396)"/>
      <path id="Контур_365" data-name="Контур 365" d="M16741.92,3668.525v-1.2h-1.312v-3.954h-28.354v3.954h-1.137v1.2Z" transform="translate(-16200.936 -3160.911)" fill="none" stroke="#000" stroke-width="0.5"/>
      <path id="Контур_366" data-name="Контур 366" d="M16390.318,3670.232h-30.17" transform="translate(-15849.965 -3163.792)" fill="none" stroke="#000" stroke-width="0.5"/>
      <path id="Контур_367" data-name="Контур 367" d="M16711.117,3668.637v-1.225h.928v-4.04h20.027v4.04h.8v1.225Z" transform="translate(-16142.596 -3161.034)" fill="none" stroke="#000" stroke-width="0.5"/>
      <path id="Контур_368" data-name="Контур 368" d="M16360.146,3671.475h15.648" transform="translate(-15791.42 -3165.098)" fill="none" stroke="#000" stroke-width="0.5"/>
      <path id="Контур_369" data-name="Контур 369" d="M0,19.94H1.631V0H0Z" transform="translate(588.11 467.202) rotate(90)"/>
      <path id="Контур_372" data-name="Контур 372" d="M0,21.933H1.631V0H0Z" transform="translate(589.288 473.909) rotate(90)"/>
      <path id="Контур_370" data-name="Контур 370" d="M1.631,0H0V6.707H1.631Z" transform="translate(567.354 467.202)"/>
      <path id="Контур_371" data-name="Контур 371" d="M16343.846,3937.725h-17.326v-2.745l.542,2.2Z" transform="translate(-15756.553 -3465.244)"/>
      <path id="Контур_374" data-name="Контур 374" d="M0,0H.544V11.239H0Z" transform="translate(555.708 421.13) rotate(-45)"/>
      <path id="Контур_375" data-name="Контур 375" d="M70.568,46.158a8.254,8.254,0,0,1-.14-1.528,8.349,8.349,0,0,1,3.911-7.061" transform="translate(481.624 383.288)" fill="none" stroke="#000" stroke-width="0.5"/>
      <path id="Контур_376" data-name="Контур 376" d="M0,0H.544V10.514H0Z" transform="matrix(-0.857, 0.515, -0.515, -0.857, 555.94, 474.433)"/>
      <path id="Контур_377" data-name="Контур 377" d="M0,0A7.705,7.705,0,0,1,5.242,7.318a7.779,7.779,0,0,1-.353,2.315" transform="matrix(0.515, 0.857, -0.857, 0.515, 561.287, 465.384)" fill="none" stroke="#000" stroke-width="0.5"/>
      <path id="Контур_378" data-name="Контур 378" d="M0,0H.544V11.239H0Z" transform="translate(559.039 440.097) rotate(-135)"/>
      <path id="Контур_380" data-name="Контур 380" d="M0,10.3H.5V0H0Z" transform="translate(567.128 465.456) rotate(135)"/>
      <path id="Контур_379" data-name="Контур 379" d="M3.771,0a8.255,8.255,0,0,1,.14,1.528A8.349,8.349,0,0,1,0,8.589" transform="translate(567.354 439.843) rotate(90)" fill="none" stroke="#000" stroke-width="0.5"/>
      <path id="Контур_381" data-name="Контур 381" d="M3.455,7.87a7.564,7.564,0,0,0,.128-1.4A7.651,7.651,0,0,0,0,0" transform="translate(559.595 458.406) rotate(-90)" fill="none" stroke="#000" stroke-width="0.5"/>
      <path id="_34.7_м2" data-name="34.7 м2" d="M.64-.259v-.864a2.549,2.549,0,0,0,1.621.566A1.762,1.762,0,0,0,3.43-.923a1.22,1.22,0,0,0,.437-.986q0-1.372-1.948-1.372H1.338V-3.96H1.89q1.733,0,1.733-1.289Q3.623-6.44,2.3-6.44a2.245,2.245,0,0,0-1.392.5v-.781a3.059,3.059,0,0,1,1.592-.4,2.055,2.055,0,0,1,1.414.469,1.532,1.532,0,0,1,.53,1.2A1.712,1.712,0,0,1,3.037-3.672v.02a1.873,1.873,0,0,1,1.2.53,1.565,1.565,0,0,1,.447,1.14A1.9,1.9,0,0,1,4.011-.461,2.65,2.65,0,0,1,2.227.117,2.928,2.928,0,0,1,.64-.259Zm9.8-1.6h-.9V0H8.75V-1.86H5.459v-.522L8.574-7h.967V-2.51h.9ZM8.75-2.51V-5.537q0-.322.02-.723H8.75a4.984,4.984,0,0,1-.269.537L6.328-2.51ZM11.87.107a.518.518,0,0,1-.383-.161.53.53,0,0,1-.159-.386.539.539,0,0,1,.159-.388.515.515,0,0,1,.383-.164.528.528,0,0,1,.391.164.534.534,0,0,1,.161.388.526.526,0,0,1-.161.386A.532.532,0,0,1,11.87.107Zm6.011-6.855L15.107,0h-.83L16.9-6.279h-3.53V-7h4.512Zm3.955,1.563h1.7l1.289,3.613,1.3-3.613h1.694V0H26.65V-3.413L25.386,0H24.214L23.008-3.413V0H21.836ZM31.211-3H28.75v-.416l1.191-1.193a4.976,4.976,0,0,0,.651-.759,1.177,1.177,0,0,0,.2-.648.721.721,0,0,0-.2-.547.8.8,0,0,0-.575-.194,1.529,1.529,0,0,0-1.048.467v-.49a1.759,1.759,0,0,1,1.114-.373,1.2,1.2,0,0,1,.86.3,1.042,1.042,0,0,1,.313.795,1.516,1.516,0,0,1-.216.768,4.862,4.862,0,0,1-.778.93l-.943.931v.011h1.9Z" transform="translate(542.583 467.736) rotate(180)"/>
    </g>
    <g id="Сгруппировать_523" data-name="Сгруппировать 523" transform="translate(-5026.377 -8157.008) rotate(180)">
      <g id="lock-outlined-24px" transform="translate(-2379.507 -4171.027)">
        <g id="Сгруппировать_134" data-name="Сгруппировать 134">
          <path id="Контур_654" data-name="Контур 654" d="M0,0H14.655V16.19H0Z" fill="none"/>
          <path id="Контур_655" data-name="Контур 655" d="M0,0H14.655V16.19H0Z" fill="none" opacity="0.87"/>
        </g>
        <path id="Контур_656" data-name="Контур 656" d="M14.552,6.072H13.8V4.623A3.7,3.7,0,0,0,10.03,1,3.7,3.7,0,0,0,6.261,4.623V6.072H5.507A1.484,1.484,0,0,0,4,7.521v7.246a1.484,1.484,0,0,0,1.507,1.449h9.045a1.484,1.484,0,0,0,1.507-1.449V7.521a1.484,1.484,0,0,0-1.507-1.449ZM7.769,4.623a2.263,2.263,0,0,1,4.522,0V6.072H7.769Zm6.783,10.144H5.507V7.521h9.045ZM10.03,12.594a1.45,1.45,0,1,0-1.507-1.449,1.484,1.484,0,0,0,1.507,1.449Z" transform="translate(-2.702 -0.676)" fill="#fff"/>
      </g>
      <path id="Контур_1719" data-name="Контур 1719" d="M3.24.15A4,4,0,0,1,2.05-.015a2.477,2.477,0,0,1-.9-.485A2.089,2.089,0,0,1,.6-1.27,2.578,2.578,0,0,1,.4-2.29v-.06h.65A1.755,1.755,0,0,0,1.66-.88,2.564,2.564,0,0,0,3.29-.4,2.294,2.294,0,0,0,4.1-.535,1.789,1.789,0,0,0,4.7-.9a1.634,1.634,0,0,0,.38-.535,1.576,1.576,0,0,0,.14-.645,1.266,1.266,0,0,0-.12-.565,1.289,1.289,0,0,0-.35-.435,1.632,1.632,0,0,0-.515-.28,1.965,1.965,0,0,0-.635-.1H2.46v-.58H3.6a1.826,1.826,0,0,0,.54-.08,1.429,1.429,0,0,0,.46-.235,1.094,1.094,0,0,0,.315-.39A1.226,1.226,0,0,0,5.03-5.29a1.416,1.416,0,0,0-.135-.64,1.255,1.255,0,0,0-.365-.445,1.557,1.557,0,0,0-.55-.26A2.639,2.639,0,0,0,3.3-6.72a2.905,2.905,0,0,0-.78.1,1.793,1.793,0,0,0-.625.3,1.488,1.488,0,0,0-.42.51,1.847,1.847,0,0,0-.185.71H.63a2.423,2.423,0,0,1,.235-.96,1.991,1.991,0,0,1,.555-.685,2.365,2.365,0,0,1,.825-.41A3.775,3.775,0,0,1,3.28-7.29a3.764,3.764,0,0,1,.945.115A2.267,2.267,0,0,1,5-6.82a1.719,1.719,0,0,1,.52.6,1.85,1.85,0,0,1,.19.865,1.511,1.511,0,0,1-.09.525,1.649,1.649,0,0,1-.24.44,1.7,1.7,0,0,1-.34.335,1.544,1.544,0,0,1-.38.21v.03a1.649,1.649,0,0,1,.9.575A1.8,1.8,0,0,1,5.9-2.09a2.214,2.214,0,0,1-.135.72,2.1,2.1,0,0,1-.445.73,2.4,2.4,0,0,1-.82.565A3.121,3.121,0,0,1,3.24.15ZM8.32.14A2.582,2.582,0,0,1,7.645.055a1.516,1.516,0,0,1-.55-.27,1.291,1.291,0,0,1-.37-.47A1.563,1.563,0,0,1,6.59-1.36,1.334,1.334,0,0,1,6.83-2.2a1.51,1.51,0,0,1,.635-.465,3.622,3.622,0,0,1,.89-.225q.5-.065,1-.125.19-.02.345-.05a.613.613,0,0,0,.255-.1.486.486,0,0,0,.155-.2.884.884,0,0,0,.055-.34,1.149,1.149,0,0,0-.1-.525.83.83,0,0,0-.29-.325,1.169,1.169,0,0,0-.43-.165,2.906,2.906,0,0,0-.53-.05,1.59,1.59,0,0,0-.98.285,1.117,1.117,0,0,0-.4.915H6.81A1.665,1.665,0,0,1,7.435-4.9,2.435,2.435,0,0,1,8.9-5.31a3.614,3.614,0,0,1,.68.065A1.643,1.643,0,0,1,10.19-5a1.334,1.334,0,0,1,.44.5,1.822,1.822,0,0,1,.17.845V-.91a.332.332,0,0,0,.09.282.332.332,0,0,0,.28.1.445.445,0,0,0,.2-.04v.53q-.11.02-.195.03A1.9,1.9,0,0,1,10.96,0a.953.953,0,0,1-.385-.065A.517.517,0,0,1,10.35-.25a.694.694,0,0,1-.105-.285A2.447,2.447,0,0,1,10.22-.9H10.2a4.21,4.21,0,0,1-.345.445,1.715,1.715,0,0,1-.39.325,1.79,1.79,0,0,1-.495.2,2.7,2.7,0,0,1-.65.07Zm.05-.52a2.167,2.167,0,0,0,.69-.11,1.7,1.7,0,0,0,.575-.32,1.553,1.553,0,0,0,.39-.51A1.543,1.543,0,0,0,10.17-2v-.82h-.02a.361.361,0,0,1-.23.16,2.347,2.347,0,0,1-.3.07q-.4.07-.825.125A4.524,4.524,0,0,0,8.02-2.3a1.477,1.477,0,0,0-.575.32.755.755,0,0,0-.225.58.917.917,0,0,0,.1.425,1.031,1.031,0,0,0,.255.32,1.123,1.123,0,0,0,.365.2A1.337,1.337,0,0,0,8.37-.38Zm5.92.52a2.356,2.356,0,0,1-1.17-.26,2.017,2.017,0,0,1-.73-.69,2.891,2.891,0,0,1-.38-.99,6.006,6.006,0,0,1-.11-1.16q0-.37.03-.775a7.094,7.094,0,0,1,.1-.8,5.816,5.816,0,0,1,.195-.755,2.789,2.789,0,0,1,.31-.65,2.046,2.046,0,0,1,.84-.77,3.451,3.451,0,0,1,1.23-.28l.48-.03a1.827,1.827,0,0,0,.54-.08.373.373,0,0,0,.2-.19h.7a.8.8,0,0,1-.405.625,2.62,2.62,0,0,1-.985.2l-.76.05a1.788,1.788,0,0,0-1.34.63,3.642,3.642,0,0,0-.63,1.77h.03a2.039,2.039,0,0,1,.77-.835,2.126,2.126,0,0,1,1.14-.315,2.4,2.4,0,0,1,.945.18,2.082,2.082,0,0,1,.735.52,2.364,2.364,0,0,1,.48.83,3.342,3.342,0,0,1,.17,1.1,3.354,3.354,0,0,1-.17,1.1,2.421,2.421,0,0,1-.485.845,2.149,2.149,0,0,1-.755.54,2.447,2.447,0,0,1-.975.19Zm0-.52a1.616,1.616,0,0,0,.7-.155,1.627,1.627,0,0,0,.56-.44,2.077,2.077,0,0,0,.365-.68,2.787,2.787,0,0,0,.13-.875,2.707,2.707,0,0,0-.13-.86,1.969,1.969,0,0,0-.365-.665,1.712,1.712,0,0,0-.55-.43,1.53,1.53,0,0,0-.685-.155,1.744,1.744,0,0,0-.73.15,1.611,1.611,0,0,0-.565.425,1.969,1.969,0,0,0-.365.665,2.741,2.741,0,0,0-.13.87,2.787,2.787,0,0,0,.13.875,2.077,2.077,0,0,0,.365.68,1.627,1.627,0,0,0,.56.44,1.616,1.616,0,0,0,.71.155Zm3.33-4.78h.58v.98h.02a1.687,1.687,0,0,1,.715-.835,2.155,2.155,0,0,1,1.125-.3,2.245,2.245,0,0,1,1.025.22,2.1,2.1,0,0,1,.725.6,2.532,2.532,0,0,1,.43.87,3.822,3.822,0,0,1,.14,1.045,3.807,3.807,0,0,1-.14,1.05,2.537,2.537,0,0,1-.43.865,2.053,2.053,0,0,1-.725.59A2.288,2.288,0,0,1,20.06.14,2.281,2.281,0,0,1,19.5.07a1.992,1.992,0,0,1-.515-.21,1.714,1.714,0,0,1-.425-.35,1.492,1.492,0,0,1-.285-.49h-.02V1.9h-.63ZM20.06-.38a1.452,1.452,0,0,0,.77-.2,1.652,1.652,0,0,0,.525-.5,2.2,2.2,0,0,0,.3-.7,3.389,3.389,0,0,0,.095-.8,3.389,3.389,0,0,0-.095-.8,2.2,2.2,0,0,0-.3-.7,1.652,1.652,0,0,0-.525-.5,1.452,1.452,0,0,0-.77-.2,1.883,1.883,0,0,0-.875.18,1.525,1.525,0,0,0-.555.48,1.891,1.891,0,0,0-.3.7,4.033,4.033,0,0,0-.085.84,3.389,3.389,0,0,0,.1.8,2.076,2.076,0,0,0,.31.7,1.67,1.67,0,0,0,.56.5,1.694,1.694,0,0,0,.845.195Zm5.48.52A2.419,2.419,0,0,1,24.5-.075a2.222,2.222,0,0,1-.77-.585,2.554,2.554,0,0,1-.47-.865A3.41,3.41,0,0,1,23.1-2.58a3.424,3.424,0,0,1,.16-1.05,2.546,2.546,0,0,1,.47-.87,2.276,2.276,0,0,1,.765-.59,2.372,2.372,0,0,1,1.045-.22,2.372,2.372,0,0,1,1.045.22,2.276,2.276,0,0,1,.765.59,2.546,2.546,0,0,1,.47.87,3.424,3.424,0,0,1,.16,1.05,3.41,3.41,0,0,1-.16,1.055,2.554,2.554,0,0,1-.47.865,2.222,2.222,0,0,1-.765.585A2.419,2.419,0,0,1,25.54.14Zm0-.52a1.593,1.593,0,0,0,.79-.19,1.734,1.734,0,0,0,.565-.5,2.269,2.269,0,0,0,.34-.7,2.866,2.866,0,0,0,.115-.8,2.866,2.866,0,0,0-.115-.805,2.269,2.269,0,0,0-.34-.7,1.734,1.734,0,0,0-.565-.5,1.593,1.593,0,0,0-.79-.19,1.593,1.593,0,0,0-.79.19,1.734,1.734,0,0,0-.565.5,2.269,2.269,0,0,0-.34.705,2.866,2.866,0,0,0-.115.805,2.866,2.866,0,0,0,.115.8,2.269,2.269,0,0,0,.34.7,1.734,1.734,0,0,0,.565.5A1.593,1.593,0,0,0,25.54-.38Zm3.37-4.78h.63v2.19h2.93V-5.16h.63V0h-.63V-2.44H29.54V0h-.63Zm5.37,0h.63V-.74l2.85-4.42h.78V0h-.63V-4.42L35.06,0h-.78Zm5.45,0h.58v.98h.02a1.687,1.687,0,0,1,.715-.835,2.155,2.155,0,0,1,1.125-.3A2.245,2.245,0,0,1,43.2-5.1a2.1,2.1,0,0,1,.725.6,2.532,2.532,0,0,1,.43.87,3.822,3.822,0,0,1,.14,1.045,3.807,3.807,0,0,1-.14,1.05,2.537,2.537,0,0,1-.43.865,2.053,2.053,0,0,1-.725.59A2.288,2.288,0,0,1,42.17.14,2.281,2.281,0,0,1,41.6.07a1.992,1.992,0,0,1-.515-.21,1.714,1.714,0,0,1-.425-.35,1.492,1.492,0,0,1-.285-.49h-.02V1.9h-.63ZM42.17-.38a1.452,1.452,0,0,0,.77-.195,1.652,1.652,0,0,0,.525-.505,2.2,2.2,0,0,0,.3-.7,3.388,3.388,0,0,0,.1-.8,3.388,3.388,0,0,0-.1-.8,2.2,2.2,0,0,0-.3-.7,1.652,1.652,0,0,0-.525-.5,1.452,1.452,0,0,0-.77-.2,1.883,1.883,0,0,0-.875.18,1.525,1.525,0,0,0-.555.48,1.891,1.891,0,0,0-.3.7,4.033,4.033,0,0,0-.085.84,3.388,3.388,0,0,0,.1.8,2.076,2.076,0,0,0,.31.7,1.67,1.67,0,0,0,.56.505,1.694,1.694,0,0,0,.845.195Zm5.48.52A2.419,2.419,0,0,1,46.6-.075a2.222,2.222,0,0,1-.76-.585,2.554,2.554,0,0,1-.47-.865,3.41,3.41,0,0,1-.16-1.055,3.424,3.424,0,0,1,.16-1.05,2.546,2.546,0,0,1,.47-.87,2.276,2.276,0,0,1,.765-.59,2.372,2.372,0,0,1,1.045-.22,2.372,2.372,0,0,1,1.045.22,2.276,2.276,0,0,1,.765.59,2.546,2.546,0,0,1,.47.87,3.424,3.424,0,0,1,.16,1.05,3.41,3.41,0,0,1-.16,1.055,2.554,2.554,0,0,1-.47.865,2.222,2.222,0,0,1-.765.585A2.419,2.419,0,0,1,47.65.14Zm0-.52a1.593,1.593,0,0,0,.79-.19,1.734,1.734,0,0,0,.56-.5,2.268,2.268,0,0,0,.34-.7,2.866,2.866,0,0,0,.115-.8,2.866,2.866,0,0,0-.115-.805A2.268,2.268,0,0,0,49-4.09a1.734,1.734,0,0,0-.565-.5,1.593,1.593,0,0,0-.79-.19,1.593,1.593,0,0,0-.79.19,1.735,1.735,0,0,0-.565.5,2.269,2.269,0,0,0-.34.7,2.866,2.866,0,0,0-.115.805,2.866,2.866,0,0,0,.115.8,2.269,2.269,0,0,0,.34.7,1.735,1.735,0,0,0,.565.5,1.593,1.593,0,0,0,.8.2Zm3.37-4.78h2.36a2.062,2.062,0,0,1,1.22.31,1.051,1.051,0,0,1,.43.91,1.238,1.238,0,0,1-.235.77,1.21,1.21,0,0,1-.655.43v.02a1.388,1.388,0,0,1,.8.4,1.24,1.24,0,0,1,.29.88,1.281,1.281,0,0,1-.47,1.07A2.2,2.2,0,0,1,53.38,0H51.02ZM53.31-.53a1.583,1.583,0,0,0,.975-.245A.874.874,0,0,0,54.6-1.51a.815.815,0,0,0-.315-.69,1.608,1.608,0,0,0-.975-.24H51.65V-.53Zm0-2.4a1.244,1.244,0,0,0,.815-.23.766.766,0,0,0,.275-.62q0-.85-1.09-.85H51.65v1.7ZM57.65.14a2.582,2.582,0,0,1-.675-.085,1.516,1.516,0,0,1-.55-.27,1.291,1.291,0,0,1-.37-.47,1.563,1.563,0,0,1-.135-.675,1.334,1.334,0,0,1,.24-.845A1.51,1.51,0,0,1,56.8-2.67a3.622,3.622,0,0,1,.89-.225q.5-.065,1-.125.19-.02.345-.05a.613.613,0,0,0,.255-.1.486.486,0,0,0,.155-.205.884.884,0,0,0,.055-.34A1.149,1.149,0,0,0,59.4-4.24a.83.83,0,0,0-.29-.325,1.169,1.169,0,0,0-.43-.165,2.906,2.906,0,0,0-.525-.045,1.59,1.59,0,0,0-.98.285,1.117,1.117,0,0,0-.4.915h-.63a1.665,1.665,0,0,1,.625-1.32A2.435,2.435,0,0,1,58.23-5.3a3.614,3.614,0,0,1,.68.065,1.643,1.643,0,0,1,.61.24,1.334,1.334,0,0,1,.44.5,1.822,1.822,0,0,1,.17.845V-.91a.332.332,0,0,0,.09.282.332.332,0,0,0,.28.1.445.445,0,0,0,.2-.04v.53q-.11.02-.195.03A1.9,1.9,0,0,1,60.29,0a.953.953,0,0,1-.39-.065.517.517,0,0,1-.22-.185.694.694,0,0,1-.1-.285A2.447,2.447,0,0,1,59.55-.9h-.02a4.209,4.209,0,0,1-.345.445,1.715,1.715,0,0,1-.39.325,1.79,1.79,0,0,1-.495.2,2.7,2.7,0,0,1-.65.07Zm.05-.52a2.168,2.168,0,0,0,.69-.11,1.7,1.7,0,0,0,.575-.32,1.554,1.554,0,0,0,.39-.51A1.543,1.543,0,0,0,59.5-2v-.82h-.02a.361.361,0,0,1-.23.16,2.347,2.347,0,0,1-.3.07q-.4.07-.825.125a4.524,4.524,0,0,0-.775.165,1.477,1.477,0,0,0-.575.32.755.755,0,0,0-.225.58.917.917,0,0,0,.1.425,1.031,1.031,0,0,0,.255.32,1.123,1.123,0,0,0,.365.2A1.337,1.337,0,0,0,57.7-.38Zm3.68-4.78h.63v2.19h2.93V-5.16h.63V0h-.63V-2.44H62.01V0h-.63ZM68.94.14A2.419,2.419,0,0,1,67.9-.075a2.222,2.222,0,0,1-.77-.585,2.554,2.554,0,0,1-.47-.865A3.41,3.41,0,0,1,66.5-2.58a3.424,3.424,0,0,1,.16-1.05,2.546,2.546,0,0,1,.47-.87,2.276,2.276,0,0,1,.765-.59,2.372,2.372,0,0,1,1.045-.22,2.372,2.372,0,0,1,1.045.22,2.276,2.276,0,0,1,.765.59,2.546,2.546,0,0,1,.47.87,3.424,3.424,0,0,1,.16,1.05,3.41,3.41,0,0,1-.16,1.055,2.554,2.554,0,0,1-.47.865,2.222,2.222,0,0,1-.765.585A2.419,2.419,0,0,1,68.94.14Zm0-.52a1.593,1.593,0,0,0,.79-.19,1.734,1.734,0,0,0,.565-.5,2.268,2.268,0,0,0,.34-.7,2.866,2.866,0,0,0,.115-.8,2.866,2.866,0,0,0-.115-.805,2.268,2.268,0,0,0-.34-.705,1.734,1.734,0,0,0-.565-.5,1.593,1.593,0,0,0-.79-.19,1.593,1.593,0,0,0-.79.19,1.735,1.735,0,0,0-.565.5,2.268,2.268,0,0,0-.34.7,2.866,2.866,0,0,0-.115.805,2.866,2.866,0,0,0,.115.8,2.268,2.268,0,0,0,.34.7,1.735,1.735,0,0,0,.565.5A1.593,1.593,0,0,0,68.94-.38Z" transform="translate(-2406.752 -4143.903)" fill="#fff"/>
    </g>
  </g>
</svg>
