<svg xmlns="http://www.w3.org/2000/svg" width="129.976" height="114.212" viewBox="0 0 129.976 114.212">
  <g id="Сгруппировать_503" data-name="Сгруппировать 503" transform="translate(2699.293 4206.63)">
    <g id="Сгруппировать_510" data-name="Сгруппировать 510" transform="translate(-3202.293 -4522.797)">
      <path id="Контур_596" data-name="Контур 596" d="M119.63.508,130.9,7.221V91.974H45.5v19.385H2.893l-.1-91.336H44.6L44.3,6.8,56.574-.456H77.511l11.11,6.865,10.63-5.9Z" transform="translate(501.178 317.123)" fill="#464646"/>
      <path id="Контур_310" data-name="Контур 310" d="M0,0H2.538V86.288H0Z" transform="translate(630.438 323.788)"/>
      <path id="Контур_309" data-name="Контур 309" d="M0,0H2.538V72.692H0Z" transform="translate(587.838 323.788)"/>
      <path id="Контур_308" data-name="Контур 308" d="M0,0H2.538V72.511H0Z" transform="translate(545.056 323.788)"/>
      <path id="Контур_307" data-name="Контур 307" d="M0,0H2.538V64.172H0Z" transform="translate(631.707 407.538) rotate(90)"/>
      <path id="Контур_306" data-name="Контур 306" d="M0,0H2.538V10.877H0Z" transform="translate(555.933 407.538) rotate(90)"/>
      <path id="Контур_305" data-name="Контур 305" d="M0,0H13.415V3.807H0Z" transform="translate(551.22 323.788) rotate(90)"/>
      <path id="Контур_304" data-name="Контур 304" d="M0,0H20.122V3.082H0Z" transform="translate(578.049 321.431) rotate(180)"/>
      <path id="Контур_303" data-name="Контур 303" d="M0,0H13.052V3.082H0Z" transform="translate(559.531 320.968) rotate(150)"/>
      <path id="Контур_302" data-name="Контур 302" d="M0,0H11.783V3.263H0Z" transform="translate(577.983 318.194) rotate(30)"/>
      <path id="Контур_301" data-name="Контур 301" d="M0,0H13.6V3.626H0Z" transform="translate(588.382 323.788) rotate(90)"/>
      <path id="Контур_300" data-name="Контур 300" d="M0,0H1.631V14.5H0Z" transform="translate(557.021 389.592) rotate(90)"/>
      <path id="Контур_299" data-name="Контур 299" d="M0,0H1.631V13.686H0Z" transform="translate(528.198 428.294) rotate(180)"/>
      <path id="Контур_298" data-name="Контур 298" d="M0,0H1.631V23.385H0Z" transform="translate(527.654 402.1) rotate(90)"/>
      <path id="Контур_297" data-name="Контур 297" d="M0,0H1.631V5.076H0Z" transform="translate(530.011 389.592) rotate(90)"/>
      <path id="Контур_296" data-name="Контур 296" d="M0,0H1.631V19.94H0Z" transform="translate(524.935 383.972) rotate(90)"/>
      <path id="Контур_295" data-name="Контур 295" d="M0,0H1.631V19.94H0Z" transform="translate(524.935 389.592) rotate(90)"/>
      <path id="Контур_294" data-name="Контур 294" d="M0,0H1.631V20.484H0Z" transform="translate(588.563 389.592) rotate(90)"/>
      <path id="Контур_293" data-name="Контур 293" d="M0,0H2.538V43.325H0Z" transform="translate(546.326 427.841) rotate(90)"/>
      <path id="Контур_292" data-name="Контур 292" d="M0,0H1.631V14.14H0Z" transform="translate(619.889 318.08) rotate(-60)"/>
      <path id="Контур_163" data-name="Контур 163" d="M32.465,1.632H12.682L.816,8.484,0,7.071,11.969,0H33L45.15,7.07l-.816,1.413Z" transform="translate(545.566 316.667)" fill="none" stroke="#000" stroke-width="1"/>
      <path id="Контур_291" data-name="Контур 291" d="M0,0H1.631V21.028H0Z" transform="translate(599.772 318.299) rotate(-90)"/>
      <path id="Контур_290" data-name="Контур 290" d="M0,0H1.632V14.14H0Z" transform="translate(588.619 325.15) rotate(-120)"/>
      <path id="Контур_159" data-name="Контур 159" d="M16738.8,3663.37v1.255h.928v4.14h15v-4.14h.8v-1.255Z" transform="translate(-16158.104 -3326.464)"/>
      <path id="Контур_166" data-name="Контур 166" d="M16711.1,3663.37v1.228h.928v4.048h20.027V3664.6h.8v-1.228Z" transform="translate(-16146.307 -3326.464)" fill="none" stroke="#000" stroke-width="0.5"/>
      <path id="Контур_167" data-name="Контур 167" d="M16711.1,3663.37v1.225h.928v4.04h20.027v-4.04h.8v-1.225Z" transform="translate(-16104.064 -3326.334)" fill="none" stroke="#000" stroke-width="0.5"/>
      <path id="Контур_161" data-name="Контур 161" d="M16738.8,3663.37v1.255h.928v4.14h15v-4.14h.8v-1.255Z" transform="translate(-16200.523 -3326.464)"/>
      <path id="Контур_162" data-name="Контур 162" d="M16782,3662.98v1.326h.928v4.14h7.174v-4.14h.8v-1.326Z" transform="translate(-16278.83 -3326.144)"/>
      <path id="Контур_160" data-name="Контур 160" d="M16738.8,3663.37v1.422h.928v4.239h12.994v-4.344h.8v-1.317Z" transform="translate(-16120.791 -3326.464)"/>
      <path id="Контур_289" data-name="Контур 289" d="M0,0H2.538V21.572H0Z" transform="translate(547.594 430.379) rotate(180)"/>
      <path id="Контур_288" data-name="Контур 288" d="M0,0H2.538V92.27H0Z" transform="translate(505.538 429.11) rotate(180)"/>
      <path id="Контур_287" data-name="Контур 287" d="M0,0H1.631V3.626H0Z" transform="translate(528.198 393.217) rotate(180)"/>
      <path id="Контур_286" data-name="Контур 286" d="M0,0H1.631V3.626H0Z" transform="translate(528.198 405.725) rotate(180)"/>
      <path id="Контур_164" data-name="Контур 164" d="M16546.5,3561.38l11.955-7,20.506-.012,12.105,6.986-.281.543-11.99-6.98-20.238.012-11.768,6.976Z" transform="translate(-16000.617 -3237.219)"/>
      <path id="Контур_165" data-name="Контур 165" d="M0,0H32.267V5.076H0Z" transform="translate(508.62 337.021)" fill="none" stroke="#000" stroke-width="0.5"/>
      <path id="Контур_285" data-name="Контур 285" d="M0,0H.544V10.514H0Z" transform="translate(598.437 402.462) rotate(60)"/>
      <path id="Контур_284" data-name="Контур 284" d="M0,0H.544V11.239H0Z" transform="translate(562.106 380.674) rotate(30)"/>
      <path id="Контур_283" data-name="Контур 283" d="M0,0H.544V11.239H0Z" transform="translate(563.697 416.137) rotate(135)"/>
      <path id="Контур_282" data-name="Контур 282" d="M0,0H.544V11.239H0Z" transform="translate(543.472 390.309) rotate(137)"/>
      <path id="Контур_281" data-name="Контур 281" d="M0,0H.544V7.768H0Z" transform="translate(532.988 398.459) rotate(135)"/>
      <path id="Контур_280" data-name="Контур 280" d="M0,0H.544V7.8H0Z" transform="translate(527.495 414.859) rotate(-135)"/>
      <path id="Контур_168" data-name="Контур 168" d="M69.444,3.921a9.049,9.049,0,0,1,5.539,8.353,9.228,9.228,0,0,1-.2,1.923" transform="translate(492.914 376.955)" fill="none" stroke="#000" stroke-width="0.5"/>
      <path id="Контур_172" data-name="Контур 172" d="M0,0A5.521,5.521,0,0,1,3.38,5.1a5.631,5.631,0,0,1-.125,1.17" transform="translate(532.836 398.458) rotate(90)" fill="none" stroke="#000" stroke-width="0.5"/>
      <path id="Контур_169" data-name="Контур 169" d="M74.983,3.921a9.049,9.049,0,0,0-5.539,8.353c0,.232.009.462.031.748" transform="translate(460.818 378.349)" fill="none" stroke="#000" stroke-width="0.5"/>
      <path id="Контур_170" data-name="Контур 170" d="M0,0A7.71,7.71,0,0,1,6.153,7.561,7.779,7.779,0,0,1,5.8,9.876" transform="translate(588.573 397.205) rotate(-30)" fill="none" stroke="#000" stroke-width="0.5"/>
      <path id="Контур_171" data-name="Контур 171" d="M74.2,37.569a8.254,8.254,0,0,1,.14,1.528,8.349,8.349,0,0,1-3.911,7.061" transform="translate(493.015 370.253)" fill="none" stroke="#000" stroke-width="0.5"/>
      <path id="Контур_173" data-name="Контур 173" d="M0,6.27a5.521,5.521,0,0,0,3.38-5.1A5.63,5.63,0,0,0,3.255,0" transform="translate(526.566 409.367) rotate(-90)" fill="none" stroke="#000" stroke-width="0.5"/>
      <path id="Контур_279" data-name="Контур 279" d="M0,0H1.631V6.707H0Z" transform="translate(524.119 383.972)"/>
      <path id="Контур_174" data-name="Контур 174" d="M16326.5,3937.73h17.326v-2.745l-.543,2.2Z" transform="translate(-15820.525 -3548.836)"/>
      <text id="_53.4_м2" data-name="53.4 м2" transform="translate(594.02 376.068)" font-size="10" font-family="Mark-Medium, Mark" font-weight="500"><tspan x="0" y="0">53.4 </tspan><tspan y="0" font-family="SegoeUI-Bold, Segoe UI" font-weight="700">м</tspan><tspan y="0" font-size="5.83" baseline-shift="3.3312868340314195">2</tspan></text>
      <path id="Контур_217" data-name="Контур 217" d="M16360.1,3670.23h26.379" transform="translate(-15848.055 -3332.165)" fill="none" stroke="#000" stroke-width="0.5"/>
      <path id="Контур_267" data-name="Контур 267" d="M16360.1,3670.23h15.649" transform="translate(-15794.703 -3332.123)" fill="none" stroke="#000" stroke-width="0.5"/>
      <path id="Контур_268" data-name="Контур 268" d="M16360.1,3671.48h15.649" transform="translate(-15752.889 -3333.211)" fill="none" stroke="#000" stroke-width="0.5"/>
    </g>
    <g id="Сгруппировать_522" data-name="Сгруппировать 522" transform="translate(-260 -4)">
      <g id="lock-outlined-24px" transform="translate(-2379.507 -4171.027)">
        <g id="Сгруппировать_134" data-name="Сгруппировать 134">
          <path id="Контур_654" data-name="Контур 654" d="M0,0H14.655V16.19H0Z" fill="none"/>
          <path id="Контур_655" data-name="Контур 655" d="M0,0H14.655V16.19H0Z" fill="none" opacity="0.87"/>
        </g>
        <path id="Контур_656" data-name="Контур 656" d="M14.552,6.072H13.8V4.623A3.7,3.7,0,0,0,10.03,1,3.7,3.7,0,0,0,6.261,4.623V6.072H5.507A1.484,1.484,0,0,0,4,7.521v7.246a1.484,1.484,0,0,0,1.507,1.449h9.045a1.484,1.484,0,0,0,1.507-1.449V7.521a1.484,1.484,0,0,0-1.507-1.449ZM7.769,4.623a2.263,2.263,0,0,1,4.522,0V6.072H7.769Zm6.783,10.144H5.507V7.521h9.045ZM10.03,12.594a1.45,1.45,0,1,0-1.507-1.449,1.484,1.484,0,0,0,1.507,1.449Z" transform="translate(-2.702 -0.676)" fill="#fff"/>
      </g>
      <path id="Контур_1717" data-name="Контур 1717" d="M3.24.15A4,4,0,0,1,2.05-.015a2.477,2.477,0,0,1-.9-.485A2.089,2.089,0,0,1,.6-1.27,2.578,2.578,0,0,1,.4-2.29v-.06h.65A1.755,1.755,0,0,0,1.66-.88,2.564,2.564,0,0,0,3.29-.4,2.294,2.294,0,0,0,4.1-.535,1.789,1.789,0,0,0,4.7-.9a1.634,1.634,0,0,0,.38-.535,1.576,1.576,0,0,0,.14-.645,1.266,1.266,0,0,0-.12-.565,1.289,1.289,0,0,0-.35-.435,1.632,1.632,0,0,0-.515-.28,1.965,1.965,0,0,0-.635-.1H2.46v-.58H3.6a1.826,1.826,0,0,0,.54-.08,1.429,1.429,0,0,0,.46-.235,1.094,1.094,0,0,0,.315-.39A1.226,1.226,0,0,0,5.03-5.29a1.416,1.416,0,0,0-.135-.64,1.255,1.255,0,0,0-.365-.445,1.557,1.557,0,0,0-.55-.26A2.639,2.639,0,0,0,3.3-6.72a2.905,2.905,0,0,0-.78.1,1.793,1.793,0,0,0-.625.3,1.488,1.488,0,0,0-.42.51,1.847,1.847,0,0,0-.185.71H.63a2.423,2.423,0,0,1,.235-.96,1.991,1.991,0,0,1,.555-.685,2.365,2.365,0,0,1,.825-.41A3.775,3.775,0,0,1,3.28-7.29a3.764,3.764,0,0,1,.945.115A2.267,2.267,0,0,1,5-6.82a1.719,1.719,0,0,1,.52.6,1.85,1.85,0,0,1,.19.865,1.511,1.511,0,0,1-.09.525,1.649,1.649,0,0,1-.24.44,1.7,1.7,0,0,1-.34.335,1.544,1.544,0,0,1-.38.21v.03a1.649,1.649,0,0,1,.9.575A1.8,1.8,0,0,1,5.9-2.09a2.214,2.214,0,0,1-.135.72,2.1,2.1,0,0,1-.445.73,2.4,2.4,0,0,1-.82.565A3.121,3.121,0,0,1,3.24.15ZM8.32.14A2.582,2.582,0,0,1,7.645.055a1.516,1.516,0,0,1-.55-.27,1.291,1.291,0,0,1-.37-.47A1.563,1.563,0,0,1,6.59-1.36,1.334,1.334,0,0,1,6.83-2.2a1.51,1.51,0,0,1,.635-.465,3.622,3.622,0,0,1,.89-.225q.5-.065,1-.125.19-.02.345-.05a.613.613,0,0,0,.255-.1.486.486,0,0,0,.155-.2.884.884,0,0,0,.055-.34,1.149,1.149,0,0,0-.1-.525.83.83,0,0,0-.29-.325,1.169,1.169,0,0,0-.43-.165,2.906,2.906,0,0,0-.53-.05,1.59,1.59,0,0,0-.98.285,1.117,1.117,0,0,0-.4.915H6.81A1.665,1.665,0,0,1,7.435-4.9,2.435,2.435,0,0,1,8.9-5.31a3.614,3.614,0,0,1,.68.065A1.643,1.643,0,0,1,10.19-5a1.334,1.334,0,0,1,.44.5,1.822,1.822,0,0,1,.17.845V-.91a.332.332,0,0,0,.09.282.332.332,0,0,0,.28.1.445.445,0,0,0,.2-.04v.53q-.11.02-.195.03A1.9,1.9,0,0,1,10.96,0a.953.953,0,0,1-.385-.065A.517.517,0,0,1,10.35-.25a.694.694,0,0,1-.105-.285A2.447,2.447,0,0,1,10.22-.9H10.2a4.21,4.21,0,0,1-.345.445,1.715,1.715,0,0,1-.39.325,1.79,1.79,0,0,1-.495.2,2.7,2.7,0,0,1-.65.07Zm.05-.52a2.167,2.167,0,0,0,.69-.11,1.7,1.7,0,0,0,.575-.32,1.553,1.553,0,0,0,.39-.51A1.543,1.543,0,0,0,10.17-2v-.82h-.02a.361.361,0,0,1-.23.16,2.347,2.347,0,0,1-.3.07q-.4.07-.825.125A4.524,4.524,0,0,0,8.02-2.3a1.477,1.477,0,0,0-.575.32.755.755,0,0,0-.225.58.917.917,0,0,0,.1.425,1.031,1.031,0,0,0,.255.32,1.123,1.123,0,0,0,.365.2A1.337,1.337,0,0,0,8.37-.38Zm5.92.52a2.356,2.356,0,0,1-1.17-.26,2.017,2.017,0,0,1-.73-.69,2.891,2.891,0,0,1-.38-.99,6.006,6.006,0,0,1-.11-1.16q0-.37.03-.775a7.094,7.094,0,0,1,.1-.8,5.816,5.816,0,0,1,.195-.755,2.789,2.789,0,0,1,.31-.65,2.046,2.046,0,0,1,.84-.77,3.451,3.451,0,0,1,1.23-.28l.48-.03a1.827,1.827,0,0,0,.54-.08.373.373,0,0,0,.2-.19h.7a.8.8,0,0,1-.405.625,2.62,2.62,0,0,1-.985.2l-.76.05a1.788,1.788,0,0,0-1.34.63,3.642,3.642,0,0,0-.63,1.77h.03a2.039,2.039,0,0,1,.77-.835,2.126,2.126,0,0,1,1.14-.315,2.4,2.4,0,0,1,.945.18,2.082,2.082,0,0,1,.735.52,2.364,2.364,0,0,1,.48.83,3.342,3.342,0,0,1,.17,1.1,3.354,3.354,0,0,1-.17,1.1,2.421,2.421,0,0,1-.485.845,2.149,2.149,0,0,1-.755.54,2.447,2.447,0,0,1-.975.19Zm0-.52a1.616,1.616,0,0,0,.7-.155,1.627,1.627,0,0,0,.56-.44,2.077,2.077,0,0,0,.365-.68,2.787,2.787,0,0,0,.13-.875,2.707,2.707,0,0,0-.13-.86,1.969,1.969,0,0,0-.365-.665,1.712,1.712,0,0,0-.55-.43,1.53,1.53,0,0,0-.685-.155,1.744,1.744,0,0,0-.73.15,1.611,1.611,0,0,0-.565.425,1.969,1.969,0,0,0-.365.665,2.741,2.741,0,0,0-.13.87,2.787,2.787,0,0,0,.13.875,2.077,2.077,0,0,0,.365.68,1.627,1.627,0,0,0,.56.44,1.616,1.616,0,0,0,.71.155Zm3.33-4.78h.58v.98h.02a1.687,1.687,0,0,1,.715-.835,2.155,2.155,0,0,1,1.125-.3,2.245,2.245,0,0,1,1.025.22,2.1,2.1,0,0,1,.725.6,2.532,2.532,0,0,1,.43.87,3.822,3.822,0,0,1,.14,1.045,3.807,3.807,0,0,1-.14,1.05,2.537,2.537,0,0,1-.43.865,2.053,2.053,0,0,1-.725.59A2.288,2.288,0,0,1,20.06.14,2.281,2.281,0,0,1,19.5.07a1.992,1.992,0,0,1-.515-.21,1.714,1.714,0,0,1-.425-.35,1.492,1.492,0,0,1-.285-.49h-.02V1.9h-.63ZM20.06-.38a1.452,1.452,0,0,0,.77-.2,1.652,1.652,0,0,0,.525-.5,2.2,2.2,0,0,0,.3-.7,3.389,3.389,0,0,0,.095-.8,3.389,3.389,0,0,0-.095-.8,2.2,2.2,0,0,0-.3-.7,1.652,1.652,0,0,0-.525-.5,1.452,1.452,0,0,0-.77-.2,1.883,1.883,0,0,0-.875.18,1.525,1.525,0,0,0-.555.48,1.891,1.891,0,0,0-.3.7,4.033,4.033,0,0,0-.085.84,3.389,3.389,0,0,0,.1.8,2.076,2.076,0,0,0,.31.7,1.67,1.67,0,0,0,.56.5,1.694,1.694,0,0,0,.845.195Zm5.48.52A2.419,2.419,0,0,1,24.5-.075a2.222,2.222,0,0,1-.77-.585,2.554,2.554,0,0,1-.47-.865A3.41,3.41,0,0,1,23.1-2.58a3.424,3.424,0,0,1,.16-1.05,2.546,2.546,0,0,1,.47-.87,2.276,2.276,0,0,1,.765-.59,2.372,2.372,0,0,1,1.045-.22,2.372,2.372,0,0,1,1.045.22,2.276,2.276,0,0,1,.765.59,2.546,2.546,0,0,1,.47.87,3.424,3.424,0,0,1,.16,1.05,3.41,3.41,0,0,1-.16,1.055,2.554,2.554,0,0,1-.47.865,2.222,2.222,0,0,1-.765.585A2.419,2.419,0,0,1,25.54.14Zm0-.52a1.593,1.593,0,0,0,.79-.19,1.734,1.734,0,0,0,.565-.5,2.269,2.269,0,0,0,.34-.7,2.866,2.866,0,0,0,.115-.8,2.866,2.866,0,0,0-.115-.805,2.269,2.269,0,0,0-.34-.7,1.734,1.734,0,0,0-.565-.5,1.593,1.593,0,0,0-.79-.19,1.593,1.593,0,0,0-.79.19,1.734,1.734,0,0,0-.565.5,2.269,2.269,0,0,0-.34.705,2.866,2.866,0,0,0-.115.805,2.866,2.866,0,0,0,.115.8,2.269,2.269,0,0,0,.34.7,1.734,1.734,0,0,0,.565.5A1.593,1.593,0,0,0,25.54-.38Zm3.37-4.78h.63v2.19h2.93V-5.16h.63V0h-.63V-2.44H29.54V0h-.63Zm5.37,0h.63V-.74l2.85-4.42h.78V0h-.63V-4.42L35.06,0h-.78Zm5.45,0h.58v.98h.02a1.687,1.687,0,0,1,.715-.835,2.155,2.155,0,0,1,1.125-.3A2.245,2.245,0,0,1,43.2-5.1a2.1,2.1,0,0,1,.725.6,2.532,2.532,0,0,1,.43.87,3.822,3.822,0,0,1,.14,1.045,3.807,3.807,0,0,1-.14,1.05,2.537,2.537,0,0,1-.43.865,2.053,2.053,0,0,1-.725.59A2.288,2.288,0,0,1,42.17.14,2.281,2.281,0,0,1,41.6.07a1.992,1.992,0,0,1-.515-.21,1.714,1.714,0,0,1-.425-.35,1.492,1.492,0,0,1-.285-.49h-.02V1.9h-.63ZM42.17-.38a1.452,1.452,0,0,0,.77-.195,1.652,1.652,0,0,0,.525-.505,2.2,2.2,0,0,0,.3-.7,3.388,3.388,0,0,0,.1-.8,3.388,3.388,0,0,0-.1-.8,2.2,2.2,0,0,0-.3-.7,1.652,1.652,0,0,0-.525-.5,1.452,1.452,0,0,0-.77-.2,1.883,1.883,0,0,0-.875.18,1.525,1.525,0,0,0-.555.48,1.891,1.891,0,0,0-.3.7,4.033,4.033,0,0,0-.085.84,3.388,3.388,0,0,0,.1.8,2.076,2.076,0,0,0,.31.7,1.67,1.67,0,0,0,.56.505,1.694,1.694,0,0,0,.845.195Zm5.48.52A2.419,2.419,0,0,1,46.6-.075a2.222,2.222,0,0,1-.76-.585,2.554,2.554,0,0,1-.47-.865,3.41,3.41,0,0,1-.16-1.055,3.424,3.424,0,0,1,.16-1.05,2.546,2.546,0,0,1,.47-.87,2.276,2.276,0,0,1,.765-.59,2.372,2.372,0,0,1,1.045-.22,2.372,2.372,0,0,1,1.045.22,2.276,2.276,0,0,1,.765.59,2.546,2.546,0,0,1,.47.87,3.424,3.424,0,0,1,.16,1.05,3.41,3.41,0,0,1-.16,1.055,2.554,2.554,0,0,1-.47.865,2.222,2.222,0,0,1-.765.585A2.419,2.419,0,0,1,47.65.14Zm0-.52a1.593,1.593,0,0,0,.79-.19,1.734,1.734,0,0,0,.56-.5,2.268,2.268,0,0,0,.34-.7,2.866,2.866,0,0,0,.115-.8,2.866,2.866,0,0,0-.115-.805A2.268,2.268,0,0,0,49-4.09a1.734,1.734,0,0,0-.565-.5,1.593,1.593,0,0,0-.79-.19,1.593,1.593,0,0,0-.79.19,1.735,1.735,0,0,0-.565.5,2.269,2.269,0,0,0-.34.7,2.866,2.866,0,0,0-.115.805,2.866,2.866,0,0,0,.115.8,2.269,2.269,0,0,0,.34.7,1.735,1.735,0,0,0,.565.5,1.593,1.593,0,0,0,.8.2Zm3.37-4.78h2.36a2.062,2.062,0,0,1,1.22.31,1.051,1.051,0,0,1,.43.91,1.238,1.238,0,0,1-.235.77,1.21,1.21,0,0,1-.655.43v.02a1.388,1.388,0,0,1,.8.4,1.24,1.24,0,0,1,.29.88,1.281,1.281,0,0,1-.47,1.07A2.2,2.2,0,0,1,53.38,0H51.02ZM53.31-.53a1.583,1.583,0,0,0,.975-.245A.874.874,0,0,0,54.6-1.51a.815.815,0,0,0-.315-.69,1.608,1.608,0,0,0-.975-.24H51.65V-.53Zm0-2.4a1.244,1.244,0,0,0,.815-.23.766.766,0,0,0,.275-.62q0-.85-1.09-.85H51.65v1.7ZM57.65.14a2.582,2.582,0,0,1-.675-.085,1.516,1.516,0,0,1-.55-.27,1.291,1.291,0,0,1-.37-.47,1.563,1.563,0,0,1-.135-.675,1.334,1.334,0,0,1,.24-.845A1.51,1.51,0,0,1,56.8-2.67a3.622,3.622,0,0,1,.89-.225q.5-.065,1-.125.19-.02.345-.05a.613.613,0,0,0,.255-.1.486.486,0,0,0,.155-.205.884.884,0,0,0,.055-.34A1.149,1.149,0,0,0,59.4-4.24a.83.83,0,0,0-.29-.325,1.169,1.169,0,0,0-.43-.165,2.906,2.906,0,0,0-.525-.045,1.59,1.59,0,0,0-.98.285,1.117,1.117,0,0,0-.4.915h-.63a1.665,1.665,0,0,1,.625-1.32A2.435,2.435,0,0,1,58.23-5.3a3.614,3.614,0,0,1,.68.065,1.643,1.643,0,0,1,.61.24,1.334,1.334,0,0,1,.44.5,1.822,1.822,0,0,1,.17.845V-.91a.332.332,0,0,0,.09.282.332.332,0,0,0,.28.1.445.445,0,0,0,.2-.04v.53q-.11.02-.195.03A1.9,1.9,0,0,1,60.29,0a.953.953,0,0,1-.39-.065.517.517,0,0,1-.22-.185.694.694,0,0,1-.1-.285A2.447,2.447,0,0,1,59.55-.9h-.02a4.209,4.209,0,0,1-.345.445,1.715,1.715,0,0,1-.39.325,1.79,1.79,0,0,1-.495.2,2.7,2.7,0,0,1-.65.07Zm.05-.52a2.168,2.168,0,0,0,.69-.11,1.7,1.7,0,0,0,.575-.32,1.554,1.554,0,0,0,.39-.51A1.543,1.543,0,0,0,59.5-2v-.82h-.02a.361.361,0,0,1-.23.16,2.347,2.347,0,0,1-.3.07q-.4.07-.825.125a4.524,4.524,0,0,0-.775.165,1.477,1.477,0,0,0-.575.32.755.755,0,0,0-.225.58.917.917,0,0,0,.1.425,1.031,1.031,0,0,0,.255.32,1.123,1.123,0,0,0,.365.2A1.337,1.337,0,0,0,57.7-.38Zm3.68-4.78h.63v2.19h2.93V-5.16h.63V0h-.63V-2.44H62.01V0h-.63ZM68.94.14A2.419,2.419,0,0,1,67.9-.075a2.222,2.222,0,0,1-.77-.585,2.554,2.554,0,0,1-.47-.865A3.41,3.41,0,0,1,66.5-2.58a3.424,3.424,0,0,1,.16-1.05,2.546,2.546,0,0,1,.47-.87,2.276,2.276,0,0,1,.765-.59,2.372,2.372,0,0,1,1.045-.22,2.372,2.372,0,0,1,1.045.22,2.276,2.276,0,0,1,.765.59,2.546,2.546,0,0,1,.47.87,3.424,3.424,0,0,1,.16,1.05,3.41,3.41,0,0,1-.16,1.055,2.554,2.554,0,0,1-.47.865,2.222,2.222,0,0,1-.765.585A2.419,2.419,0,0,1,68.94.14Zm0-.52a1.593,1.593,0,0,0,.79-.19,1.734,1.734,0,0,0,.565-.5,2.268,2.268,0,0,0,.34-.7,2.866,2.866,0,0,0,.115-.8,2.866,2.866,0,0,0-.115-.805,2.268,2.268,0,0,0-.34-.705,1.734,1.734,0,0,0-.565-.5,1.593,1.593,0,0,0-.79-.19,1.593,1.593,0,0,0-.79.19,1.735,1.735,0,0,0-.565.5,2.268,2.268,0,0,0-.34.7,2.866,2.866,0,0,0-.115.805,2.866,2.866,0,0,0,.115.8,2.268,2.268,0,0,0,.34.7,1.735,1.735,0,0,0,.565.5A1.593,1.593,0,0,0,68.94-.38Z" transform="translate(-2406.752 -4143.903)" fill="#fff"/>
    </g>
  </g>
</svg>
