<svg xmlns="http://www.w3.org/2000/svg" width="92.34" height="72.962" viewBox="0 0 92.34 72.962">
  <g id="Сгруппировать_126" data-name="Сгруппировать 126" transform="translate(-626.182 -336.907)">
    <path id="Контур_431" data-name="Контур 431" d="M16738.844,3663.372v1.422h.928v4.239h12.994v-4.344h.8v-1.317Z" transform="translate(-16112.662 -3326.465)"/>
    <path id="Контур_451" data-name="Контур 451" d="M16738.844,3663.372v1.422h.928v4.239l13.582.105v-4.344h.8v-1.317Z" transform="translate(-16035.633 -3326.465)"/>
    <path id="Контур_432" data-name="Контур 432" d="M16738.844,3663.372v1.422h.928v4.239h18.348v-4.344h.8v-1.317Z" transform="translate(-16076.572 -3326.465)"/>
    <path id="Контур_587" data-name="Контур 587" d="M0,0H9.7V31.781H0Z" transform="translate(647.092 360.892)" fill="none" stroke="#000" stroke-width="3"/>
    <path id="Контур_433" data-name="Контур 433" d="M10648.793,2747.792h13.727" transform="translate(-10015.817 -2386.473)" fill="none" stroke="#000" stroke-width="1"/>
    <path id="Контур_442" data-name="Контур 442" d="M10648.793,2747.792h13.727" transform="translate(-9991.577 -2386.473)" fill="none" stroke="#000" stroke-width="1"/>
    <path id="Контур_434" data-name="Контур 434" d="M10648.793,2747.792h13.727" transform="translate(-10015.817 -2382.702)" fill="none" stroke="#000" stroke-width="1"/>
    <path id="Контур_443" data-name="Контур 443" d="M10648.793,2747.792h13.727" transform="translate(-9991.577 -2382.702)" fill="none" stroke="#000" stroke-width="1"/>
    <path id="Контур_435" data-name="Контур 435" d="M10648.793,2747.792h13.727" transform="translate(-10015.817 -2378.932)" fill="none" stroke="#000" stroke-width="1"/>
    <path id="Контур_444" data-name="Контур 444" d="M10648.793,2747.792h13.727" transform="translate(-9991.577 -2378.932)" fill="none" stroke="#000" stroke-width="1"/>
    <path id="Контур_436" data-name="Контур 436" d="M10648.793,2747.792h13.727" transform="translate(-10015.817 -2375.161)" fill="none" stroke="#000" stroke-width="1"/>
    <path id="Контур_445" data-name="Контур 445" d="M10648.793,2747.792h13.727" transform="translate(-9991.577 -2375.161)" fill="none" stroke="#000" stroke-width="1"/>
    <path id="Контур_437" data-name="Контур 437" d="M10648.793,2747.792h13.727" transform="translate(-10015.817 -2371.39)" fill="none" stroke="#000" stroke-width="1"/>
    <path id="Контур_446" data-name="Контур 446" d="M10648.793,2747.792h13.727" transform="translate(-9991.577 -2371.39)" fill="none" stroke="#000" stroke-width="1"/>
    <path id="Контур_438" data-name="Контур 438" d="M10648.793,2747.792h13.727" transform="translate(-10016.244 -2367.62)" fill="none" stroke="#000" stroke-width="1"/>
    <path id="Контур_447" data-name="Контур 447" d="M10648.793,2747.792h13.727" transform="translate(-9991.188 -2367.62)" fill="none" stroke="#000" stroke-width="1"/>
    <path id="Контур_439" data-name="Контур 439" d="M10648.793,2747.792h13.727" transform="translate(-10015.817 -2363.849)" fill="none" stroke="#000" stroke-width="1"/>
    <path id="Контур_448" data-name="Контур 448" d="M10648.793,2747.792h13.727" transform="translate(-9991.188 -2363.849)" fill="none" stroke="#000" stroke-width="1"/>
    <path id="Контур_440" data-name="Контур 440" d="M10648.793,2747.792h13.727" transform="translate(-10015.817 -2360.078)" fill="none" stroke="#000" stroke-width="1"/>
    <path id="Контур_449" data-name="Контур 449" d="M10648.793,2747.792h13.727" transform="translate(-9991.188 -2360.078)" fill="none" stroke="#000" stroke-width="1"/>
    <path id="Контур_441" data-name="Контур 441" d="M10648.793,2747.792h13.727" transform="translate(-10015.817 -2356.308)" fill="none" stroke="#000" stroke-width="1"/>
    <path id="Контур_450" data-name="Контур 450" d="M10648.793,2747.792h13.727" transform="translate(-9991.577 -2356.308)" fill="none" stroke="#000" stroke-width="1"/>
    <path id="Контур_452" data-name="Контур 452" d="M0,0H2.538V72.692H0Z" transform="translate(670.942 337.176)"/>
    <path id="Контур_453" data-name="Контур 453" d="M0,0H1.631V26.535H0Z" transform="translate(701.269 357.271) rotate(90)"/>
    <path id="Контур_462" data-name="Контур 462" d="M0,0H1.163V19.893H0Z" transform="translate(697.948 363.458) rotate(90)"/>
    <path id="Контур_465" data-name="Контур 465" d="M0,0H1.163V4H0Z" transform="translate(682.379 388.566) rotate(90)"/>
    <path id="Контур_466" data-name="Контур 466" d="M0,0H1.163V4H0Z" transform="translate(697.948 388.566) rotate(90)"/>
    <path id="Контур_454" data-name="Контур 454" d="M0,0H1.631V36.843H0Z" transform="translate(701.269 394.114) rotate(180)"/>
    <path id="Контур_455" data-name="Контур 455" d="M0,0H1.631V36.843H0Z" transform="translate(676.365 394.114) rotate(180)"/>
    <path id="Контур_456" data-name="Контур 456" d="M0,0H1.631V6H0Z" transform="translate(695.272 394.114) rotate(-90)"/>
    <path id="Контур_457" data-name="Контур 457" d="M0,0H1.631V6.328H0Z" transform="translate(675.549 394.114) rotate(-90)"/>
    <path id="Контур_458" data-name="Контур 458" d="M0,0H32.267V5.076H0Z" transform="translate(635.807 337.199)" fill="none" stroke="#000" stroke-width="0.5"/>
    <path id="Контур_460" data-name="Контур 460" d="M0,0H32.267V5.076H0Z" transform="translate(675.677 337.176)" fill="none" stroke="#000" stroke-width="0.5"/>
    <path id="Контур_459" data-name="Контур 459" d="M16360.146,3670.232h26.378" transform="translate(-15720.868 -3331.987)" fill="none" stroke="#000" stroke-width="0.5"/>
    <path id="Контур_461" data-name="Контур 461" d="M16360.146,3670.232h26.378" transform="translate(-15680.998 -3332.01)" fill="none" stroke="#000" stroke-width="0.5"/>
    <rect id="Прямоугольник_91" data-name="Прямоугольник 91" width="8.08" height="0.539" transform="translate(679.951 391.596)"/>
    <rect id="Прямоугольник_94" data-name="Прямоугольник 94" width="8.08" height="0.539" transform="translate(679.951 390.519)"/>
    <rect id="Прямоугольник_92" data-name="Прямоугольник 92" width="8.08" height="0.539" transform="translate(689.109 391.596)"/>
    <rect id="Прямоугольник_93" data-name="Прямоугольник 93" width="8.08" height="0.539" transform="translate(689.109 390.519)"/>
    <path id="Контур_463" data-name="Контур 463" d="M0,0H1.163V25.968H0Z" transform="translate(697.948 389.729) rotate(180)"/>
    <path id="Контур_464" data-name="Контур 464" d="M0,0H1.163V26.153H0Z" transform="translate(679.218 389.729) rotate(180)"/>
    <path id="Контур_467" data-name="Контур 467" d="M10752.513,2752.842l-18.083,24.783" transform="translate(-10055.325 -2388.803)" fill="none" stroke="#000" stroke-width="0.5"/>
    <path id="Контур_468" data-name="Контур 468" d="M10734.43,2752.842l18.083,24.783" transform="translate(-10055.325 -2388.803)" fill="none" stroke="#000" stroke-width="0.5"/>
  </g>
</svg>
