<svg xmlns="http://www.w3.org/2000/svg" width="21.782" height="18" viewBox="0 0 21.782 18">
  <g id="Сгруппировать_500" data-name="Сгруппировать 500" transform="translate(-1593.718 -68.5)">
    <path id="Контур_15" data-name="Контур 15" d="M16.843,15.528A9.332,9.332,0,0,1,9.5,19a9.629,9.629,0,0,1-7.534-3.712" transform="translate(1593.596 67)" fill="none" stroke="#b91a1a" stroke-linecap="round" stroke-width="1"/>
    <path id="Контур_1697" data-name="Контур 1697" d="M.718-.229V-1.572a2.71,2.71,0,0,0,1.641.513,1.477,1.477,0,0,0,.92-.254.843.843,0,0,0,.33-.708A.8.8,0,0,0,3.2-2.744,2.112,2.112,0,0,0,2.08-3H1.45V-4.18h.581Q3.4-4.18,3.4-5.088q0-.854-1.05-.854a2.393,2.393,0,0,0-1.367.454v-1.26A3.776,3.776,0,0,1,2.7-7.119a2.594,2.594,0,0,1,1.672.483,1.538,1.538,0,0,1,.6,1.255A1.632,1.632,0,0,1,3.579-3.662v.024a1.892,1.892,0,0,1,1.172.54A1.521,1.521,0,0,1,5.181-2,1.879,1.879,0,0,1,4.463-.449,3.1,3.1,0,0,1,2.48.122,3.831,3.831,0,0,1,.718-.229Zm10.956-6.7V-5.64a2.31,2.31,0,0,0-1.162-.3,1.528,1.528,0,0,0-1.252.593,2.55,2.55,0,0,0-.5,1.589h.029a1.663,1.663,0,0,1,1.47-.742,1.748,1.748,0,0,1,1.394.6,2.326,2.326,0,0,1,.515,1.577,2.4,2.4,0,0,1-.684,1.753,2.329,2.329,0,0,1-1.738.7A2.206,2.206,0,0,1,7.9-.732a3.826,3.826,0,0,1-.664-2.4,4.567,4.567,0,0,1,.854-2.9,2.794,2.794,0,0,1,2.319-1.086A3.325,3.325,0,0,1,11.674-6.929ZM9.74-3.359a.84.84,0,0,0-.676.3,1.14,1.14,0,0,0-.251.762,1.482,1.482,0,0,0,.256.876.8.8,0,0,0,.681.364.8.8,0,0,0,.664-.325,1.354,1.354,0,0,0,.249-.847Q10.663-3.359,9.74-3.359ZM16.346.122q-2.5,0-2.5-3.511a4.777,4.777,0,0,1,.676-2.776,2.253,2.253,0,0,1,1.96-.955q2.441,0,2.441,3.569a4.7,4.7,0,0,1-.667,2.725A2.2,2.2,0,0,1,16.346.122Zm.068-6.064q-1,0-1,2.515,0,2.368.981,2.368.957,0,.957-2.441T16.414-5.942Z" transform="translate(1593 79)" fill="#b91a1a"/>
    <circle id="Эллипс_16" data-name="Эллипс 16" cx="1" cy="1" r="1" transform="translate(1613 69)" fill="none" stroke="#b91a1a" stroke-width="1"/>
    <path id="Контур_16" data-name="Контур 16" d="M1855.367,87.513h-1.7v1.77" transform="matrix(0.017, 1, -1, 0.017, 1666.346, -1773.172)" fill="none" stroke="#b91a1a" stroke-linecap="round" stroke-width="1"/>
  </g>
</svg>
