<svg xmlns="http://www.w3.org/2000/svg" width="146.723" height="20.594" viewBox="0 0 146.723 20.594">
  <g id="Сгруппировать_153" data-name="Сгруппировать 153" transform="translate(-794.241 -2180.237)">
    <g id="Сгруппировать_150" data-name="Сгруппировать 150" transform="translate(794.703 2181.432)">
      <g id="Сгруппировать_3" data-name="Сгруппировать 3" transform="translate(0 0.304)">
        <path id="Контур_33" data-name="Контур 33" d="M24.7,87.323c6.644,2.151,10.636-3.836,17.274-3.836,6.671,0,10.908,6.317,17.582,3.378" transform="translate(-24.703 -83.487)" fill="none" stroke="#b91a1a" stroke-width="3"/>
        <path id="Контур_34" data-name="Контур 34" d="M42.572,87.435c3.809-.989,7.168-3.947,11.834-3.947,6.671,0,10.908,6.317,17.582,3.378" transform="translate(-9.433 -83.487)" fill="none" stroke="#b91a1a" stroke-width="3"/>
        <path id="Контур_35" data-name="Контур 35" d="M42.572,87.435c3.809-.989,7.168-3.947,11.834-3.947,6.671,0,10.908,6.317,17.582,3.378" transform="translate(18.268 -83.487)" fill="none" stroke="#b91a1a" stroke-width="3"/>
        <path id="Контур_36" data-name="Контур 36" d="M42.572,87.435c3.809-.989,7.168-3.947,11.834-3.947,6.671,0,10.908,6.317,17.582,3.378" transform="translate(45.968 -83.487)" fill="none" stroke="#b91a1a" stroke-width="3"/>
        <path id="Контур_37" data-name="Контур 37" d="M42.572,87.435c3.809-.989,7.168-3.947,11.834-3.947,6.671,0,10.908,6.317,17.582,3.378" transform="translate(45.968 -83.487)" fill="none" stroke="#b91a1a" stroke-width="3"/>
        <path id="Контур_38" data-name="Контур 38" d="M42.572,87.435c3.809-.989,7.168-3.947,11.834-3.947,6.671,0,10.908,6.317,17.582,3.378" transform="translate(73.668 -83.487)" fill="none" stroke="#b91a1a" stroke-width="3"/>
      </g>
    </g>
    <g id="Сгруппировать_151" data-name="Сгруппировать 151" transform="translate(794.703 2188.129)">
      <g id="Сгруппировать_3-2" data-name="Сгруппировать 3" transform="translate(0 0.304)">
        <path id="Контур_33-2" data-name="Контур 33" d="M24.7,87.323c6.644,2.151,10.636-3.836,17.274-3.836,6.671,0,10.908,6.317,17.582,3.378" transform="translate(-24.703 -83.487)" fill="none" stroke="#898989" stroke-width="3"/>
        <path id="Контур_34-2" data-name="Контур 34" d="M42.572,87.435c3.809-.989,7.168-3.947,11.834-3.947,6.671,0,10.908,6.317,17.582,3.378" transform="translate(-9.433 -83.487)" fill="none" stroke="#898989" stroke-width="3"/>
        <path id="Контур_35-2" data-name="Контур 35" d="M42.572,87.435c3.809-.989,7.168-3.947,11.834-3.947,6.671,0,10.908,6.317,17.582,3.378" transform="translate(18.268 -83.487)" fill="none" stroke="#898989" stroke-width="3"/>
        <path id="Контур_36-2" data-name="Контур 36" d="M42.572,87.435c3.809-.989,7.168-3.947,11.834-3.947,6.671,0,10.908,6.317,17.582,3.378" transform="translate(45.968 -83.487)" fill="none" stroke="#898989" stroke-width="3"/>
        <path id="Контур_37-2" data-name="Контур 37" d="M42.572,87.435c3.809-.989,7.168-3.947,11.834-3.947,6.671,0,10.908,6.317,17.582,3.378" transform="translate(45.968 -83.487)" fill="none" stroke="#898989" stroke-width="3"/>
        <path id="Контур_38-2" data-name="Контур 38" d="M42.572,87.435c3.809-.989,7.168-3.947,11.834-3.947,6.671,0,10.908,6.317,17.582,3.378" transform="translate(73.668 -83.487)" fill="none" stroke="#898989" stroke-width="3"/>
      </g>
    </g>
    <g id="Сгруппировать_152" data-name="Сгруппировать 152" transform="translate(794.703 2194.826)">
      <g id="Сгруппировать_3-3" data-name="Сгруппировать 3" transform="translate(0 0.304)">
        <path id="Контур_33-3" data-name="Контур 33" d="M24.7,87.323c6.644,2.151,10.636-3.836,17.274-3.836,6.671,0,10.908,6.317,17.582,3.378" transform="translate(-24.703 -83.487)" fill="none" stroke="#898989" stroke-width="3"/>
        <path id="Контур_34-3" data-name="Контур 34" d="M42.572,87.435c3.809-.989,7.168-3.947,11.834-3.947,6.671,0,10.908,6.317,17.582,3.378" transform="translate(-9.433 -83.487)" fill="none" stroke="#898989" stroke-width="3"/>
        <path id="Контур_35-3" data-name="Контур 35" d="M42.572,87.435c3.809-.989,7.168-3.947,11.834-3.947,6.671,0,10.908,6.317,17.582,3.378" transform="translate(18.268 -83.487)" fill="none" stroke="#898989" stroke-width="3"/>
        <path id="Контур_36-3" data-name="Контур 36" d="M42.572,87.435c3.809-.989,7.168-3.947,11.834-3.947,6.671,0,10.908,6.317,17.582,3.378" transform="translate(45.968 -83.487)" fill="none" stroke="#898989" stroke-width="3"/>
        <path id="Контур_37-3" data-name="Контур 37" d="M42.572,87.435c3.809-.989,7.168-3.947,11.834-3.947,6.671,0,10.908,6.317,17.582,3.378" transform="translate(45.968 -83.487)" fill="none" stroke="#898989" stroke-width="3"/>
        <path id="Контур_38-3" data-name="Контур 38" d="M42.572,87.435c3.809-.989,7.168-3.947,11.834-3.947,6.671,0,10.908,6.317,17.582,3.378" transform="translate(73.668 -83.487)" fill="none" stroke="#898989" stroke-width="3"/>
      </g>
    </g>
  </g>
</svg>
