<svg xmlns="http://www.w3.org/2000/svg" width="6.807" height="13.108" viewBox="0 0 6.807 13.108">
  <g id="free-icon-facebook-logo-49052" transform="translate(-23.127)">
    <path id="Контур_26" data-name="Контур 26" d="M29.934,2.176H28.7c-.967,0-1.155.46-1.155,1.134V4.8h2.307v2.33H27.545v5.979H25.139V7.128H23.127V4.8h2.012V3.08a2.808,2.808,0,0,1,3-3.08l1.8,0V2.176Z"/>
  </g>
</svg>
