<svg xmlns="http://www.w3.org/2000/svg" width="12.134" height="13.853" viewBox="0 0 12.134 13.853">
  <path id="Контур_1609" data-name="Контур 1609" d="M9.067,8.438A8.866,8.866,0,0,0,3,6.045V13.46a8.866,8.866,0,0,1,6.067,2.393,8.9,8.9,0,0,1,6.067-2.393V6.045A8.866,8.866,0,0,0,9.067,8.438Zm0-2.393A2.022,2.022,0,1,0,7.045,4.022,2.02,2.02,0,0,0,9.067,6.045Z" transform="translate(-3 -2)" fill="#d0940f"/>
</svg>
