<svg xmlns="http://www.w3.org/2000/svg" width="16.125" height="14.513" viewBox="0 0 16.125 14.513">
  <g id="print-outlined-24px" transform="translate(-1.613 -2.419)">
    <path id="Контур_614" data-name="Контур 614" d="M15.706,7.031H14.9V3H5.225V7.031H4.419A2.416,2.416,0,0,0,2,9.45v4.838H5.225v3.225H14.9V14.288h3.225V9.45A2.416,2.416,0,0,0,15.706,7.031ZM6.838,4.613h6.45V7.031H6.838Zm6.45,9.675V15.9H6.838V12.675h6.45ZM14.9,12.675V11.063H5.225v1.613H3.613V9.45a.809.809,0,0,1,.806-.806H15.706a.809.809,0,0,1,.806.806v3.225Z" transform="translate(-0.387 -0.581)"/>
    <path id="Контур_615" data-name="Контур 615" d="M.806,0A.806.806,0,1,1,0,.806.806.806,0,0,1,.806,0Z" transform="translate(13.706 8.466)"/>
  </g>
</svg>
