<svg xmlns="http://www.w3.org/2000/svg" width="47.5" height="31.641" viewBox="0 0 47.5 31.641">
  <g id="Сгруппировать_169" data-name="Сгруппировать 169" transform="translate(-1192.072 -156.137)">
    <path id="Контур_842" data-name="Контур 842" d="M21590.025,10214.962h-15.414l-2.336-1.207a3.912,3.912,0,0,0-3.971-.174l-13.637,5.948a6.457,6.457,0,0,0,8.08,2.668l3.621-1.429a4.04,4.04,0,0,1,2.475-.318,5.379,5.379,0,0,1,2.041,1.2l10.777,10.386s2.463,2.3.684,4.065-4.193-.664-4.193-.664l-5.117-4.9" transform="translate(-20350.453 -10055.836)" fill="none" stroke="#b91a1a" stroke-width="1"/>
    <path id="Контур_843" data-name="Контур 843" d="M21587.258,10249.619s1.637,1.892,0,3.361-3.941-.533-3.941-.533l-4.055-3.6" transform="translate(-20359.953 -10070.371)" fill="none" stroke="#b91a1a" stroke-width="1"/>
    <path id="Контур_844" data-name="Контур 844" d="M21586.566,10248.385s1.895,2.276.246,3.844-4.066-.54-4.066-.54l-5.234-4.874" transform="translate(-20364.201 -10067.202)" fill="none" stroke="#b91a1a" stroke-width="1"/>
    <path id="Контур_845" data-name="Контур 845" d="M21576.914,10240.707s1.844,1.977.189,3.519-3.834-.639-3.834-.639l-9.4-9.127a11.017,11.017,0,0,1-1.744-2.273,11.559,11.559,0,0,1-.941-2.8l-.178-.843a1.794,1.794,0,0,0-.777-1.247,3.259,3.259,0,0,0-1.471-.352h-5.918" transform="translate(-20359.838 -10057.611)" fill="none" stroke="#b91a1a" stroke-width="1"/>
    <path id="Контур_846" data-name="Контур 846" d="M21534.4,10214.366h10.139a14.9,14.9,0,0,0,2.869-.218,14.14,14.14,0,0,0,2.693-.85l2.875-1.29" transform="translate(-20342.326 -10055.415)" fill="none" stroke="#b91a1a" stroke-width="1"/>
    <path id="Контур_847" data-name="Контур 847" d="M21598.279,10239.345a2.184,2.184,0,0,0,1.168-.719,1.88,1.88,0,0,0,.344-1.346v-1.5a1.513,1.513,0,0,1,1.66-1.684h5.84" transform="translate(-20367.936 -10064.238)" fill="none" stroke="#b91a1a" stroke-width="1"/>
  </g>
</svg>
