<svg xmlns="http://www.w3.org/2000/svg" width="13.269" height="15.08" viewBox="0 0 13.269 15.08">
  <g id="Сгруппировать_126" data-name="Сгруппировать 126" transform="translate(0.65 0.65)">
    <path id="Контур_621" data-name="Контур 621" d="M2.434.426a2,2,0,1,1-2,2A2,2,0,0,1,2.434.426Z" transform="translate(7.535 -0.426)" fill="#fff" stroke="#000" stroke-width="1.3"/>
    <path id="Контур_620" data-name="Контур 620" d="M1.957-.439a2,2,0,1,1-2,2A2,2,0,0,1,1.957-.439Z" transform="translate(0.043 5.574)" fill="#fff" stroke="#000" stroke-width="1.3"/>
    <path id="Контур_618" data-name="Контур 618" d="M19403.633,3250.825l-4.488,2.691" transform="translate(-19395.049 -3247.736)" fill="none" stroke="#000" stroke-width="1"/>
    <path id="Контур_622" data-name="Контур 622" d="M2.434,4.426a2,2,0,1,0-2-2A2,2,0,0,0,2.434,4.426Z" transform="translate(7.535 9.355)" fill="#fff" stroke="#000" stroke-width="1.3"/>
    <path id="Контур_623" data-name="Контур 623" d="M19403.633,3253.516l-4.488-2.691" transform="translate(-19395.049 -3242.825)" fill="none" stroke="#000" stroke-width="1"/>
  </g>
</svg>
