<svg xmlns="http://www.w3.org/2000/svg" width="18" height="18" viewBox="0 0 18 18">
  <path id="Контур_2065" data-name="Контур 2065" d="M5,15H3v6H9V19H5ZM5,5H9V3H3V9H5ZM21,3H15V5h4V9h2ZM19,19H15v2h6V15H19ZM12,8a4,4,0,1,0,4,4A4,4,0,0,0,12,8Zm0,6a2,2,0,1,1,2-2A2.006,2.006,0,0,1,12,14Z" transform="translate(-3 -3)"/>
</svg>
