<svg xmlns="http://www.w3.org/2000/svg" width="19" height="19" viewBox="0 0 19 19">
  <g id="Сгруппировать_499" data-name="Сгруппировать 499" transform="translate(-10 -10)">
    <g id="Контур_1536" data-name="Контур 1536" transform="translate(10 10)" fill="none">
      <path d="M9.5,0A9.5,9.5,0,1,1,0,9.5,9.5,9.5,0,0,1,9.5,0Z" stroke="none"/>
      <path d="M 9.5 1 C 4.813079833984375 1 1 4.813079833984375 1 9.5 C 1 14.18692016601562 4.813079833984375 18 9.5 18 C 14.18692016601562 18 18 14.18692016601562 18 9.5 C 18 4.813079833984375 14.18692016601562 1 9.5 1 M 9.5 0 C 14.74670028686523 0 19 4.253299713134766 19 9.5 C 19 14.74670028686523 14.74670028686523 19 9.5 19 C 4.253299713134766 19 0 14.74670028686523 0 9.5 C 0 4.253299713134766 4.253299713134766 0 9.5 0 Z" stroke="none" fill="#b91a1a"/>
    </g>
    <path id="Контур_1535" data-name="Контур 1535" d="M3.664.23a.5.5,0,0,1,.841,0L8.09,5.8a.5.5,0,0,1-.421.77H.5A.5.5,0,0,1,.08,5.8Z" transform="translate(23.575 15.415) rotate(90)" fill="#b91a1a"/>
  </g>
</svg>
