<svg xmlns="http://www.w3.org/2000/svg" width="3.997" height="6.994" viewBox="0 0 3.997 6.994">
  <path id="Контур_1577" data-name="Контур 1577" d="M151.971,12.92l2.79,2.79-2.79,2.79" transform="translate(-151.264 -12.213)" fill="none" stroke="#b91a1a" stroke-linecap="round" stroke-linejoin="round" stroke-width="1"/>
</svg>
